ISO-10303-21;
HEADER;
FILE_DESCRIPTION (( 'STEP AP203' ),
    '1' );
FILE_NAME ('MC01.STEP',
    '2019-10-19T00:03:41',
    ( '' ),
    ( '' ),
    'SwSTEP 2.0',
    'SolidWorks 2017',
    '' );
FILE_SCHEMA (( 'CONFIG_CONTROL_DESIGN' ));
ENDSEC;

DATA;
#1 = FACE_OUTER_BOUND ( 'NONE', #1072, .T. ) ;
#2 = VECTOR ( 'NONE', #714, 1000.000000000000100 ) ;
#3 = DIRECTION ( 'NONE',  ( 0.0000000000000000000, -0.7071067811865475700, 0.7071067811865475700 ) ) ;
#4 = EDGE_CURVE ( 'NONE', #1233, #327, #1260, .T. ) ;
#5 = APPROVAL_DATE_TIME ( #1126, #336 ) ;
#6 = CARTESIAN_POINT ( 'NONE',  ( -32.00000000000000000, 3.314999999999999900, 0.2999999999999999300 ) ) ;
#7 = ORIENTED_EDGE ( 'NONE', *, *, #752, .T. ) ;
#8 = CIRCLE ( 'NONE', #893, 11.39999999999999300 ) ;
#9 = CARTESIAN_POINT ( 'NONE',  ( -36.14999999999998400, -3.200000000000000200, 4.099999999999999600 ) ) ;
#10 = CARTESIAN_POINT ( 'NONE',  ( -37.04999999999999700, 4.830000000000000100, 0.0000000000000000000 ) ) ;
#11 = EDGE_CURVE ( 'NONE', #347, #201, #332, .T. ) ;
#12 = ORIENTED_EDGE ( 'NONE', *, *, #1075, .T. ) ;
#13 = CARTESIAN_POINT ( 'NONE',  ( -25.94999999999999900, 16.22999999999999700, 0.2999999999999981600 ) ) ;
#14 = CARTESIAN_POINT ( 'NONE',  ( -25.94999999999999900, 4.830000000000000100, 0.2999999999999981600 ) ) ;
#15 = AXIS2_PLACEMENT_3D ( 'NONE', #372, #1166, #1163 ) ;
#16 = DIRECTION ( 'NONE',  ( 0.0000000000000000000, 0.0000000000000000000, -1.000000000000000000 ) ) ;
#17 = ORIENTED_EDGE ( 'NONE', *, *, #1150, .F. ) ;
#18 = ADVANCED_FACE ( 'NONE', ( #375 ), #276, .T. ) ;
#19 = FACE_OUTER_BOUND ( 'NONE', #601, .T. ) ;
#20 = AXIS2_PLACEMENT_3D ( 'NONE', #429, #331, #323 ) ;
#21 = DIRECTION ( 'NONE',  ( 1.000000000000000000, 0.0000000000000000000, 0.0000000000000000000 ) ) ;
#22 = ORIENTED_EDGE ( 'NONE', *, *, #552, .F. ) ;
#23 = AXIS2_PLACEMENT_3D ( 'NONE', #291, #193, #955 ) ;
#24 = VERTEX_POINT ( 'NONE', #217 ) ;
#25 = EDGE_LOOP ( 'NONE', ( #104, #333 ) ) ;
#26 = DIRECTION ( 'NONE',  ( 0.0000000000000000000, -0.7071067811865474600, -0.7071067811865474600 ) ) ;
#27 = CARTESIAN_POINT ( 'NONE',  ( 18.10000000000000100, -5.500000000000000900, 4.099999999999999600 ) ) ;
#28 = AXIS2_PLACEMENT_3D ( 'NONE', #1168, #573, #1262 ) ;
#29 = DIRECTION ( 'NONE',  ( -0.0000000000000000000, -0.0000000000000000000, 1.000000000000000000 ) ) ;
#30 = CARTESIAN_POINT ( 'NONE',  ( -25.94999999999999900, 16.22999999999999700, 2.899999999999991500 ) ) ;
#31 = DIRECTION ( 'NONE',  ( -0.0000000000000000000, -0.0000000000000000000, -1.000000000000000000 ) ) ;
#32 = FACE_OUTER_BOUND ( 'NONE', #1265, .T. ) ;
#33 = ORIENTED_EDGE ( 'NONE', *, *, #929, .T. ) ;
#34 = DIRECTION ( 'NONE',  ( 1.000000000000000000, 0.0000000000000000000, 0.0000000000000000000 ) ) ;
#35 = LOCAL_TIME ( 17, 3, 41.00000000000000000, #719 ) ;
#36 = DIRECTION ( 'NONE',  ( 1.000000000000000000, 0.0000000000000000000, 0.0000000000000000000 ) ) ;
#37 = ORIENTED_EDGE ( 'NONE', *, *, #1276, .T. ) ;
#38 = LINE ( 'NONE', #275, #142 ) ;
#39 = ORIENTED_EDGE ( 'NONE', *, *, #605, .F. ) ;
#40 = CYLINDRICAL_SURFACE ( 'NONE', #1039, 11.39999999999999500 ) ;
#41 = CARTESIAN_POINT ( 'NONE',  ( -25.95000000000000300, -14.59999999999999400, 4.099999999999999600 ) ) ;
#42 = AXIS2_PLACEMENT_3D ( 'NONE', #1212, #447, #836 ) ;
#43 = CARTESIAN_POINT ( 'NONE',  ( -36.14999999999998400, 4.830000000000000100, 4.099999999999999600 ) ) ;
#44 = EDGE_CURVE ( 'NONE', #972, #1011, #290, .T. ) ;
#45 = DIRECTION ( 'NONE',  ( -0.7071067811865435800, 0.0000000000000000000, 0.7071067811865515700 ) ) ;
#46 = LINE ( 'NONE', #775, #990 ) ;
#47 = DIRECTION ( 'NONE',  ( -0.0000000000000000000, -0.0000000000000000000, -1.000000000000000000 ) ) ;
#48 = DIRECTION ( 'NONE',  ( -1.000000000000000000, 0.0000000000000000000, 0.0000000000000000000 ) ) ;
#49 = CYLINDRICAL_SURFACE ( 'NONE', #818, 2.250000000000000400 ) ;
#50 = AXIS2_PLACEMENT_3D ( 'NONE', #1141, #643, #344 ) ;
#51 = CYLINDRICAL_SURFACE ( 'NONE', #985, 2.250000000000000400 ) ;
#52 = AXIS2_PLACEMENT_3D ( 'NONE', #316, #603, #21 ) ;
#53 = DIRECTION ( 'NONE',  ( -0.7071067811865435800, 0.0000000000000000000, 0.7071067811865515700 ) ) ;
#54 = CONICAL_SURFACE ( 'NONE', #1052, 10.19999999999998700, 0.7853981633974482800 ) ;
#55 = PERSON_AND_ORGANIZATION_ROLE ( 'classification_officer' ) ;
#56 = CARTESIAN_POINT ( 'NONE',  ( -13.40000000000000000, -5.500000000000000000, 4.099999999999999600 ) ) ;
#57 = LINE ( 'NONE', #385, #365 ) ;
#58 = ORIENTED_EDGE ( 'NONE', *, *, #645, .F. ) ;
#59 = APPROVAL_STATUS ( 'not_yet_approved' ) ;
#60 = EDGE_CURVE ( 'NONE', #745, #442, #441, .T. ) ;
#61 = DIRECTION ( 'NONE',  ( -0.0000000000000000000, -0.0000000000000000000, 1.000000000000000000 ) ) ;
#62 = ORIENTED_EDGE ( 'NONE', *, *, #815, .T. ) ;
#63 = DIRECTION ( 'NONE',  ( 0.0000000000000000000, -1.000000000000000000, 0.0000000000000000000 ) ) ;
#64 = ORIENTED_EDGE ( 'NONE', *, *, #980, .T. ) ;
#65 = FACE_BOUND ( 'NONE', #25, .T. ) ;
#66 = CIRCLE ( 'NONE', #779, 2.009999999999998000 ) ;
#67 = DIRECTION ( 'NONE',  ( 1.000000000000000000, 0.0000000000000000000, 0.0000000000000000000 ) ) ;
#68 = LINE ( 'NONE', #27, #1227 ) ;
#69 = PERSON_AND_ORGANIZATION_ROLE ( 'creator' ) ;
#70 = CARTESIAN_POINT ( 'NONE',  ( 25.94999999999999900, -3.200000000000000200, 4.099999999999999600 ) ) ;
#71 = FACE_OUTER_BOUND ( 'NONE', #137, .T. ) ;
#72 = AXIS2_PLACEMENT_3D ( 'NONE', #43, #421, #1014 ) ;
#73 = AXIS2_PLACEMENT_3D ( 'NONE', #755, #554, #1054 ) ;
#74 = CARTESIAN_POINT ( 'NONE',  ( 25.94999999999999900, -3.200000000000000200, 0.0000000000000000000 ) ) ;
#75 = CARTESIAN_POINT ( 'NONE',  ( 25.94999999999999900, 15.93000000000000000, 0.0000000000000000000 ) ) ;
#76 = ORIENTED_EDGE ( 'NONE', *, *, #1195, .T. ) ;
#77 = VECTOR ( 'NONE', #1121, 1000.000000000000000 ) ;
#78 = ORIENTED_EDGE ( 'NONE', *, *, #1132, .T. ) ;
#79 = EDGE_CURVE ( 'NONE', #399, #523, #391, .T. ) ;
#80 = DIRECTION ( 'NONE',  ( 1.000000000000000000, 0.0000000000000000000, 0.0000000000000000000 ) ) ;
#81 = AXIS2_PLACEMENT_3D ( 'NONE', #859, #749, #176 ) ;
#82 = DIRECTION ( 'NONE',  ( 1.000000000000000000, 0.0000000000000000000, -0.0000000000000000000 ) ) ;
#83 = EDGE_CURVE ( 'NONE', #984, #1027, #207, .T. ) ;
#84 = CARTESIAN_POINT ( 'NONE',  ( -29.99000000000000200, 3.315000000000000400, 0.2999999999999999300 ) ) ;
#85 = ORIENTED_EDGE ( 'NONE', *, *, #1156, .T. ) ;
#86 = CARTESIAN_POINT ( 'NONE',  ( 25.94999999999999900, -3.200000000000000200, 0.2999999999999981600 ) ) ;
#87 = ORIENTED_EDGE ( 'NONE', *, *, #1272, .T. ) ;
#88 = LINE ( 'NONE', #1003, #1266 ) ;
#89 = CARTESIAN_POINT ( 'NONE',  ( 15.65000000000000000, -5.500000000000000900, 1.650000000000001700 ) ) ;
#90 = ORIENTED_EDGE ( 'NONE', *, *, #752, .F. ) ;
#91 = VECTOR ( 'NONE', #917, 1000.000000000000100 ) ;
#92 = ORIENTED_EDGE ( 'NONE', *, *, #200, .T. ) ;
#93 = CARTESIAN_POINT ( 'NONE',  ( -37.34999999999999400, -3.200000000000000200, 4.099999999999999600 ) ) ;
#94 = EDGE_LOOP ( 'NONE', ( #62, #897, #1256, #467 ) ) ;
#95 = CARTESIAN_POINT ( 'NONE',  ( -15.65000000000000000, -5.500000000000000000, 4.099999999999999600 ) ) ;
#96 = ORIENTED_EDGE ( 'NONE', *, *, #633, .F. ) ;
#97 = AXIS2_PLACEMENT_3D ( 'NONE', #823, #720, #915 ) ;
#98 = DIRECTION ( 'NONE',  ( -0.0000000000000000000, -0.0000000000000000000, -1.000000000000000000 ) ) ;
#99 = FACE_OUTER_BOUND ( 'NONE', #704, .T. ) ;
#100 = VECTOR ( 'NONE', #119, 1000.000000000000000 ) ;
#101 = ORIENTED_EDGE ( 'NONE', *, *, #60, .T. ) ;
#102 = EDGE_CURVE ( 'NONE', #1240, #1139, #855, .T. ) ;
#103 = DIRECTION ( 'NONE',  ( 0.0000000000000000000, 0.0000000000000000000, 1.000000000000000000 ) ) ;
#104 = ORIENTED_EDGE ( 'NONE', *, *, #564, .T. ) ;
#105 = PERSON_AND_ORGANIZATION ( #511, #894 ) ;
#106 = ADVANCED_FACE ( 'NONE', ( #976 ), #716, .F. ) ;
#107 = EDGE_LOOP ( 'NONE', ( #314, #431, #310, #231 ) ) ;
#108 = VECTOR ( 'NONE', #427, 1000.000000000000000 ) ;
#109 = ORIENTED_EDGE ( 'NONE', *, *, #1026, .T. ) ;
#110 = DIRECTION ( 'NONE',  ( 1.000000000000000000, 0.0000000000000000000, -0.0000000000000000000 ) ) ;
#111 = ORIENTED_EDGE ( 'NONE', *, *, #944, .F. ) ;
#112 = DIRECTION ( 'NONE',  ( -0.0000000000000000000, -0.0000000000000000000, -1.000000000000000000 ) ) ;
#113 = VERTEX_POINT ( 'NONE', #1210 ) ;
#114 = DIRECTION ( 'NONE',  ( -0.0000000000000000000, 0.0000000000000000000, -1.000000000000000000 ) ) ;
#115 = APPROVAL ( #59, 'UNSPECIFIED' ) ;
#116 = EDGE_CURVE ( 'NONE', #771, #519, #581, .T. ) ;
#117 = CIRCLE ( 'NONE', #141, 11.39999999999999300 ) ;
#118 = LINE ( 'NONE', #1127, #456 ) ;
#119 = DIRECTION ( 'NONE',  ( 0.0000000000000000000, 1.000000000000000000, 0.0000000000000000000 ) ) ;
#120 = VECTOR ( 'NONE', #112, 1000.000000000000000 ) ;
#121 = ADVANCED_FACE ( 'NONE', ( #361 ), #1170, .T. ) ;
#122 = EDGE_LOOP ( 'NONE', ( #1224, #690, #566, #882, #574, #742, #1092, #260 ) ) ;
#123 = DIRECTION ( 'NONE',  ( -1.000000000000000000, 0.0000000000000000000, 0.0000000000000000000 ) ) ;
#124 = APPROVAL_PERSON_ORGANIZATION ( #380, #115, #278 ) ;
#125 = DIRECTION ( 'NONE',  ( 0.0000000000000000000, -1.000000000000000000, 0.0000000000000000000 ) ) ;
#126 = CIRCLE ( 'NONE', #761, 11.39999999999999300 ) ;
#127 = ORIENTED_EDGE ( 'NONE', *, *, #390, .T. ) ;
#128 = EDGE_LOOP ( 'NONE', ( #935, #802, #87, #582 ) ) ;
#129 = VERTEX_POINT ( 'NONE', #1112 ) ;
#130 = CARTESIAN_POINT ( 'NONE',  ( 25.94999999999999900, -3.200000000000000200, 2.899999999999991000 ) ) ;
#131 = EDGE_CURVE ( 'NONE', #651, #1085, #685, .T. ) ;
#132 = PLANE ( 'NONE',  #438 ) ;
#133 = VECTOR ( 'NONE', #945, 1000.000000000000000 ) ;
#134 = ADVANCED_FACE ( 'NONE', ( #71 ), #995, .T. ) ;
#135 = CIRCLE ( 'NONE', #767, 2.250000000000000400 ) ;
#136 = DIRECTION ( 'NONE',  ( -0.0000000000000000000, -0.0000000000000000000, -1.000000000000000000 ) ) ;
#137 = EDGE_LOOP ( 'NONE', ( #37, #388, #482, #155 ) ) ;
#138 = CARTESIAN_POINT ( 'NONE',  ( 13.40000000000000000, -5.500000000000000900, 1.650000000000001700 ) ) ;
#139 = DIRECTION ( 'NONE',  ( 1.000000000000000000, 0.0000000000000000000, 0.0000000000000000000 ) ) ;
#140 = FACE_OUTER_BOUND ( 'NONE', #459, .T. ) ;
#141 = AXIS2_PLACEMENT_3D ( 'NONE', #130, #1099, #139 ) ;
#142 = VECTOR ( 'NONE', #648, 1000.000000000000000 ) ;
#143 = CARTESIAN_POINT ( 'NONE',  ( 25.94999999999999900, -14.59999999999999600, 2.899999999999991000 ) ) ;
#144 = ORIENTED_EDGE ( 'NONE', *, *, #1059, .T. ) ;
#145 = AXIS2_PLACEMENT_3D ( 'NONE', #196, #967, #872 ) ;
#146 = DIRECTION ( 'NONE',  ( 1.000000000000000000, 0.0000000000000000000, 0.0000000000000000000 ) ) ;
#147 = DIRECTION ( 'NONE',  ( 0.7071067811865470200, 0.0000000000000000000, 0.7071067811865480200 ) ) ;
#148 = ORIENTED_EDGE ( 'NONE', *, *, #871, .T. ) ;
#149 = CARTESIAN_POINT ( 'NONE',  ( 36.14999999999998400, -3.199999999999998800, 4.099999999999999600 ) ) ;
#150 = DIRECTION ( 'NONE',  ( 0.7071067811865479100, 0.0000000000000000000, 0.7071067811865470200 ) ) ;
#151 = EDGE_CURVE ( 'NONE', #837, #1085, #888, .T. ) ;
#152 = AXIS2_PLACEMENT_3D ( 'NONE', #178, #188, #376 ) ;
#153 = DIRECTION ( 'NONE',  ( -1.000000000000000000, 0.0000000000000000000, 0.0000000000000000000 ) ) ;
#154 = VECTOR ( 'NONE', #329, 1000.000000000000100 ) ;
#155 = ORIENTED_EDGE ( 'NONE', *, *, #255, .F. ) ;
#156 = CARTESIAN_POINT ( 'NONE',  ( -13.40000000000000000, -5.500000000000000000, 4.099999999999999600 ) ) ;
#157 = PERSON_AND_ORGANIZATION ( #511, #894 ) ;
#158 = DIRECTION ( 'NONE',  ( -0.0000000000000000000, -0.0000000000000000000, 1.000000000000000000 ) ) ;
#159 = EDGE_CURVE ( 'NONE', #1011, #1240, #655, .T. ) ;
#160 = AXIS2_PLACEMENT_3D ( 'NONE', #343, #925, #340 ) ;
#161 = CARTESIAN_POINT ( 'NONE',  ( -37.34999999999999400, 4.830000000000000100, 0.2999999999999981600 ) ) ;
#162 = ORIENTED_EDGE ( 'NONE', *, *, #731, .F. ) ;
#163 = CARTESIAN_POINT ( 'NONE',  ( -25.94999999999999900, -14.59999999999999600, 0.2999999999999981600 ) ) ;
#164 = EDGE_CURVE ( 'NONE', #526, #821, #117, .T. ) ;
#165 = CARTESIAN_POINT ( 'NONE',  ( -25.94999999999999900, 15.93000000000000000, 0.0000000000000000000 ) ) ;
#166 = LINE ( 'NONE', #448, #1184 ) ;
#167 = CIRCLE ( 'NONE', #1257, 2.009999999999998000 ) ;
#168 = CARTESIAN_POINT ( 'NONE',  ( -15.65000000000000000, -5.500000000000000000, 8.673617379884035500E-016 ) ) ;
#169 = ORIENTED_EDGE ( 'NONE', *, *, #483, .F. ) ;
#170 = ORIENTED_EDGE ( 'NONE', *, *, #980, .F. ) ;
#171 = CIRCLE ( 'NONE', #145, 10.19999999999998700 ) ;
#172 = DIRECTION ( 'NONE',  ( 0.0000000000000000000, 0.0000000000000000000, -1.000000000000000000 ) ) ;
#173 = VERTEX_POINT ( 'NONE', #223 ) ;
#174 = LINE ( 'NONE', #1208, #572 ) ;
#175 = EDGE_CURVE ( 'NONE', #538, #989, #68, .T. ) ;
#176 = DIRECTION ( 'NONE',  ( 1.000000000000000000, 0.0000000000000000000, -0.0000000000000000000 ) ) ;
#177 = ORIENTED_EDGE ( 'NONE', *, *, #889, .T. ) ;
#178 = CARTESIAN_POINT ( 'NONE',  ( -32.00000000000000000, 3.314999999999999900, 0.0000000000000000000 ) ) ;
#179 = EDGE_LOOP ( 'NONE', ( #509, #1134, #499, #970 ) ) ;
#180 = CIRCLE ( 'NONE', #410, 11.39999999999999500 ) ;
#181 = CARTESIAN_POINT ( 'NONE',  ( -32.00000000000000000, 3.314999999999999900, 3.200000000000000200 ) ) ;
#182 = VECTOR ( 'NONE', #621, 1000.000000000000000 ) ;
#183 = FACE_OUTER_BOUND ( 'NONE', #693, .T. ) ;
#184 = EDGE_LOOP ( 'NONE', ( #64, #295, #300, #1105 ) ) ;
#185 = CC_DESIGN_APPROVAL ( #115, ( #246 ) ) ;
#186 = DIRECTION ( 'NONE',  ( 0.0000000000000000000, 0.0000000000000000000, -1.000000000000000000 ) ) ;
#187 = ORIENTED_EDGE ( 'NONE', *, *, #151, .F. ) ;
#188 = DIRECTION ( 'NONE',  ( 0.0000000000000000000, 0.0000000000000000000, 1.000000000000000000 ) ) ;
#189 = PERSON_AND_ORGANIZATION ( #511, #894 ) ;
#190 = LINE ( 'NONE', #811, #244 ) ;
#191 = DIRECTION ( 'NONE',  ( 1.000000000000000000, 0.0000000000000000000, 0.0000000000000000000 ) ) ;
#192 = CARTESIAN_POINT ( 'NONE',  ( 37.34999999999999400, 4.830000000000000100, 4.099999999999999600 ) ) ;
#193 = DIRECTION ( 'NONE',  ( -0.0000000000000000000, -0.0000000000000000000, 1.000000000000000000 ) ) ;
#194 = CARTESIAN_POINT ( 'NONE',  ( 13.40000000000000000, -5.500000000000000900, 4.099999999999999600 ) ) ;
#195 = EDGE_CURVE ( 'NONE', #526, #24, #827, .T. ) ;
#196 = CARTESIAN_POINT ( 'NONE',  ( 25.94999999999999900, -3.200000000000000200, 4.099999999999999600 ) ) ;
#197 = CYLINDRICAL_SURFACE ( 'NONE', #73, 2.250000000000000400 ) ;
#198 = CARTESIAN_POINT ( 'NONE',  ( -25.94999999999999900, 16.22999999999999700, 0.2999999999999981600 ) ) ;
#199 = VECTOR ( 'NONE', #540, 1000.000000000000000 ) ;
#200 = EDGE_CURVE ( 'NONE', #632, #1128, #783, .T. ) ;
#201 = VERTEX_POINT ( 'NONE', #799 ) ;
#202 = CARTESIAN_POINT ( 'NONE',  ( -37.34999999999999400, 4.830000000000000100, 4.099999999999999600 ) ) ;
#203 = AXIS2_PLACEMENT_3D ( 'NONE', #726, #426, #146 ) ;
#204 = CARTESIAN_POINT ( 'NONE',  ( -25.94999999999999900, 4.830000000000000100, 0.2999999999999981600 ) ) ;
#205 = VECTOR ( 'NONE', #1051, 1000.000000000000100 ) ;
#206 = CARTESIAN_POINT ( 'NONE',  ( -13.40000000000000000, -5.500000000000000000, 8.673617379884035500E-016 ) ) ;
#207 = LINE ( 'NONE', #795, #873 ) ;
#208 = FACE_OUTER_BOUND ( 'NONE', #1251, .T. ) ;
#209 = ORIENTED_EDGE ( 'NONE', *, *, #1081, .F. ) ;
#210 = VECTOR ( 'NONE', #226, 1000.000000000000000 ) ;
#211 = AXIS2_PLACEMENT_3D ( 'NONE', #525, #913, #1007 ) ;
#212 = DIRECTION ( 'NONE',  ( 1.000000000000000000, 0.0000000000000000000, 0.0000000000000000000 ) ) ;
#213 = CONICAL_SURFACE ( 'NONE', #402, 4.700000000000001100, 0.7853981633974489500 ) ;
#214 = DIRECTION ( 'NONE',  ( 1.000000000000000000, 0.0000000000000000000, 0.0000000000000000000 ) ) ;
#215 = ADVANCED_FACE ( 'NONE', ( #1231 ), #1199, .F. ) ;
#216 = EDGE_LOOP ( 'NONE', ( #708, #162, #578, #1018 ) ) ;
#217 = CARTESIAN_POINT ( 'NONE',  ( 37.34999999999999400, -3.199999999999998800, 0.2999999999999981600 ) ) ;
#218 = EDGE_CURVE ( 'NONE', #1233, #745, #963, .T. ) ;
#219 = ORIENTED_EDGE ( 'NONE', *, *, #200, .F. ) ;
#220 = EDGE_LOOP ( 'NONE', ( #12, #1079, #169, #470 ) ) ;
#221 = DIRECTION ( 'NONE',  ( 1.000000000000000000, 0.0000000000000000000, 0.0000000000000000000 ) ) ;
#222 = DIRECTION ( 'NONE',  ( 1.000000000000000000, 0.0000000000000000000, 0.0000000000000000000 ) ) ;
#223 = CARTESIAN_POINT ( 'NONE',  ( -25.95000000000000300, -13.39999999999998600, 4.099999999999999600 ) ) ;
#224 = EDGE_CURVE ( 'NONE', #277, #491, #1196, .T. ) ;
#225 = ORIENTED_EDGE ( 'NONE', *, *, #11, .F. ) ;
#226 = DIRECTION ( 'NONE',  ( 1.000000000000000000, 0.0000000000000000000, 0.0000000000000000000 ) ) ;
#227 = ADVANCED_FACE ( 'NONE', ( #439 ), #1213, .F. ) ;
#228 = CIRCLE ( 'NONE', #1247, 2.009999999999998000 ) ;
#229 = CIRCLE ( 'NONE', #1068, 2.009999999999998000 ) ;
#230 = PLANE ( 'NONE',  #160 ) ;
#231 = ORIENTED_EDGE ( 'NONE', *, *, #1045, .F. ) ;
#232 = EDGE_CURVE ( 'NONE', #24, #250, #666, .T. ) ;
#233 = AXIS2_PLACEMENT_3D ( 'NONE', #156, #249, #809 ) ;
#234 = DIRECTION ( 'NONE',  ( -0.0000000000000000000, -0.0000000000000000000, 1.000000000000000000 ) ) ;
#235 = CIRCLE ( 'NONE', #256, 2.250000000000000400 ) ;
#236 = CARTESIAN_POINT ( 'NONE',  ( -25.94999999999999900, 16.22999999999999300, 2.899999999999991500 ) ) ;
#237 = CARTESIAN_POINT ( 'NONE',  ( -37.34999999999999400, 4.830000000000000100, 2.899999999999991000 ) ) ;
#238 = CONICAL_SURFACE ( 'NONE', #384, 10.19999999999998700, 0.7853981633974482800 ) ;
#239 = LINE ( 'NONE', #192, #133 ) ;
#240 = CARTESIAN_POINT ( 'NONE',  ( 32.00000000000000000, 3.314999999999999900, 0.2999999999999999300 ) ) ;
#241 = CARTESIAN_POINT ( 'NONE',  ( 37.34999999999999400, -3.199999999999998800, 4.099999999999999600 ) ) ;
#242 = PERSON_AND_ORGANIZATION ( #511, #894 ) ;
#243 = EDGE_LOOP ( 'NONE', ( #437, #444 ) ) ;
#244 = VECTOR ( 'NONE', #348, 999.9999999999998900 ) ;
#245 = DIRECTION ( 'NONE',  ( 0.0000000000000000000, 0.0000000000000000000, -1.000000000000000000 ) ) ;
#246 = PRODUCT_DEFINITION ( 'UNKNOWN', '', #301, #270 ) ;
#247 = DIRECTION ( 'NONE',  ( 1.000000000000000000, 0.0000000000000000000, 0.0000000000000000000 ) ) ;
#248 = ORIENTED_EDGE ( 'NONE', *, *, #195, .T. ) ;
#249 = DIRECTION ( 'NONE',  ( -0.0000000000000000000, -0.0000000000000000000, 1.000000000000000000 ) ) ;
#250 = VERTEX_POINT ( 'NONE', #829 ) ;
#251 = CARTESIAN_POINT ( 'NONE',  ( 25.94999999999999900, -13.39999999999998800, 4.099999999999999600 ) ) ;
#252 = DIRECTION ( 'NONE',  ( -0.0000000000000000000, -0.0000000000000000000, 1.000000000000000000 ) ) ;
#253 = ADVANCED_BREP_SHAPE_REPRESENTATION ( 'MC01', ( #847, #42 ), #1143 ) ;
#254 = VERTEX_POINT ( 'NONE', #1017 ) ;
#255 = EDGE_CURVE ( 'NONE', #846, #1233, #947, .T. ) ;
#256 = AXIS2_PLACEMENT_3D ( 'NONE', #1067, #484, #973 ) ;
#257 = DIRECTION ( 'NONE',  ( 1.000000000000000000, 0.0000000000000000000, 0.0000000000000000000 ) ) ;
#258 = DIRECTION ( 'NONE',  ( 0.0000000000000000000, -0.0000000000000000000, -1.000000000000000000 ) ) ;
#259 = VERTEX_POINT ( 'NONE', #1223 ) ;
#260 = ORIENTED_EDGE ( 'NONE', *, *, #616, .T. ) ;
#261 = DIRECTION ( 'NONE',  ( -0.0000000000000000000, -0.0000000000000000000, -1.000000000000000000 ) ) ;
#262 = ORIENTED_EDGE ( 'NONE', *, *, #1156, .F. ) ;
#263 = CARTESIAN_POINT ( 'NONE',  ( -15.65000000000000000, -5.500000000000000000, 1.650000000000001700 ) ) ;
#264 = LINE ( 'NONE', #524, #612 ) ;
#265 = CARTESIAN_POINT ( 'NONE',  ( -11.15000000000000000, -5.500000000000000000, 4.099999999999999600 ) ) ;
#266 = LINE ( 'NONE', #595, #413 ) ;
#267 = ORIENTED_EDGE ( 'NONE', *, *, #469, .T. ) ;
#268 = CARTESIAN_POINT ( 'NONE',  ( 32.00000000000000000, 3.314999999999999900, 3.200000000000000200 ) ) ;
#269 = CARTESIAN_POINT ( 'NONE',  ( -25.95000000000000300, -13.39999999999998600, 4.099999999999999600 ) ) ;
#270 = DESIGN_CONTEXT ( 'detailed design', #548, 'design' ) ;
#271 = CONICAL_SURFACE ( 'NONE', #1190, 2.009999999999998000, 0.7853981633974482800 ) ;
#272 = EDGE_CURVE ( 'NONE', #1236, #519, #118, .T. ) ;
#273 = VECTOR ( 'NONE', #710, 1000.000000000000000 ) ;
#274 = AXIS2_PLACEMENT_3D ( 'NONE', #863, #286, #82 ) ;
#275 = CARTESIAN_POINT ( 'NONE',  ( 15.65000000000000000, -5.500000000000000900, 4.099999999999999600 ) ) ;
#276 = CONICAL_SURFACE ( 'NONE', #874, 11.39999999999999500, 0.7853981633974456100 ) ;
#277 = VERTEX_POINT ( 'NONE', #1229 ) ;
#278 = APPROVAL_ROLE ( '' ) ;
#279 = DIRECTION ( 'NONE',  ( -0.0000000000000000000, -0.0000000000000000000, 1.000000000000000000 ) ) ;
#280 = ORIENTED_EDGE ( 'NONE', *, *, #477, .T. ) ;
#281 = DIRECTION ( 'NONE',  ( -0.0000000000000000000, -0.0000000000000000000, 1.000000000000000000 ) ) ;
#282 = CYLINDRICAL_SURFACE ( 'NONE', #453, 2.009999999999998000 ) ;
#283 = AXIS2_PLACEMENT_3D ( 'NONE', #903, #909, #614 ) ;
#284 = LINE ( 'NONE', #41, #1076 ) ;
#285 = AXIS2_PLACEMENT_3D ( 'NONE', #181, #851, #461 ) ;
#286 = DIRECTION ( 'NONE',  ( 0.0000000000000000000, 0.7071067811865480200, 0.7071067811865470200 ) ) ;
#287 = EDGE_CURVE ( 'NONE', #319, #900, #166, .T. ) ;
#288 = CARTESIAN_POINT ( 'NONE',  ( 32.00000000000000000, 3.314999999999999900, 3.200000000000000200 ) ) ;
#289 = CYLINDRICAL_SURFACE ( 'NONE', #407, 2.009999999999998000 ) ;
#290 = LINE ( 'NONE', #683, #120 ) ;
#291 = CARTESIAN_POINT ( 'NONE',  ( 25.94999999999999900, 4.830000000000000100, 0.2999999999999981600 ) ) ;
#292 = EDGE_LOOP ( 'NONE', ( #858, #891, #473, #530 ) ) ;
#293 = DIRECTION ( 'NONE',  ( 1.000000000000000000, 0.0000000000000000000, 0.0000000000000000000 ) ) ;
#294 = VECTOR ( 'NONE', #98, 1000.000000000000000 ) ;
#295 = ORIENTED_EDGE ( 'NONE', *, *, #552, .T. ) ;
#296 = CARTESIAN_POINT ( 'NONE',  ( -25.94999999999999900, -3.200000000000000200, 4.099999999999999600 ) ) ;
#297 = CONICAL_SURFACE ( 'NONE', #1102, 2.009999999999998000, 0.7853981633974482800 ) ;
#298 = EDGE_CURVE ( 'NONE', #1139, #1240, #1082, .T. ) ;
#299 = ORIENTED_EDGE ( 'NONE', *, *, #640, .T. ) ;
#300 = ORIENTED_EDGE ( 'NONE', *, *, #4, .F. ) ;
#301 = PRODUCT_DEFINITION_FORMATION_WITH_SPECIFIED_SOURCE ( 'ANY', '', #592, .NOT_KNOWN. ) ;
#302 = DIRECTION ( 'NONE',  ( -0.0000000000000000000, -0.0000000000000000000, 1.000000000000000000 ) ) ;
#303 = EDGE_LOOP ( 'NONE', ( #1267, #869, #850, #546 ) ) ;
#304 = DIRECTION ( 'NONE',  ( -1.000000000000000000, 0.0000000000000000000, 0.0000000000000000000 ) ) ;
#305 = ADVANCED_FACE ( 'NONE', ( #208 ), #626, .F. ) ;
#306 = CIRCLE ( 'NONE', #920, 4.700000000000001100 ) ;
#307 = EDGE_CURVE ( 'NONE', #1130, #586, #135, .T. ) ;
#308 = VECTOR ( 'NONE', #123, 1000.000000000000000 ) ;
#309 = AXIS2_PLACEMENT_3D ( 'NONE', #520, #29, #713 ) ;
#310 = ORIENTED_EDGE ( 'NONE', *, *, #663, .T. ) ;
#311 = LOCAL_TIME ( 17, 3, 41.00000000000000000, #772 ) ;
#312 = ADVANCED_FACE ( 'NONE', ( #183 ), #289, .F. ) ;
#313 = DIRECTION ( 'NONE',  ( -0.0000000000000000000, -0.0000000000000000000, 1.000000000000000000 ) ) ;
#314 = ORIENTED_EDGE ( 'NONE', *, *, #83, .T. ) ;
#315 = ADVANCED_FACE ( 'NONE', ( #362 ), #733, .F. ) ;
#316 = CARTESIAN_POINT ( 'NONE',  ( -32.00000000000000000, 3.314999999999999900, 0.2999999999999999300 ) ) ;
#317 = DIRECTION ( 'NONE',  ( 0.0000000000000000000, -1.000000000000000000, 0.0000000000000000000 ) ) ;
#318 = DIRECTION ( 'NONE',  ( 0.7071067811865470200, 0.0000000000000000000, -0.7071067811865480200 ) ) ;
#319 = VERTEX_POINT ( 'NONE', #732 ) ;
#320 = CALENDAR_DATE ( 2019, 18, 10 ) ;
#321 = VERTEX_POINT ( 'NONE', #1025 ) ;
#322 = VECTOR ( 'NONE', #67, 1000.000000000000000 ) ;
#323 = DIRECTION ( 'NONE',  ( 1.000000000000000000, 0.0000000000000000000, 0.0000000000000000000 ) ) ;
#324 = ADVANCED_FACE ( 'NONE', ( #359 ), #51, .F. ) ;
#325 = EDGE_CURVE ( 'NONE', #1128, #1139, #932, .T. ) ;
#326 = ORIENTED_EDGE ( 'NONE', *, *, #883, .F. ) ;
#327 = VERTEX_POINT ( 'NONE', #161 ) ;
#328 = DIRECTION ( 'NONE',  ( -1.000000000000000000, 0.0000000000000000000, 0.0000000000000000000 ) ) ;
#329 = DIRECTION ( 'NONE',  ( 0.7071067811865474600, 8.659560562354932900E-017, -0.7071067811865474600 ) ) ;
#330 = DIRECTION ( 'NONE',  ( 1.000000000000000000, 0.0000000000000000000, 0.0000000000000000000 ) ) ;
#331 = DIRECTION ( 'NONE',  ( 0.0000000000000000000, 0.0000000000000000000, 1.000000000000000000 ) ) ;
#332 = CIRCLE ( 'NONE', #656, 2.250000000000000400 ) ;
#333 = ORIENTED_EDGE ( 'NONE', *, *, #79, .T. ) ;
#334 = DIRECTION ( 'NONE',  ( -0.0000000000000000000, -0.0000000000000000000, 1.000000000000000000 ) ) ;
#335 = CALENDAR_DATE ( 2019, 18, 10 ) ;
#336 = APPROVAL ( #737, 'UNSPECIFIED' ) ;
#337 = CARTESIAN_POINT ( 'NONE',  ( 25.94999999999999900, 15.93000000000000000, 0.0000000000000000000 ) ) ;
#338 = DIRECTION ( 'NONE',  ( 0.0000000000000000000, 1.000000000000000000, 0.0000000000000000000 ) ) ;
#339 = LINE ( 'NONE', #265, #968 ) ;
#340 = DIRECTION ( 'NONE',  ( 0.0000000000000000000, 0.0000000000000000000, 1.000000000000000000 ) ) ;
#341 = ORIENTED_EDGE ( 'NONE', *, *, #307, .F. ) ;
#342 = DIRECTION ( 'NONE',  ( 0.0000000000000000000, -1.000000000000000000, 0.0000000000000000000 ) ) ;
#343 = CARTESIAN_POINT ( 'NONE',  ( 37.34999999999999400, -3.200000000000000200, 4.099999999999999600 ) ) ;
#344 = DIRECTION ( 'NONE',  ( 0.0000000000000000000, -1.000000000000000000, 0.0000000000000000000 ) ) ;
#345 = FACE_OUTER_BOUND ( 'NONE', #596, .T. ) ;
#346 = CARTESIAN_POINT ( 'NONE',  ( 37.34999999999999400, 4.830000000000000100, 0.2999999999999981600 ) ) ;
#347 = VERTEX_POINT ( 'NONE', #263 ) ;
#348 = DIRECTION ( 'NONE',  ( -0.7071067811865435800, 0.0000000000000000000, -0.7071067811865515700 ) ) ;
#349 = EDGE_CURVE ( 'NONE', #442, #173, #503, .T. ) ;
#350 = LINE ( 'NONE', #251, #877 ) ;
#351 = CARTESIAN_POINT ( 'NONE',  ( 13.40000000000000000, -5.500000000000000900, 8.673617379884035500E-016 ) ) ;
#352 = EDGE_CURVE ( 'NONE', #989, #491, #306, .T. ) ;
#353 = VERTEX_POINT ( 'NONE', #744 ) ;
#354 = DIRECTION ( 'NONE',  ( 0.0000000000000000000, -1.000000000000000000, 0.0000000000000000000 ) ) ;
#355 =( LENGTH_UNIT ( ) NAMED_UNIT ( * ) SI_UNIT ( .MILLI., .METRE. ) );
#356 = ORIENTED_EDGE ( 'NONE', *, *, #705, .T. ) ;
#357 = CC_DESIGN_PERSON_AND_ORGANIZATION_ASSIGNMENT ( #629, #1241, ( #592 ) ) ;
#358 = CARTESIAN_POINT ( 'NONE',  ( 36.14999999999998400, 4.830000000000000100, 4.099999999999999600 ) ) ;
#359 = FACE_OUTER_BOUND ( 'NONE', #513, .T. ) ;
#360 = DIRECTION ( 'NONE',  ( -0.0000000000000000000, -0.0000000000000000000, 1.000000000000000000 ) ) ;
#361 = FACE_OUTER_BOUND ( 'NONE', #184, .T. ) ;
#362 = FACE_OUTER_BOUND ( 'NONE', #658, .T. ) ;
#363 = DIRECTION ( 'NONE',  ( -0.0000000000000000000, -0.0000000000000000000, -1.000000000000000000 ) ) ;
#364 = DIRECTION ( 'NONE',  ( -1.000000000000000000, 0.0000000000000000000, 0.0000000000000000000 ) ) ;
#365 = VECTOR ( 'NONE', #1058, 1000.000000000000000 ) ;
#366 = ORIENTED_EDGE ( 'NONE', *, *, #1045, .T. ) ;
#367 = CIRCLE ( 'NONE', #692, 2.009999999999998000 ) ;
#368 = AXIS2_PLACEMENT_3D ( 'NONE', #1115, #622, #1125 ) ;
#369 = LINE ( 'NONE', #504, #1239 ) ;
#370 = APPLICATION_CONTEXT ( 'configuration controlled 3d designs of mechanical parts and assemblies' ) ;
#371 = PLANE ( 'NONE',  #81 ) ;
#372 = CARTESIAN_POINT ( 'NONE',  ( -32.00000000000000000, 3.314999999999999900, 3.200000000000000200 ) ) ;
#373 = DIRECTION ( 'NONE',  ( 1.000000000000000000, 0.0000000000000000000, 0.0000000000000000000 ) ) ;
#374 = CARTESIAN_POINT ( 'NONE',  ( -32.00000000000000000, 3.314999999999999900, 3.200000000000000200 ) ) ;
#375 = FACE_OUTER_BOUND ( 'NONE', #378, .T. ) ;
#376 = DIRECTION ( 'NONE',  ( 1.000000000000000000, 0.0000000000000000000, 0.0000000000000000000 ) ) ;
#377 = EDGE_CURVE ( 'NONE', #113, #1159, #549, .T. ) ;
#378 = EDGE_LOOP ( 'NONE', ( #724, #22, #1206, #922 ) ) ;
#379 = DIRECTION ( 'NONE',  ( 0.0000000000000000000, 0.7071067811865474600, 0.7071067811865474600 ) ) ;
#380 = PERSON_AND_ORGANIZATION ( #511, #894 ) ;
#381 = AXIS2_PLACEMENT_3D ( 'NONE', #1146, #952, #455 ) ;
#382 = DIRECTION ( 'NONE',  ( -0.0000000000000000000, 0.0000000000000000000, -1.000000000000000000 ) ) ;
#383 = FACE_OUTER_BOUND ( 'NONE', #758, .T. ) ;
#384 = AXIS2_PLACEMENT_3D ( 'NONE', #494, #688, #992 ) ;
#385 = CARTESIAN_POINT ( 'NONE',  ( 36.14999999999998400, 4.830000000000000100, 4.099999999999999600 ) ) ;
#386 = ORIENTED_EDGE ( 'NONE', *, *, #307, .T. ) ;
#387 = CARTESIAN_POINT ( 'NONE',  ( -25.94999999999999900, -13.39999999999998800, 4.099999999999999600 ) ) ;
#388 = ORIENTED_EDGE ( 'NONE', *, *, #60, .F. ) ;
#389 = ORIENTED_EDGE ( 'NONE', *, *, #680, .T. ) ;
#390 = EDGE_CURVE ( 'NONE', #1027, #250, #239, .T. ) ;
#391 = CIRCLE ( 'NONE', #1000, 2.250000000000000400 ) ;
#392 = FACE_OUTER_BOUND ( 'NONE', #303, .T. ) ;
#393 = CARTESIAN_POINT ( 'NONE',  ( -8.699999999999999300, -5.500000000000000000, 4.099999999999999600 ) ) ;
#394 = EDGE_LOOP ( 'NONE', ( #405, #1147, #493, #583 ) ) ;
#395 = ORIENTED_EDGE ( 'NONE', *, *, #791, .T. ) ;
#396 = ADVANCED_FACE ( 'NONE', ( #751 ), #1255, .F. ) ;
#397 = ORIENTED_EDGE ( 'NONE', *, *, #865, .F. ) ;
#398 = CIRCLE ( 'NONE', #1182, 11.39999999999999500 ) ;
#399 = VERTEX_POINT ( 'NONE', #168 ) ;
#400 = LINE ( 'NONE', #607, #77 ) ;
#401 = PLANE ( 'NONE',  #754 ) ;
#402 = AXIS2_PLACEMENT_3D ( 'NONE', #709, #158, #518 ) ;
#403 = ADVANCED_FACE ( 'NONE', ( #486 ), #371, .F. ) ;
#404 = ORIENTED_EDGE ( 'NONE', *, *, #640, .F. ) ;
#405 = ORIENTED_EDGE ( 'NONE', *, *, #895, .F. ) ;
#406 = DIRECTION ( 'NONE',  ( -1.000000000000000000, 0.0000000000000000000, 0.0000000000000000000 ) ) ;
#407 = AXIS2_PLACEMENT_3D ( 'NONE', #268, #825, #48 ) ;
#408 = CARTESIAN_POINT ( 'NONE',  ( -32.00000000000000000, 3.314999999999999900, 3.200000000000000200 ) ) ;
#409 = ADVANCED_FACE ( 'NONE', ( #1 ), #1228, .T. ) ;
#410 = AXIS2_PLACEMENT_3D ( 'NONE', #204, #866, #293 ) ;
#411 = DATE_AND_TIME ( #335, #311 ) ;
#412 = CARTESIAN_POINT ( 'NONE',  ( -25.94999999999999900, -3.200000000000000200, 0.2999999999999981600 ) ) ;
#413 = VECTOR ( 'NONE', #317, 1000.000000000000000 ) ;
#414 = EDGE_CURVE ( 'NONE', #519, #771, #471, .T. ) ;
#415 = CARTESIAN_POINT ( 'NONE',  ( -25.94999999999999900, 4.830000000000000100, 4.099999999999999600 ) ) ;
#416 = ADVANCED_FACE ( 'NONE', ( #606 ), #844, .T. ) ;
#417 = ORIENTED_EDGE ( 'NONE', *, *, #1195, .F. ) ;
#418 = CARTESIAN_POINT ( 'NONE',  ( -32.00000000000000000, 3.314999999999999900, 0.0000000000000000000 ) ) ;
#419 = CARTESIAN_POINT ( 'NONE',  ( -25.94999999999999900, -14.59999999999999600, 4.099999999999999600 ) ) ;
#420 = CONICAL_SURFACE ( 'NONE', #424, 11.39999999999999500, 0.7853981633974456100 ) ;
#421 = DIRECTION ( 'NONE',  ( -0.7071067811865480200, 0.0000000000000000000, 0.7071067811865470200 ) ) ;
#422 = EDGE_CURVE ( 'NONE', #900, #771, #454, .T. ) ;
#423 = ORIENTED_EDGE ( 'NONE', *, *, #815, .F. ) ;
#424 = AXIS2_PLACEMENT_3D ( 'NONE', #412, #497, #986 ) ;
#425 = DIRECTION ( 'NONE',  ( 0.0000000000000000000, 1.000000000000000000, 0.0000000000000000000 ) ) ;
#426 = DIRECTION ( 'NONE',  ( -0.0000000000000000000, -0.0000000000000000000, 1.000000000000000000 ) ) ;
#427 = DIRECTION ( 'NONE',  ( -0.0000000000000000000, -0.0000000000000000000, -1.000000000000000000 ) ) ;
#428 = DIRECTION ( 'NONE',  ( 0.0000000000000000000, 0.0000000000000000000, -1.000000000000000000 ) ) ;
#429 = CARTESIAN_POINT ( 'NONE',  ( 32.00000000000000000, 3.314999999999999900, 0.0000000000000000000 ) ) ;
#430 = CARTESIAN_POINT ( 'NONE',  ( -13.40000000000000000, -5.500000000000000000, 4.099999999999999600 ) ) ;
#431 = ORIENTED_EDGE ( 'NONE', *, *, #1010, .F. ) ;
#432 = CYLINDRICAL_SURFACE ( 'NONE', #1277, 11.39999999999999300 ) ;
#433 = ORIENTED_EDGE ( 'NONE', *, *, #865, .T. ) ;
#434 = CARTESIAN_POINT ( 'NONE',  ( 25.94999999999999900, -14.59999999999999600, 4.099999999999999600 ) ) ;
#435 = PERSON_AND_ORGANIZATION_ROLE ( 'creator' ) ;
#436 = DIRECTION ( 'NONE',  ( 1.000000000000000000, 0.0000000000000000000, 0.0000000000000000000 ) ) ;
#437 = ORIENTED_EDGE ( 'NONE', *, *, #298, .T. ) ;
#438 = AXIS2_PLACEMENT_3D ( 'NONE', #998, #214, #1202 ) ;
#439 = FACE_OUTER_BOUND ( 'NONE', #1049, .T. ) ;
#440 = CARTESIAN_POINT ( 'NONE',  ( 32.00000000000000000, 3.314999999999999900, 0.2999999999999999300 ) ) ;
#441 = LINE ( 'NONE', #9, #1044 ) ;
#442 = VERTEX_POINT ( 'NONE', #760 ) ;
#443 = EDGE_CURVE ( 'NONE', #479, #651, #1214, .T. ) ;
#444 = ORIENTED_EDGE ( 'NONE', *, *, #102, .T. ) ;
#445 = DIRECTION ( 'NONE',  ( -0.0000000000000000000, 0.7071067811865495700, 0.7071067811865454600 ) ) ;
#446 = LINE ( 'NONE', #475, #849 ) ;
#447 = DIRECTION ( 'NONE',  ( 0.0000000000000000000, 0.0000000000000000000, 1.000000000000000000 ) ) ;
#448 = CARTESIAN_POINT ( 'NONE',  ( -29.99000000000000200, 3.315000000000000400, 3.200000000000000200 ) ) ;
#449 = CARTESIAN_POINT ( 'NONE',  ( -37.04999999999999700, -3.200000000000000200, 0.0000000000000000000 ) ) ;
#450 = EDGE_LOOP ( 'NONE', ( #7, #17, #1189, #1038 ) ) ;
#451 = APPROVAL_ROLE ( '' ) ;
#452 = CARTESIAN_POINT ( 'NONE',  ( -13.40000000000000000, -5.500000000000000000, 4.099999999999999600 ) ) ;
#453 = AXIS2_PLACEMENT_3D ( 'NONE', #630, #363, #729 ) ;
#454 = LINE ( 'NONE', #84, #205 ) ;
#455 = DIRECTION ( 'NONE',  ( 0.0000000000000000000, 1.000000000000000000, -0.0000000000000000000 ) ) ;
#456 = VECTOR ( 'NONE', #536, 1000.000000000000100 ) ;
#457 = DIRECTION ( 'NONE',  ( -1.000000000000000000, 0.0000000000000000000, 0.0000000000000000000 ) ) ;
#458 = PRODUCT_DEFINITION_SHAPE ( 'NONE', 'NONE',  #246 ) ;
#459 = EDGE_LOOP ( 'NONE', ( #267, #1204, #800, #1152 ) ) ;
#460 = AXIS2_PLACEMENT_3D ( 'NONE', #430, #738, #1037 ) ;
#461 = DIRECTION ( 'NONE',  ( -1.000000000000000000, 0.0000000000000000000, -0.0000000000000000000 ) ) ;
#462 = ORIENTED_EDGE ( 'NONE', *, *, #131, .T. ) ;
#463 = CALENDAR_DATE ( 2019, 18, 10 ) ;
#464 = CONICAL_SURFACE ( 'NONE', #1021, 11.39999999999999300, 0.7853981633974456100 ) ;
#465 = DIRECTION ( 'NONE',  ( 1.000000000000000000, 0.0000000000000000000, 0.0000000000000000000 ) ) ;
#466 = EDGE_LOOP ( 'NONE', ( #678, #958, #1232, #397 ) ) ;
#467 = ORIENTED_EDGE ( 'NONE', *, *, #164, .T. ) ;
#468 = CARTESIAN_POINT ( 'NONE',  ( 25.94999999999999900, 4.830000000000000100, 2.899999999999991500 ) ) ;
#469 = EDGE_CURVE ( 'NONE', #1083, #837, #684, .T. ) ;
#470 = ORIENTED_EDGE ( 'NONE', *, *, #936, .F. ) ;
#471 = CIRCLE ( 'NONE', #152, 2.309999999999999600 ) ;
#472 = ORIENTED_EDGE ( 'NONE', *, *, #272, .T. ) ;
#473 = ORIENTED_EDGE ( 'NONE', *, *, #325, .T. ) ;
#474 = LOCAL_TIME ( 17, 3, 41.00000000000000000, #1013 ) ;
#475 = CARTESIAN_POINT ( 'NONE',  ( -25.94999999999999900, 15.93000000000000000, 0.0000000000000000000 ) ) ;
#476 = CYLINDRICAL_SURFACE ( 'NONE', #15, 2.009999999999998000 ) ;
#477 = EDGE_CURVE ( 'NONE', #972, #632, #66, .T. ) ;
#478 = LINE ( 'NONE', #165, #556 ) ;
#479 = VERTEX_POINT ( 'NONE', #557 ) ;
#480 = CC_DESIGN_APPROVAL ( #336, ( #301 ) ) ;
#481 = DIRECTION ( 'NONE',  ( -0.0000000000000000000, -0.0000000000000000000, 1.000000000000000000 ) ) ;
#482 = ORIENTED_EDGE ( 'NONE', *, *, #218, .F. ) ;
#483 = EDGE_CURVE ( 'NONE', #1273, #1172, #916, .T. ) ;
#484 = DIRECTION ( 'NONE',  ( -0.0000000000000000000, -0.0000000000000000000, 1.000000000000000000 ) ) ;
#485 = ADVANCED_FACE ( 'NONE', ( #99 ), #49, .F. ) ;
#486 = FACE_OUTER_BOUND ( 'NONE', #807, .T. ) ;
#487 = CARTESIAN_POINT ( 'NONE',  ( -13.40000000000000000, -5.500000000000000000, 1.650000000000001700 ) ) ;
#488 = VECTOR ( 'NONE', #721, 1000.000000000000000 ) ;
#489 = CARTESIAN_POINT ( 'NONE',  ( 32.00000000000000000, 3.314999999999999900, 0.2999999999999999300 ) ) ;
#490 = ADVANCED_FACE ( 'NONE', ( #842 ), #1153, .T. ) ;
#491 = VERTEX_POINT ( 'NONE', #948 ) ;
#492 = FACE_OUTER_BOUND ( 'NONE', #857, .T. ) ;
#493 = ORIENTED_EDGE ( 'NONE', *, *, #131, .F. ) ;
#494 = CARTESIAN_POINT ( 'NONE',  ( -25.94999999999999900, 4.830000000000000100, 4.099999999999999600 ) ) ;
#495 = ORIENTED_EDGE ( 'NONE', *, *, #991, .T. ) ;
#496 = AXIS2_PLACEMENT_3D ( 'NONE', #743, #172, #927 ) ;
#497 = DIRECTION ( 'NONE',  ( -0.0000000000000000000, -0.0000000000000000000, 1.000000000000000000 ) ) ;
#498 = ADVANCED_FACE ( 'NONE', ( #701 ), #271, .F. ) ;
#499 = ORIENTED_EDGE ( 'NONE', *, *, #175, .T. ) ;
#500 = FACE_OUTER_BOUND ( 'NONE', #728, .T. ) ;
#501 = VECTOR ( 'NONE', #589, 1000.000000000000000 ) ;
#502 = AXIS2_PLACEMENT_3D ( 'NONE', #70, #1259, #364 ) ;
#503 = CIRCLE ( 'NONE', #854, 10.19999999999998700 ) ;
#504 = CARTESIAN_POINT ( 'NONE',  ( -37.04999999999999700, 4.830000000000000100, 0.0000000000000000000 ) ) ;
#505 = AXIS2_PLACEMENT_3D ( 'NONE', #415, #599, #222 ) ;
#506 = ORIENTED_EDGE ( 'NONE', *, *, #904, .T. ) ;
#507 = ADVANCED_FACE ( 'NONE', ( #532 ), #946, .F. ) ;
#508 = CARTESIAN_POINT ( 'NONE',  ( 32.00000000000000000, 3.314999999999999900, 3.200000000000000200 ) ) ;
#509 = ORIENTED_EDGE ( 'NONE', *, *, #224, .F. ) ;
#510 = FACE_OUTER_BOUND ( 'NONE', #466, .T. ) ;
#511 = PERSON ( 'UNSPECIFIED', 'UNSPECIFIED', 'UNSPECIFIED', ('UNSPECIFIED'), ('UNSPECIFIED'), ('UNSPECIFIED') ) ;
#512 = CARTESIAN_POINT ( 'NONE',  ( -25.95000000000000300, -14.59999999999999400, 0.2999999999999981600 ) ) ;
#513 = EDGE_LOOP ( 'NONE', ( #852, #675, #642, #111 ) ) ;
#514 = CIRCLE ( 'NONE', #233, 4.700000000000001100 ) ;
#515 = EDGE_CURVE ( 'NONE', #821, #1107, #793, .T. ) ;
#516 = DIRECTION ( 'NONE',  ( -1.000000000000000000, 0.0000000000000000000, 0.0000000000000000000 ) ) ;
#517 = ADVANCED_FACE ( 'NONE', ( #500, #1225, #764 ), #1071, .T. ) ;
#518 = DIRECTION ( 'NONE',  ( 1.000000000000000000, 0.0000000000000000000, 0.0000000000000000000 ) ) ;
#519 = VERTEX_POINT ( 'NONE', #1181 ) ;
#520 = CARTESIAN_POINT ( 'NONE',  ( 13.40000000000000000, -5.500000000000000900, 1.650000000000001700 ) ) ;
#521 = VECTOR ( 'NONE', #806, 1000.000000000000000 ) ;
#522 = DIRECTION ( 'NONE',  ( -0.0000000000000000000, -0.0000000000000000000, -1.000000000000000000 ) ) ;
#523 = VERTEX_POINT ( 'NONE', #878 ) ;
#524 = CARTESIAN_POINT ( 'NONE',  ( -37.34999999999999400, -3.200000000000000200, 2.899999999999991500 ) ) ;
#525 = CARTESIAN_POINT ( 'NONE',  ( 32.00000000000000000, 3.314999999999999900, 3.200000000000000200 ) ) ;
#526 = VERTEX_POINT ( 'NONE', #977 ) ;
#527 = LINE ( 'NONE', #269, #801 ) ;
#528 = CARTESIAN_POINT ( 'NONE',  ( -37.34999999999999400, -3.200000000000000200, 2.899999999999991500 ) ) ;
#529 = CARTESIAN_POINT ( 'NONE',  ( -25.94999999999999900, -14.30000000000000100, 0.0000000000000000000 ) ) ;
#530 = ORIENTED_EDGE ( 'NONE', *, *, #102, .F. ) ;
#531 = FACE_BOUND ( 'NONE', #243, .T. ) ;
#532 = FACE_OUTER_BOUND ( 'NONE', #292, .T. ) ;
#533 =( NAMED_UNIT ( * ) PLANE_ANGLE_UNIT ( ) SI_UNIT ( $, .RADIAN. ) );
#534 = EDGE_CURVE ( 'NONE', #201, #347, #235, .T. ) ;
#535 = CARTESIAN_POINT ( 'NONE',  ( -25.94999999999999900, -14.59999999999999600, 0.2999999999999981600 ) ) ;
#536 = DIRECTION ( 'NONE',  ( -0.7071067811865474600, 0.0000000000000000000, -0.7071067811865474600 ) ) ;
#537 = APPROVAL_DATE_TIME ( #1060, #115 ) ;
#538 = VERTEX_POINT ( 'NONE', #89 ) ;
#539 = FACE_OUTER_BOUND ( 'NONE', #982, .T. ) ;
#540 = DIRECTION ( 'NONE',  ( -0.0000000000000000000, -0.0000000000000000000, -1.000000000000000000 ) ) ;
#541 = ORIENTED_EDGE ( 'NONE', *, *, #740, .T. ) ;
#542 = APPROVAL_ROLE ( '' ) ;
#543 = ORIENTED_EDGE ( 'NONE', *, *, #534, .F. ) ;
#544 = CARTESIAN_POINT ( 'NONE',  ( 29.99000000000000200, 3.314999999999999900, 0.2999999999999999300 ) ) ;
#545 = EDGE_CURVE ( 'NONE', #399, #347, #1194, .T. ) ;
#546 = ORIENTED_EDGE ( 'NONE', *, *, #255, .T. ) ;
#547 = CARTESIAN_POINT ( 'NONE',  ( 34.00999999999999800, 3.315000000000000400, 0.2999999999999999300 ) ) ;
#548 = APPLICATION_CONTEXT ( 'configuration controlled 3d designs of mechanical parts and assemblies' ) ;
#549 = CIRCLE ( 'NONE', #1050, 4.700000000000001100 ) ;
#550 = DIRECTION ( 'NONE',  ( 0.7071067811865480200, 0.0000000000000000000, 0.7071067811865470200 ) ) ;
#551 = CIRCLE ( 'NONE', #901, 2.009999999999998000 ) ;
#552 = EDGE_CURVE ( 'NONE', #353, #327, #180, .T. ) ;
#553 = DATE_AND_TIME ( #1057, #741 ) ;
#554 = DIRECTION ( 'NONE',  ( -0.0000000000000000000, -0.0000000000000000000, 1.000000000000000000 ) ) ;
#555 = ORIENTED_EDGE ( 'NONE', *, *, #740, .F. ) ;
#556 = VECTOR ( 'NONE', #257, 1000.000000000000000 ) ;
#557 = CARTESIAN_POINT ( 'NONE',  ( -37.34999999999999400, -3.200000000000000200, 0.2999999999999981600 ) ) ;
#558 = CARTESIAN_POINT ( 'NONE',  ( -8.699999999999999300, -5.500000000000000000, 4.099999999999999600 ) ) ;
#559 = ORIENTED_EDGE ( 'NONE', *, *, #577, .T. ) ;
#560 = DIRECTION ( 'NONE',  ( 0.0000000000000000000, 0.0000000000000000000, -1.000000000000000000 ) ) ;
#561 = AXIS2_PLACEMENT_3D ( 'NONE', #74, #261, #942 ) ;
#562 = DIRECTION ( 'NONE',  ( 1.000000000000000000, 8.749701742865478500E-016, 0.0000000000000000000 ) ) ;
#563 = DIRECTION ( 'NONE',  ( -0.0000000000000000000, -0.0000000000000000000, 1.000000000000000000 ) ) ;
#564 = EDGE_CURVE ( 'NONE', #523, #399, #620, .T. ) ;
#565 = VECTOR ( 'NONE', #147, 1000.000000000000000 ) ;
#566 = ORIENTED_EDGE ( 'NONE', *, *, #808, .T. ) ;
#567 = AXIS2_PLACEMENT_3D ( 'NONE', #717, #342, #258 ) ;
#568 = ORIENTED_EDGE ( 'NONE', *, *, #1136, .T. ) ;
#569 = CALENDAR_DATE ( 2019, 18, 10 ) ;
#570 = FACE_OUTER_BOUND ( 'NONE', #179, .T. ) ;
#571 = AXIS2_PLACEMENT_3D ( 'NONE', #1004, #234, #1103 ) ;
#572 = VECTOR ( 'NONE', #611, 1000.000000000000000 ) ;
#573 = DIRECTION ( 'NONE',  ( -0.0000000000000000000, -0.0000000000000000000, 1.000000000000000000 ) ) ;
#574 = ORIENTED_EDGE ( 'NONE', *, *, #151, .T. ) ;
#575 = ORIENTED_EDGE ( 'NONE', *, *, #605, .T. ) ;
#576 = CARTESIAN_POINT ( 'NONE',  ( 37.04999999999999700, 4.830000000000000100, 0.0000000000000000000 ) ) ;
#577 = EDGE_CURVE ( 'NONE', #321, #1236, #46, .T. ) ;
#578 = ORIENTED_EDGE ( 'NONE', *, *, #83, .F. ) ;
#579 = DIRECTION ( 'NONE',  ( 1.000000000000000000, 0.0000000000000000000, 0.0000000000000000000 ) ) ;
#580 = CARTESIAN_POINT ( 'NONE',  ( 25.94999999999999900, 4.830000000000000100, 0.0000000000000000000 ) ) ;
#581 = CIRCLE ( 'NONE', #668, 2.309999999999999600 ) ;
#582 = ORIENTED_EDGE ( 'NONE', *, *, #175, .F. ) ;
#583 = ORIENTED_EDGE ( 'NONE', *, *, #443, .F. ) ;
#584 = ADVANCED_FACE ( 'NONE', ( #1120, #531, #959, #65, #1064 ), #401, .F. ) ;
#585 = DIRECTION ( 'NONE',  ( 1.000000000000000000, 0.0000000000000000000, 0.0000000000000000000 ) ) ;
#586 = VERTEX_POINT ( 'NONE', #768 ) ;
#587 = CC_DESIGN_APPROVAL ( #1002, ( #748 ) ) ;
#588 = CIRCLE ( 'NONE', #571, 2.250000000000000400 ) ;
#589 = DIRECTION ( 'NONE',  ( -1.000000000000000000, 0.0000000000000000000, 0.0000000000000000000 ) ) ;
#590 = ADVANCED_FACE ( 'NONE', ( #1183 ), #1005, .F. ) ;
#591 = ORIENTED_EDGE ( 'NONE', *, *, #469, .F. ) ;
#592 = PRODUCT ( 'MC01', 'MC01', '', ( #930 ) ) ;
#593 = DIRECTION ( 'NONE',  ( 0.0000000000000000000, 0.0000000000000000000, -1.000000000000000000 ) ) ;
#594 = ADVANCED_FACE ( 'NONE', ( #345 ), #962, .T. ) ;
#595 = CARTESIAN_POINT ( 'NONE',  ( 37.34999999999999400, -3.199999999999998800, 2.899999999999991000 ) ) ;
#596 = EDGE_LOOP ( 'NONE', ( #1033, #597, #417, #96 ) ) ;
#597 = ORIENTED_EDGE ( 'NONE', *, *, #515, .F. ) ;
#598 = CIRCLE ( 'NONE', #203, 4.700000000000001100 ) ;
#599 = DIRECTION ( 'NONE',  ( 0.0000000000000000000, 0.0000000000000000000, 1.000000000000000000 ) ) ;
#600 = ADVANCED_FACE ( 'NONE', ( #1104 ), #1171, .F. ) ;
#601 = EDGE_LOOP ( 'NONE', ( #58, #1113, #299, #1263 ) ) ;
#602 = ORIENTED_EDGE ( 'NONE', *, *, #44, .T. ) ;
#603 = DIRECTION ( 'NONE',  ( 0.0000000000000000000, 0.0000000000000000000, -1.000000000000000000 ) ) ;
#604 = DIRECTION ( 'NONE',  ( -1.000000000000000000, 0.0000000000000000000, 0.0000000000000000000 ) ) ;
#605 = EDGE_CURVE ( 'NONE', #632, #972, #551, .T. ) ;
#606 = FACE_OUTER_BOUND ( 'NONE', #450, .T. ) ;
#607 = CARTESIAN_POINT ( 'NONE',  ( 37.04999999999999700, 4.830000000000000100, 0.0000000000000000000 ) ) ;
#608 = CC_DESIGN_PERSON_AND_ORGANIZATION_ASSIGNMENT ( #105, #69, ( #301 ) ) ;
#609 = DIRECTION ( 'NONE',  ( -0.0000000000000000000, -0.0000000000000000000, 1.000000000000000000 ) ) ;
#610 = DIRECTION ( 'NONE',  ( -1.000000000000000000, 0.0000000000000000000, 0.0000000000000000000 ) ) ;
#611 = DIRECTION ( 'NONE',  ( 1.000000000000000000, 0.0000000000000000000, -0.0000000000000000000 ) ) ;
#612 = VECTOR ( 'NONE', #625, 1000.000000000000000 ) ;
#613 = CARTESIAN_POINT ( 'NONE',  ( -34.00999999999999800, 3.314999999999999900, 0.2999999999999999300 ) ) ;
#614 = DIRECTION ( 'NONE',  ( -1.000000000000000000, 0.0000000000000000000, 0.0000000000000000000 ) ) ;
#615 = CIRCLE ( 'NONE', #496, 11.39999999999999500 ) ;
#616 = EDGE_CURVE ( 'NONE', #1116, #129, #1101, .T. ) ;
#617 = FACE_OUTER_BOUND ( 'NONE', #833, .T. ) ;
#618 = DIRECTION ( 'NONE',  ( 0.0000000000000000000, 0.0000000000000000000, 1.000000000000000000 ) ) ;
#619 = CARTESIAN_POINT ( 'NONE',  ( -25.94999999999999900, -3.200000000000000200, 0.0000000000000000000 ) ) ;
#620 = CIRCLE ( 'NONE', #28, 2.250000000000000400 ) ;
#621 = DIRECTION ( 'NONE',  ( 0.0000000000000000000, 0.7071067811865454600, -0.7071067811865495700 ) ) ;
#622 = DIRECTION ( 'NONE',  ( -0.0000000000000000000, -0.0000000000000000000, 1.000000000000000000 ) ) ;
#623 = VECTOR ( 'NONE', #880, 1000.000000000000000 ) ;
#624 = ORIENTED_EDGE ( 'NONE', *, *, #1081, .T. ) ;
#625 = DIRECTION ( 'NONE',  ( 0.7071067811865471300, 0.0000000000000000000, 0.7071067811865479100 ) ) ;
#626 = PLANE ( 'NONE',  #50 ) ;
#627 = APPROVAL_DATE_TIME ( #553, #1002 ) ;
#628 = ORIENTED_EDGE ( 'NONE', *, *, #1090, .T. ) ;
#629 = PERSON_AND_ORGANIZATION ( #511, #894 ) ;
#630 = CARTESIAN_POINT ( 'NONE',  ( -32.00000000000000000, 3.314999999999999900, 3.200000000000000200 ) ) ;
#631 = SECURITY_CLASSIFICATION_LEVEL ( 'unclassified' ) ;
#632 = VERTEX_POINT ( 'NONE', #797 ) ;
#633 = EDGE_CURVE ( 'NONE', #173, #647, #681, .T. ) ;
#634 = ORIENTED_EDGE ( 'NONE', *, *, #325, .F. ) ;
#635 = AXIS2_PLACEMENT_3D ( 'NONE', #194, #1062, #579 ) ;
#636 = CARTESIAN_POINT ( 'NONE',  ( 18.10000000000000100, -5.500000000000000900, 4.099999999999999600 ) ) ;
#637 = DIRECTION ( 'NONE',  ( 0.0000000000000000000, 0.0000000000000000000, 1.000000000000000000 ) ) ;
#638 = ORIENTED_EDGE ( 'NONE', *, *, #377, .T. ) ;
#639 = VECTOR ( 'NONE', #926, 1000.000000000000100 ) ;
#640 = EDGE_CURVE ( 'NONE', #900, #1236, #1155, .T. ) ;
#641 = DIRECTION ( 'NONE',  ( 1.000000000000000000, 0.0000000000000000000, 0.0000000000000000000 ) ) ;
#642 = ORIENTED_EDGE ( 'NONE', *, *, #11, .T. ) ;
#643 = DIRECTION ( 'NONE',  ( 0.7071067811865515700, 0.0000000000000000000, 0.7071067811865435800 ) ) ;
#644 = VECTOR ( 'NONE', #814, 1000.000000000000000 ) ;
#645 = EDGE_CURVE ( 'NONE', #319, #321, #167, .T. ) ;
#646 = VECTOR ( 'NONE', #354, 1000.000000000000000 ) ;
#647 = VERTEX_POINT ( 'NONE', #898 ) ;
#648 = DIRECTION ( 'NONE',  ( -0.0000000000000000000, -0.0000000000000000000, 1.000000000000000000 ) ) ;
#649 = VECTOR ( 'NONE', #1001, 999.9999999999998900 ) ;
#650 = ORIENTED_EDGE ( 'NONE', *, *, #1167, .T. ) ;
#651 = VERTEX_POINT ( 'NONE', #1185 ) ;
#652 = CC_DESIGN_SECURITY_CLASSIFICATION ( #748, ( #301 ) ) ;
#653 = DIRECTION ( 'NONE',  ( -1.000000000000000000, 0.0000000000000000000, 0.0000000000000000000 ) ) ;
#654 = VECTOR ( 'NONE', #1164, 1000.000000000000100 ) ;
#655 = LINE ( 'NONE', #902, #154 ) ;
#656 = AXIS2_PLACEMENT_3D ( 'NONE', #487, #886, #1191 ) ;
#657 = ORIENTED_EDGE ( 'NONE', *, *, #1059, .F. ) ;
#658 = EDGE_LOOP ( 'NONE', ( #711, #543, #144, #722 ) ) ;
#659 = CARTESIAN_POINT ( 'NONE',  ( 29.69000000000000100, 3.314999999999999900, 0.0000000000000000000 ) ) ;
#660 = FACE_OUTER_BOUND ( 'NONE', #107, .T. ) ;
#661 = ORIENTED_EDGE ( 'NONE', *, *, #1173, .F. ) ;
#662 = DIRECTION ( 'NONE',  ( 0.0000000000000000000, 0.0000000000000000000, 1.000000000000000000 ) ) ;
#663 = EDGE_CURVE ( 'NONE', #254, #928, #769, .T. ) ;
#664 = DIRECTION ( 'NONE',  ( 1.000000000000000000, 0.0000000000000000000, -0.0000000000000000000 ) ) ;
#665 = CARTESIAN_POINT ( 'NONE',  ( -25.95000000000000300, -14.59999999999999600, 2.899999999999991000 ) ) ;
#666 = LINE ( 'NONE', #931, #488 ) ;
#667 = CARTESIAN_POINT ( 'NONE',  ( 29.99000000000000200, 3.314999999999999900, 0.2999999999999999300 ) ) ;
#668 = AXIS2_PLACEMENT_3D ( 'NONE', #418, #618, #36 ) ;
#669 = ORIENTED_EDGE ( 'NONE', *, *, #272, .F. ) ;
#670 = FACE_OUTER_BOUND ( 'NONE', #848, .T. ) ;
#671 = CC_DESIGN_PERSON_AND_ORGANIZATION_ASSIGNMENT ( #1264, #1234, ( #301 ) ) ;
#672 = ORIENTED_EDGE ( 'NONE', *, *, #840, .T. ) ;
#673 = CARTESIAN_POINT ( 'NONE',  ( 25.94999999999999900, 16.22999999999999300, 4.099999999999999600 ) ) ;
#674 = LINE ( 'NONE', #1041, #646 ) ;
#675 = ORIENTED_EDGE ( 'NONE', *, *, #545, .T. ) ;
#676 = FACE_OUTER_BOUND ( 'NONE', #1056, .T. ) ;
#677 = ADVANCED_FACE ( 'NONE', ( #32 ), #54, .T. ) ;
#678 = ORIENTED_EDGE ( 'NONE', *, *, #1242, .T. ) ;
#679 = EDGE_LOOP ( 'NONE', ( #987, #39, #92, #33 ) ) ;
#680 = EDGE_CURVE ( 'NONE', #1236, #900, #1140, .T. ) ;
#681 = LINE ( 'NONE', #699, #210 ) ;
#682 = DIRECTION ( 'NONE',  ( -1.000000000000000000, 0.0000000000000000000, 0.0000000000000000000 ) ) ;
#683 = CARTESIAN_POINT ( 'NONE',  ( 34.00999999999999800, 3.315000000000000400, 3.200000000000000200 ) ) ;
#684 = LINE ( 'NONE', #1151, #1053 ) ;
#685 = LINE ( 'NONE', #512, #182 ) ;
#686 = CARTESIAN_POINT ( 'NONE',  ( -25.94999999999999900, -3.200000000000000200, 4.099999999999999600 ) ) ;
#687 = ORIENTED_EDGE ( 'NONE', *, *, #159, .T. ) ;
#688 = DIRECTION ( 'NONE',  ( 0.0000000000000000000, 0.0000000000000000000, -1.000000000000000000 ) ) ;
#689 = ADVANCED_FACE ( 'NONE', ( #392 ), #132, .F. ) ;
#690 = ORIENTED_EDGE ( 'NONE', *, *, #1150, .T. ) ;
#691 = CYLINDRICAL_SURFACE ( 'NONE', #1093, 11.39999999999999500 ) ;
#692 = AXIS2_PLACEMENT_3D ( 'NONE', #374, #765, #653 ) ;
#693 = EDGE_LOOP ( 'NONE', ( #787, #602, #867, #219 ) ) ;
#694 = EDGE_LOOP ( 'NONE', ( #127, #109, #890, #1270 ) ) ;
#695 = DIRECTION ( 'NONE',  ( -0.0000000000000000000, -0.0000000000000000000, 1.000000000000000000 ) ) ;
#696 = ADVANCED_FACE ( 'NONE', ( #1009 ), #238, .T. ) ;
#697 = ORIENTED_EDGE ( 'NONE', *, *, #961, .F. ) ;
#698 = EDGE_CURVE ( 'NONE', #1245, #1116, #1138, .T. ) ;
#699 = CARTESIAN_POINT ( 'NONE',  ( 25.94999999999999900, -13.39999999999998800, 4.099999999999999600 ) ) ;
#700 = AXIS2_PLACEMENT_3D ( 'NONE', #1043, #753, #1157 ) ;
#701 = FACE_OUTER_BOUND ( 'NONE', #725, .T. ) ;
#702 = DIRECTION ( 'NONE',  ( -0.0000000000000000000, -0.0000000000000000000, -1.000000000000000000 ) ) ;
#703 = ADVANCED_FACE ( 'NONE', ( #1024 ), #420, .T. ) ;
#704 = EDGE_LOOP ( 'NONE', ( #341, #85, #148, #792 ) ) ;
#705 = EDGE_CURVE ( 'NONE', #1172, #353, #735, .T. ) ;
#706 = EDGE_LOOP ( 'NONE', ( #951, #978, #1187, #789 ) ) ;
#707 = VECTOR ( 'NONE', #853, 1000.000000000000100 ) ;
#708 = ORIENTED_EDGE ( 'NONE', *, *, #1215, .T. ) ;
#709 = CARTESIAN_POINT ( 'NONE',  ( 13.40000000000000000, -5.500000000000000900, 4.099999999999999600 ) ) ;
#710 = DIRECTION ( 'NONE',  ( -0.0000000000000000000, -0.0000000000000000000, -1.000000000000000000 ) ) ;
#711 = ORIENTED_EDGE ( 'NONE', *, *, #840, .F. ) ;
#712 = ORIENTED_EDGE ( 'NONE', *, *, #116, .F. ) ;
#713 = DIRECTION ( 'NONE',  ( 1.000000000000000000, 0.0000000000000000000, 0.0000000000000000000 ) ) ;
#714 = DIRECTION ( 'NONE',  ( -0.7071067811865479100, 8.659560562354937800E-017, 0.7071067811865470200 ) ) ;
#715 = PRODUCT_RELATED_PRODUCT_CATEGORY ( 'detail', '', ( #592 ) ) ;
#716 = CYLINDRICAL_SURFACE ( 'NONE', #211, 2.009999999999998000 ) ;
#717 = CARTESIAN_POINT ( 'NONE',  ( -25.94999999999999900, 16.22999999999999700, 4.099999999999999600 ) ) ;
#718 = CARTESIAN_POINT ( 'NONE',  ( -32.00000000000000000, 3.314999999999999900, 0.2999999999999999300 ) ) ;
#719 = COORDINATED_UNIVERSAL_TIME_OFFSET ( 7, 0, .BEHIND. ) ;
#720 = DIRECTION ( 'NONE',  ( 0.0000000000000000000, 0.0000000000000000000, -1.000000000000000000 ) ) ;
#721 = DIRECTION ( 'NONE',  ( 0.0000000000000000000, 1.000000000000000000, 0.0000000000000000000 ) ) ;
#722 = ORIENTED_EDGE ( 'NONE', *, *, #824, .T. ) ;
#723 = FACE_OUTER_BOUND ( 'NONE', #694, .T. ) ;
#724 = ORIENTED_EDGE ( 'NONE', *, *, #747, .T. ) ;
#725 = EDGE_LOOP ( 'NONE', ( #661, #687, #777, #634 ) ) ;
#726 = CARTESIAN_POINT ( 'NONE',  ( 13.40000000000000000, -5.500000000000000900, 4.099999999999999600 ) ) ;
#727 = CARTESIAN_POINT ( 'NONE',  ( 32.00000000000000000, 3.314999999999999900, 0.0000000000000000000 ) ) ;
#728 = EDGE_LOOP ( 'NONE', ( #628, #366, #762, #541, #101, #736, #966, #999 ) ) ;
#729 = DIRECTION ( 'NONE',  ( -1.000000000000000000, 0.0000000000000000000, 0.0000000000000000000 ) ) ;
#730 = DATE_TIME_ROLE ( 'classification_date' ) ;
#731 = EDGE_CURVE ( 'NONE', #1027, #526, #266, .T. ) ;
#732 = CARTESIAN_POINT ( 'NONE',  ( -29.99000000000000200, 3.315000000000000400, 3.200000000000000200 ) ) ;
#733 = CONICAL_SURFACE ( 'NONE', #460, 4.700000000000001100, 0.7853981633974489500 ) ;
#734 = CARTESIAN_POINT ( 'NONE',  ( 25.94999999999999900, 15.02999999999999000, 4.099999999999999600 ) ) ;
#735 = LINE ( 'NONE', #13, #308 ) ;
#736 = ORIENTED_EDGE ( 'NONE', *, *, #349, .T. ) ;
#737 = APPROVAL_STATUS ( 'not_yet_approved' ) ;
#738 = DIRECTION ( 'NONE',  ( -0.0000000000000000000, -0.0000000000000000000, 1.000000000000000000 ) ) ;
#739 = ORIENTED_EDGE ( 'NONE', *, *, #1272, .F. ) ;
#740 = EDGE_CURVE ( 'NONE', #259, #745, #1271, .T. ) ;
#741 = LOCAL_TIME ( 17, 3, 41.00000000000000000, #892 ) ;
#742 = ORIENTED_EDGE ( 'NONE', *, *, #796, .T. ) ;
#743 = CARTESIAN_POINT ( 'NONE',  ( -25.94999999999999900, 4.830000000000000100, 2.899999999999991500 ) ) ;
#744 = CARTESIAN_POINT ( 'NONE',  ( -25.94999999999999900, 16.22999999999999700, 0.2999999999999981600 ) ) ;
#745 = VERTEX_POINT ( 'NONE', #1091 ) ;
#746 = FACE_OUTER_BOUND ( 'NONE', #94, .T. ) ;
#747 = EDGE_CURVE ( 'NONE', #1116, #327, #369, .T. ) ;
#748 = SECURITY_CLASSIFICATION ( '', '', #631 ) ;
#749 = DIRECTION ( 'NONE',  ( 0.0000000000000000000, -0.0000000000000000000, 1.000000000000000000 ) ) ;
#750 = PLANE ( 'NONE',  #1117 ) ;
#751 = FACE_OUTER_BOUND ( 'NONE', #1200, .T. ) ;
#752 = EDGE_CURVE ( 'NONE', #250, #1148, #911, .T. ) ;
#753 = DIRECTION ( 'NONE',  ( -0.0000000000000000000, -0.0000000000000000000, 1.000000000000000000 ) ) ;
#754 = AXIS2_PLACEMENT_3D ( 'NONE', #782, #103, #110 ) ;
#755 = CARTESIAN_POINT ( 'NONE',  ( -13.40000000000000000, -5.500000000000000000, 4.099999999999999600 ) ) ;
#756 = CARTESIAN_POINT ( 'NONE',  ( 32.00000000000000000, 3.314999999999999900, 0.2999999999999999300 ) ) ;
#757 = LINE ( 'NONE', #1219, #91 ) ;
#758 = EDGE_LOOP ( 'NONE', ( #395, #506, #423, #1165 ) ) ;
#759 = CARTESIAN_POINT ( 'NONE',  ( -25.94999999999999900, -3.200000000000000200, 2.899999999999991500 ) ) ;
#760 = CARTESIAN_POINT ( 'NONE',  ( -36.14999999999998400, -3.200000000000000200, 4.099999999999999600 ) ) ;
#761 = AXIS2_PLACEMENT_3D ( 'NONE', #86, #281, #868 ) ;
#762 = ORIENTED_EDGE ( 'NONE', *, *, #1230, .T. ) ;
#763 = DIRECTION ( 'NONE',  ( 0.0000000000000000000, 0.7071067811865454600, -0.7071067811865495700 ) ) ;
#764 = FACE_BOUND ( 'NONE', #953, .T. ) ;
#765 = DIRECTION ( 'NONE',  ( 0.0000000000000000000, 0.0000000000000000000, -1.000000000000000000 ) ) ;
#766 = ORIENTED_EDGE ( 'NONE', *, *, #698, .F. ) ;
#767 = AXIS2_PLACEMENT_3D ( 'NONE', #351, #61, #1135 ) ;
#768 = CARTESIAN_POINT ( 'NONE',  ( 15.65000000000000000, -5.500000000000000900, 8.673617379884035500E-016 ) ) ;
#769 = LINE ( 'NONE', #1097, #1201 ) ;
#770 = AXIS2_PLACEMENT_3D ( 'NONE', #803, #702, #981 ) ;
#771 = VERTEX_POINT ( 'NONE', #912 ) ;
#772 = COORDINATED_UNIVERSAL_TIME_OFFSET ( 7, 0, .BEHIND. ) ;
#773 = CARTESIAN_POINT ( 'NONE',  ( -25.95000000000000300, -14.59999999999999400, 2.899999999999991500 ) ) ;
#774 = VECTOR ( 'NONE', #1217, 1000.000000000000000 ) ;
#775 = CARTESIAN_POINT ( 'NONE',  ( -34.00999999999999800, 3.314999999999999900, 3.200000000000000200 ) ) ;
#776 = EDGE_CURVE ( 'NONE', #586, #1130, #588, .T. ) ;
#777 = ORIENTED_EDGE ( 'NONE', *, *, #298, .F. ) ;
#778 = DIRECTION ( 'NONE',  ( -1.000000000000000000, 0.0000000000000000000, 0.0000000000000000000 ) ) ;
#779 = AXIS2_PLACEMENT_3D ( 'NONE', #288, #382, #957 ) ;
#780 = ORIENTED_EDGE ( 'NONE', *, *, #776, .F. ) ;
#781 = ADVANCED_FACE ( 'NONE', ( #746 ), #40, .T. ) ;
#782 = CARTESIAN_POINT ( 'NONE',  ( -25.94999999999999900, 4.830000000000000100, 0.0000000000000000000 ) ) ;
#783 = LINE ( 'NONE', #1094, #273 ) ;
#784 = VECTOR ( 'NONE', #610, 1000.000000000000000 ) ;
#785 = ADVANCED_FACE ( 'NONE', ( #617 ), #1030, .F. ) ;
#786 = CC_DESIGN_PERSON_AND_ORGANIZATION_ASSIGNMENT ( #921, #55, ( #748 ) ) ;
#787 = ORIENTED_EDGE ( 'NONE', *, *, #477, .F. ) ;
#788 = CIRCLE ( 'NONE', #561, 11.09999999999999800 ) ;
#789 = ORIENTED_EDGE ( 'NONE', *, *, #534, .T. ) ;
#790 = ADVANCED_FACE ( 'NONE', ( #383 ), #906, .F. ) ;
#791 = EDGE_CURVE ( 'NONE', #1107, #651, #284, .T. ) ;
#792 = ORIENTED_EDGE ( 'NONE', *, *, #889, .F. ) ;
#793 = LINE ( 'NONE', #665, #501 ) ;
#794 = ADVANCED_FACE ( 'NONE', ( #676 ), #297, .F. ) ;
#795 = CARTESIAN_POINT ( 'NONE',  ( 36.14999999999998400, 4.830000000000000100, 4.099999999999999600 ) ) ;
#796 = EDGE_CURVE ( 'NONE', #1085, #1245, #1015, .T. ) ;
#797 = CARTESIAN_POINT ( 'NONE',  ( 29.99000000000000200, 3.314999999999999900, 3.200000000000000200 ) ) ;
#798 = EDGE_LOOP ( 'NONE', ( #495, #805 ) ) ;
#799 = CARTESIAN_POINT ( 'NONE',  ( -11.15000000000000000, -5.500000000000000000, 1.650000000000001700 ) ) ;
#800 = ORIENTED_EDGE ( 'NONE', *, *, #1167, .F. ) ;
#801 = VECTOR ( 'NONE', #1149, 1000.000000000000000 ) ;
#802 = ORIENTED_EDGE ( 'NONE', *, *, #224, .T. ) ;
#803 = CARTESIAN_POINT ( 'NONE',  ( -25.94999999999999900, 4.830000000000000100, 0.0000000000000000000 ) ) ;
#804 = EDGE_LOOP ( 'NONE', ( #914, #1249 ) ) ;
#805 = ORIENTED_EDGE ( 'NONE', *, *, #645, .T. ) ;
#806 = DIRECTION ( 'NONE',  ( -0.0000000000000000000, -0.0000000000000000000, -1.000000000000000000 ) ) ;
#807 = EDGE_LOOP ( 'NONE', ( #575, #280 ) ) ;
#808 = EDGE_CURVE ( 'NONE', #1148, #949, #400, .T. ) ;
#809 = DIRECTION ( 'NONE',  ( 1.000000000000000000, 0.0000000000000000000, 0.0000000000000000000 ) ) ;
#810 = CC_DESIGN_PERSON_AND_ORGANIZATION_ASSIGNMENT ( #189, #435, ( #246 ) ) ;
#811 = CARTESIAN_POINT ( 'NONE',  ( 37.34999999999999400, -3.199999999999998800, 0.2999999999999981600 ) ) ;
#812 = CARTESIAN_POINT ( 'NONE',  ( 8.699999999999999300, -5.500000000000000000, 4.099999999999999600 ) ) ;
#813 = CARTESIAN_POINT ( 'NONE',  ( 25.94999999999999900, -3.200000000000000200, 4.099999999999999600 ) ) ;
#814 = DIRECTION ( 'NONE',  ( 0.7071067811865470200, 0.0000000000000000000, -0.7071067811865480200 ) ) ;
#815 = EDGE_CURVE ( 'NONE', #821, #1083, #1074, .T. ) ;
#816 = EDGE_LOOP ( 'NONE', ( #262, #780, #177, #994 ) ) ;
#817 = CIRCLE ( 'NONE', #309, 2.250000000000000400 ) ;
#818 = AXIS2_PLACEMENT_3D ( 'NONE', #1046, #1243, #80 ) ;
#819 = ORIENTED_EDGE ( 'NONE', *, *, #287, .F. ) ;
#820 = DIRECTION ( 'NONE',  ( -0.0000000000000000000, -0.0000000000000000000, -1.000000000000000000 ) ) ;
#821 = VERTEX_POINT ( 'NONE', #143 ) ;
#822 = CARTESIAN_POINT ( 'NONE',  ( 25.94999999999999900, -14.30000000000000100, 0.0000000000000000000 ) ) ;
#823 = CARTESIAN_POINT ( 'NONE',  ( 25.94999999999999900, 4.830000000000000100, 4.099999999999999600 ) ) ;
#824 = EDGE_CURVE ( 'NONE', #1159, #113, #514, .T. ) ;
#825 = DIRECTION ( 'NONE',  ( -0.0000000000000000000, -0.0000000000000000000, -1.000000000000000000 ) ) ;
#826 = AXIS2_PLACEMENT_3D ( 'NONE', #580, #820, #1098 ) ;
#827 = LINE ( 'NONE', #241, #521 ) ;
#828 = CARTESIAN_POINT ( 'NONE',  ( 25.94999999999999900, -3.200000000000000200, 0.2999999999999981600 ) ) ;
#829 = CARTESIAN_POINT ( 'NONE',  ( 37.34999999999999400, 4.830000000000000100, 0.2999999999999981600 ) ) ;
#830 = CARTESIAN_POINT ( 'NONE',  ( 36.14999999999998400, 4.830000000000000100, 4.099999999999999600 ) ) ;
#831 = ORIENTED_EDGE ( 'NONE', *, *, #747, .F. ) ;
#832 = LOCAL_TIME ( 17, 3, 41.00000000000000000, #1087 ) ;
#833 = EDGE_LOOP ( 'NONE', ( #225, #672, #638, #657 ) ) ;
#834 = AXIS2_PLACEMENT_3D ( 'NONE', #924, #334, #34 ) ;
#835 = DIRECTION ( 'NONE',  ( 0.0000000000000000000, 0.0000000000000000000, -1.000000000000000000 ) ) ;
#836 = DIRECTION ( 'NONE',  ( 1.000000000000000000, 0.0000000000000000000, 0.0000000000000000000 ) ) ;
#837 = VERTEX_POINT ( 'NONE', #822 ) ;
#838 = CARTESIAN_POINT ( 'NONE',  ( -25.94999999999999900, -3.200000000000000200, 4.099999999999999600 ) ) ;
#839 = ORIENTED_EDGE ( 'NONE', *, *, #116, .T. ) ;
#840 = EDGE_CURVE ( 'NONE', #347, #113, #757, .T. ) ;
#841 = CARTESIAN_POINT ( 'NONE',  ( 13.40000000000000000, -5.500000000000000900, 4.099999999999999600 ) ) ;
#842 = FACE_OUTER_BOUND ( 'NONE', #798, .T. ) ;
#843 = AXIS2_PLACEMENT_3D ( 'NONE', #1175, #1077, #664 ) ;
#844 = CONICAL_SURFACE ( 'NONE', #884, 11.39999999999999300, 0.7853981633974456100 ) ;
#845 = DIRECTION ( 'NONE',  ( 1.000000000000000000, 0.0000000000000000000, 0.0000000000000000000 ) ) ;
#846 = VERTEX_POINT ( 'NONE', #528 ) ;
#847 = MANIFOLD_SOLID_BREP ( 'Debur Chamfer', #1096 ) ;
#848 = EDGE_LOOP ( 'NONE', ( #248, #1110, #1275, #993 ) ) ;
#849 = VECTOR ( 'NONE', #379, 1000.000000000000100 ) ;
#850 = ORIENTED_EDGE ( 'NONE', *, *, #1132, .F. ) ;
#851 = DIRECTION ( 'NONE',  ( 0.0000000000000000000, 0.0000000000000000000, -1.000000000000000000 ) ) ;
#852 = ORIENTED_EDGE ( 'NONE', *, *, #79, .F. ) ;
#853 = DIRECTION ( 'NONE',  ( 0.7071067811865479100, 0.0000000000000000000, 0.7071067811865470200 ) ) ;
#854 = AXIS2_PLACEMENT_3D ( 'NONE', #838, #637, #641 ) ;
#855 = CIRCLE ( 'NONE', #20, 2.309999999999999600 ) ;
#856 = AXIS2_PLACEMENT_3D ( 'NONE', #387, #3, #778 ) ;
#857 = EDGE_LOOP ( 'NONE', ( #462, #187, #591, #934 ) ) ;
#858 = ORIENTED_EDGE ( 'NONE', *, *, #159, .F. ) ;
#859 = CARTESIAN_POINT ( 'NONE',  ( 32.00000000000000000, 3.314999999999999900, 3.200000000000000200 ) ) ;
#860 = ORIENTED_EDGE ( 'NONE', *, *, #975, .F. ) ;
#861 = LINE ( 'NONE', #673, #1142 ) ;
#862 = ORIENTED_EDGE ( 'NONE', *, *, #164, .F. ) ;
#863 = CARTESIAN_POINT ( 'NONE',  ( -25.94999999999999900, 15.02999999999999000, 4.099999999999999600 ) ) ;
#864 = CIRCLE ( 'NONE', #23, 11.39999999999999300 ) ;
#865 = EDGE_CURVE ( 'NONE', #1238, #254, #174, .T. ) ;
#866 = DIRECTION ( 'NONE',  ( -0.0000000000000000000, -0.0000000000000000000, 1.000000000000000000 ) ) ;
#867 = ORIENTED_EDGE ( 'NONE', *, *, #1173, .T. ) ;
#868 = DIRECTION ( 'NONE',  ( 1.000000000000000000, 0.0000000000000000000, 0.0000000000000000000 ) ) ;
#869 = ORIENTED_EDGE ( 'NONE', *, *, #883, .T. ) ;
#870 = DIRECTION ( 'NONE',  ( 0.0000000000000000000, 0.0000000000000000000, -1.000000000000000000 ) ) ;
#871 = EDGE_CURVE ( 'NONE', #277, #538, #817, .T. ) ;
#872 = DIRECTION ( 'NONE',  ( 1.000000000000000000, 0.0000000000000000000, 0.0000000000000000000 ) ) ;
#873 = VECTOR ( 'NONE', #318, 1000.000000000000000 ) ;
#874 = AXIS2_PLACEMENT_3D ( 'NONE', #14, #695, #585 ) ;
#875 = DIRECTION ( 'NONE',  ( 0.0000000000000000000, -0.7071067811865475700, 0.7071067811865475700 ) ) ;
#876 = CC_DESIGN_DATE_AND_TIME_ASSIGNMENT ( #1073, #730, ( #748 ) ) ;
#877 = VECTOR ( 'NONE', #26, 1000.000000000000100 ) ;
#878 = CARTESIAN_POINT ( 'NONE',  ( -11.15000000000000000, -5.500000000000000000, 8.673617379884035500E-016 ) ) ;
#879 = CIRCLE ( 'NONE', #1162, 10.19999999999998700 ) ;
#880 = DIRECTION ( 'NONE',  ( -0.0000000000000000000, -0.0000000000000000000, -1.000000000000000000 ) ) ;
#881 = ADVANCED_FACE ( 'NONE', ( #1178 ), #910, .F. ) ;
#882 = ORIENTED_EDGE ( 'NONE', *, *, #969, .T. ) ;
#883 = EDGE_CURVE ( 'NONE', #327, #479, #674, .T. ) ;
#884 = AXIS2_PLACEMENT_3D ( 'NONE', #1244, #279, #373 ) ;
#885 = EDGE_LOOP ( 'NONE', ( #1063, #555, #918, #697 ) ) ;
#886 = DIRECTION ( 'NONE',  ( -0.0000000000000000000, -0.0000000000000000000, 1.000000000000000000 ) ) ;
#887 = ADVANCED_FACE ( 'NONE', ( #997 ), #750, .T. ) ;
#888 = LINE ( 'NONE', #529, #784 ) ;
#889 = EDGE_CURVE ( 'NONE', #586, #538, #38, .T. ) ;
#890 = ORIENTED_EDGE ( 'NONE', *, *, #1136, .F. ) ;
#891 = ORIENTED_EDGE ( 'NONE', *, *, #929, .F. ) ;
#892 = COORDINATED_UNIVERSAL_TIME_OFFSET ( 7, 0, .BEHIND. ) ;
#893 = AXIS2_PLACEMENT_3D ( 'NONE', #468, #1048, #191 ) ;
#894 = ORGANIZATION ( 'UNSPECIFIED', 'UNSPECIFIED', '' ) ;
#895 = EDGE_CURVE ( 'NONE', #1245, #479, #1145, .T. ) ;
#896 = ORIENTED_EDGE ( 'NONE', *, *, #1215, .F. ) ;
#897 = ORIENTED_EDGE ( 'NONE', *, *, #1036, .T. ) ;
#898 = CARTESIAN_POINT ( 'NONE',  ( 25.94999999999999900, -13.39999999999998800, 4.099999999999999600 ) ) ;
#899 = ADVANCED_FACE ( 'NONE', ( #1269 ), #282, .F. ) ;
#900 = VERTEX_POINT ( 'NONE', #1029 ) ;
#901 = AXIS2_PLACEMENT_3D ( 'NONE', #508, #114, #1086 ) ;
#902 = CARTESIAN_POINT ( 'NONE',  ( 34.00999999999999800, 3.315000000000000400, 0.2999999999999999300 ) ) ;
#903 = CARTESIAN_POINT ( 'NONE',  ( -32.00000000000000000, 3.314999999999999900, 0.2999999999999999300 ) ) ;
#904 = EDGE_CURVE ( 'NONE', #651, #1083, #1088, .T. ) ;
#905 = AXIS2_PLACEMENT_3D ( 'NONE', #489, #870, #406 ) ;
#906 = PLANE ( 'NONE',  #971 ) ;
#907 = CONICAL_SURFACE ( 'NONE', #97, 10.19999999999998700, 0.7853981633974482800 ) ;
#908 = CARTESIAN_POINT ( 'NONE',  ( -37.34999999999999400, 4.830000000000000100, 2.899999999999991000 ) ) ;
#909 = DIRECTION ( 'NONE',  ( 0.0000000000000000000, 0.0000000000000000000, -1.000000000000000000 ) ) ;
#910 = CONICAL_SURFACE ( 'NONE', #368, 4.700000000000001100, 0.7853981633974489500 ) ;
#911 = LINE ( 'NONE', #346, #649 ) ;
#912 = CARTESIAN_POINT ( 'NONE',  ( -29.69000000000000100, 3.315000000000000400, 0.0000000000000000000 ) ) ;
#913 = DIRECTION ( 'NONE',  ( -0.0000000000000000000, -0.0000000000000000000, -1.000000000000000000 ) ) ;
#914 = ORIENTED_EDGE ( 'NONE', *, *, #824, .F. ) ;
#915 = DIRECTION ( 'NONE',  ( -1.000000000000000000, 0.0000000000000000000, 0.0000000000000000000 ) ) ;
#916 = LINE ( 'NONE', #75, #654 ) ;
#917 = DIRECTION ( 'NONE',  ( -0.7071067811865479100, 8.659560562354937800E-017, 0.7071067811865470200 ) ) ;
#918 = ORIENTED_EDGE ( 'NONE', *, *, #1242, .F. ) ;
#919 = DIRECTION ( 'NONE',  ( 1.000000000000000000, 0.0000000000000000000, 0.0000000000000000000 ) ) ;
#920 = AXIS2_PLACEMENT_3D ( 'NONE', #841, #252, #436 ) ;
#921 = PERSON_AND_ORGANIZATION ( #511, #894 ) ;
#922 = ORIENTED_EDGE ( 'NONE', *, *, #616, .F. ) ;
#923 = AXIS2_PLACEMENT_3D ( 'NONE', #198, #875, #304 ) ;
#924 = CARTESIAN_POINT ( 'NONE',  ( -13.40000000000000000, -5.500000000000000000, 4.099999999999999600 ) ) ;
#925 = DIRECTION ( 'NONE',  ( -1.000000000000000000, 0.0000000000000000000, 0.0000000000000000000 ) ) ;
#926 = DIRECTION ( 'NONE',  ( -0.7071067811865474600, 0.0000000000000000000, -0.7071067811865474600 ) ) ;
#927 = DIRECTION ( 'NONE',  ( 1.000000000000000000, 0.0000000000000000000, 0.0000000000000000000 ) ) ;
#928 = VERTEX_POINT ( 'NONE', #734 ) ;
#929 = EDGE_CURVE ( 'NONE', #1128, #1011, #229, .T. ) ;
#930 = MECHANICAL_CONTEXT ( 'NONE', #370, 'mechanical' ) ;
#931 = CARTESIAN_POINT ( 'NONE',  ( 37.34999999999999400, -3.200000000000000200, 0.2999999999999981600 ) ) ;
#932 = LINE ( 'NONE', #544, #639 ) ;
#933 = CARTESIAN_POINT ( 'NONE',  ( 37.04999999999999700, -3.199999999999998800, 0.0000000000000000000 ) ) ;
#934 = ORIENTED_EDGE ( 'NONE', *, *, #904, .F. ) ;
#935 = ORIENTED_EDGE ( 'NONE', *, *, #871, .F. ) ;
#936 = EDGE_CURVE ( 'NONE', #129, #1273, #478, .T. ) ;
#937 = EDGE_LOOP ( 'NONE', ( #819, #1089, #559, #389 ) ) ;
#938 = CC_DESIGN_DATE_AND_TIME_ASSIGNMENT ( #411, #1222, ( #246 ) ) ;
#939 = CARTESIAN_POINT ( 'NONE',  ( -25.94999999999999900, 16.22999999999999700, 4.099999999999999600 ) ) ;
#940 = ORIENTED_EDGE ( 'NONE', *, *, #895, .T. ) ;
#941 = APPLICATION_PROTOCOL_DEFINITION ( 'international standard', 'config_control_design', 1994, #548 ) ;
#942 = DIRECTION ( 'NONE',  ( 1.000000000000000000, 0.0000000000000000000, 0.0000000000000000000 ) ) ;
#943 = APPLICATION_PROTOCOL_DEFINITION ( 'international standard', 'config_control_design', 1994, #370 ) ;
#944 = EDGE_CURVE ( 'NONE', #523, #201, #339, .T. ) ;
#945 = DIRECTION ( 'NONE',  ( -0.0000000000000000000, -0.0000000000000000000, -1.000000000000000000 ) ) ;
#946 = CONICAL_SURFACE ( 'NONE', #905, 2.009999999999998000, 0.7853981633974482800 ) ;
#947 = LINE ( 'NONE', #237, #1069 ) ;
#948 = CARTESIAN_POINT ( 'NONE',  ( 8.699999999999999300, -5.500000000000000000, 4.099999999999999600 ) ) ;
#949 = VERTEX_POINT ( 'NONE', #933 ) ;
#950 = CARTESIAN_POINT ( 'NONE',  ( 37.34999999999999400, 4.830000000000000100, 2.899999999999991000 ) ) ;
#951 = ORIENTED_EDGE ( 'NONE', *, *, #545, .F. ) ;
#952 = DIRECTION ( 'NONE',  ( -0.7071067811865515700, 0.0000000000000000000, 0.7071067811865435800 ) ) ;
#953 = EDGE_LOOP ( 'NONE', ( #1161, #739 ) ) ;
#954 = AXIS2_PLACEMENT_3D ( 'NONE', #163, #445, #845 ) ;
#955 = DIRECTION ( 'NONE',  ( 1.000000000000000000, 0.0000000000000000000, 0.0000000000000000000 ) ) ;
#956 = ORIENTED_EDGE ( 'NONE', *, *, #414, .T. ) ;
#957 = DIRECTION ( 'NONE',  ( 1.000000000000000000, 0.0000000000000000000, 0.0000000000000000000 ) ) ;
#958 = ORIENTED_EDGE ( 'NONE', *, *, #1230, .F. ) ;
#959 = FACE_OUTER_BOUND ( 'NONE', #122, .T. ) ;
#960 = CARTESIAN_POINT ( 'NONE',  ( -25.95000000000000300, -14.29999999999999900, 0.0000000000000000000 ) ) ;
#961 = EDGE_CURVE ( 'NONE', #1233, #1238, #615, .T. ) ;
#962 = PLANE ( 'NONE',  #856 ) ;
#963 = LINE ( 'NONE', #1106, #565 ) ;
#964 = DIRECTION ( 'NONE',  ( -0.0000000000000000000, -0.0000000000000000000, -1.000000000000000000 ) ) ;
#965 = DIRECTION ( 'NONE',  ( -0.0000000000000000000, -0.0000000000000000000, -1.000000000000000000 ) ) ;
#966 = ORIENTED_EDGE ( 'NONE', *, *, #633, .T. ) ;
#967 = DIRECTION ( 'NONE',  ( 0.0000000000000000000, 0.0000000000000000000, 1.000000000000000000 ) ) ;
#968 = VECTOR ( 'NONE', #1034, 1000.000000000000000 ) ;
#969 = EDGE_CURVE ( 'NONE', #949, #837, #788, .T. ) ;
#970 = ORIENTED_EDGE ( 'NONE', *, *, #352, .T. ) ;
#971 = AXIS2_PLACEMENT_3D ( 'NONE', #419, #425, #1109 ) ;
#972 = VERTEX_POINT ( 'NONE', #1226 ) ;
#973 = DIRECTION ( 'NONE',  ( 1.000000000000000000, 0.0000000000000000000, 0.0000000000000000000 ) ) ;
#974 = ADVANCED_FACE ( 'NONE', ( #492 ), #1144, .F. ) ;
#975 = EDGE_CURVE ( 'NONE', #173, #1107, #527, .T. ) ;
#976 = FACE_OUTER_BOUND ( 'NONE', #679, .T. ) ;
#977 = CARTESIAN_POINT ( 'NONE',  ( 37.34999999999999400, -3.199999999999998800, 2.899999999999991000 ) ) ;
#978 = ORIENTED_EDGE ( 'NONE', *, *, #564, .F. ) ;
#979 = VERTEX_POINT ( 'NONE', #1137 ) ;
#980 = EDGE_CURVE ( 'NONE', #1238, #353, #1047, .T. ) ;
#981 = DIRECTION ( 'NONE',  ( 1.000000000000000000, 0.0000000000000000000, 0.0000000000000000000 ) ) ;
#982 = EDGE_LOOP ( 'NONE', ( #78, #1177, #996, #624 ) ) ;
#983 = LINE ( 'NONE', #149, #644 ) ;
#984 = VERTEX_POINT ( 'NONE', #358 ) ;
#985 = AXIS2_PLACEMENT_3D ( 'NONE', #56, #360, #247 ) ;
#986 = DIRECTION ( 'NONE',  ( 1.000000000000000000, 0.0000000000000000000, 0.0000000000000000000 ) ) ;
#987 = ORIENTED_EDGE ( 'NONE', *, *, #44, .F. ) ;
#988 = AXIS2_PLACEMENT_3D ( 'NONE', #6, #593, #212 ) ;
#989 = VERTEX_POINT ( 'NONE', #636 ) ;
#990 = VECTOR ( 'NONE', #965, 1000.000000000000000 ) ;
#991 = EDGE_CURVE ( 'NONE', #321, #319, #367, .T. ) ;
#992 = DIRECTION ( 'NONE',  ( -1.000000000000000000, 0.0000000000000000000, 0.0000000000000000000 ) ) ;
#993 = ORIENTED_EDGE ( 'NONE', *, *, #731, .T. ) ;
#994 = ORIENTED_EDGE ( 'NONE', *, *, #1221, .T. ) ;
#995 = PLANE ( 'NONE',  #72 ) ;
#996 = ORIENTED_EDGE ( 'NONE', *, *, #791, .F. ) ;
#997 = FACE_OUTER_BOUND ( 'NONE', #216, .T. ) ;
#998 = CARTESIAN_POINT ( 'NONE',  ( -37.34999999999999400, -3.200000000000000200, 4.099999999999999600 ) ) ;
#999 = ORIENTED_EDGE ( 'NONE', *, *, #1100, .T. ) ;
#1000 = AXIS2_PLACEMENT_3D ( 'NONE', #206, #313, #221 ) ;
#1001 = DIRECTION ( 'NONE',  ( -0.7071067811865435800, 0.0000000000000000000, -0.7071067811865515700 ) ) ;
#1002 = APPROVAL ( #1042, 'UNSPECIFIED' ) ;
#1003 = CARTESIAN_POINT ( 'NONE',  ( -25.94999999999999900, 15.02999999999999000, 4.099999999999999600 ) ) ;
#1004 = CARTESIAN_POINT ( 'NONE',  ( 13.40000000000000000, -5.500000000000000900, 8.673617379884035500E-016 ) ) ;
#1005 = CYLINDRICAL_SURFACE ( 'NONE', #635, 2.250000000000000400 ) ;
#1006 = CARTESIAN_POINT ( 'NONE',  ( 25.94999999999999900, 4.830000000000000100, 4.099999999999999600 ) ) ;
#1007 = DIRECTION ( 'NONE',  ( -1.000000000000000000, 0.0000000000000000000, 0.0000000000000000000 ) ) ;
#1008 = ORIENTED_EDGE ( 'NONE', *, *, #776, .T. ) ;
#1009 = FACE_OUTER_BOUND ( 'NONE', #885, .T. ) ;
#1010 = EDGE_CURVE ( 'NONE', #254, #1027, #8, .T. ) ;
#1011 = VERTEX_POINT ( 'NONE', #547 ) ;
#1012 = DIRECTION ( 'NONE',  ( 1.000000000000000000, 8.986180168348326400E-016, 0.0000000000000000000 ) ) ;
#1013 = COORDINATED_UNIVERSAL_TIME_OFFSET ( 7, 0, .BEHIND. ) ;
#1014 = DIRECTION ( 'NONE',  ( 0.0000000000000000000, 1.000000000000000000, 0.0000000000000000000 ) ) ;
#1015 = CIRCLE ( 'NONE', #1179, 11.09999999999999800 ) ;
#1016 = DIRECTION ( 'NONE',  ( -0.0000000000000000000, -0.0000000000000000000, 1.000000000000000000 ) ) ;
#1017 = CARTESIAN_POINT ( 'NONE',  ( 25.94999999999999900, 16.22999999999999300, 2.899999999999991000 ) ) ;
#1018 = ORIENTED_EDGE ( 'NONE', *, *, #1090, .F. ) ;
#1019 = ORIENTED_EDGE ( 'NONE', *, *, #414, .F. ) ;
#1020 = DIRECTION ( 'NONE',  ( -0.0000000000000000000, -0.0000000000000000000, -1.000000000000000000 ) ) ;
#1021 = AXIS2_PLACEMENT_3D ( 'NONE', #828, #609, #919 ) ;
#1022 = DIRECTION ( 'NONE',  ( 1.000000000000000000, 0.0000000000000000000, 0.0000000000000000000 ) ) ;
#1023 = DIRECTION ( 'NONE',  ( 1.000000000000000000, 0.0000000000000000000, 0.0000000000000000000 ) ) ;
#1024 = FACE_OUTER_BOUND ( 'NONE', #394, .T. ) ;
#1025 = CARTESIAN_POINT ( 'NONE',  ( -34.00999999999999800, 3.314999999999999900, 3.200000000000000200 ) ) ;
#1026 = EDGE_CURVE ( 'NONE', #250, #1172, #864, .T. ) ;
#1027 = VERTEX_POINT ( 'NONE', #950 ) ;
#1028 = LINE ( 'NONE', #93, #294 ) ;
#1029 = CARTESIAN_POINT ( 'NONE',  ( -29.99000000000000200, 3.315000000000000400, 0.2999999999999999300 ) ) ;
#1030 = CONICAL_SURFACE ( 'NONE', #834, 4.700000000000001100, 0.7853981633974489500 ) ;
#1031 = DIRECTION ( 'NONE',  ( 0.0000000000000000000, 0.0000000000000000000, 1.000000000000000000 ) ) ;
#1032 = EDGE_LOOP ( 'NONE', ( #956, #839 ) ) ;
#1033 = ORIENTED_EDGE ( 'NONE', *, *, #975, .T. ) ;
#1034 = DIRECTION ( 'NONE',  ( -0.0000000000000000000, -0.0000000000000000000, 1.000000000000000000 ) ) ;
#1035 =( NAMED_UNIT ( * ) SI_UNIT ( $, .STERADIAN. ) SOLID_ANGLE_UNIT ( ) );
#1036 = EDGE_CURVE ( 'NONE', #1083, #24, #126, .T. ) ;
#1037 = DIRECTION ( 'NONE',  ( 1.000000000000000000, 0.0000000000000000000, 0.0000000000000000000 ) ) ;
#1038 = ORIENTED_EDGE ( 'NONE', *, *, #1026, .F. ) ;
#1039 = AXIS2_PLACEMENT_3D ( 'NONE', #813, #1020, #153 ) ;
#1040 = VECTOR ( 'NONE', #481, 1000.000000000000000 ) ;
#1041 = CARTESIAN_POINT ( 'NONE',  ( -37.34999999999999400, -3.200000000000000200, 0.2999999999999981600 ) ) ;
#1042 = APPROVAL_STATUS ( 'not_yet_approved' ) ;
#1043 = CARTESIAN_POINT ( 'NONE',  ( -25.94999999999999900, -3.200000000000000200, 0.2999999999999981600 ) ) ;
#1044 = VECTOR ( 'NONE', #125, 1000.000000000000000 ) ;
#1045 = EDGE_CURVE ( 'NONE', #984, #928, #879, .T. ) ;
#1046 = CARTESIAN_POINT ( 'NONE',  ( 13.40000000000000000, -5.500000000000000900, 4.099999999999999600 ) ) ;
#1047 = LINE ( 'NONE', #939, #199 ) ;
#1048 = DIRECTION ( 'NONE',  ( 0.0000000000000000000, 0.0000000000000000000, -1.000000000000000000 ) ) ;
#1049 = EDGE_LOOP ( 'NONE', ( #568, #356, #170, #433 ) ) ;
#1050 = AXIS2_PLACEMENT_3D ( 'NONE', #452, #563, #1055 ) ;
#1051 = DIRECTION ( 'NONE',  ( 0.7071067811865474600, 8.659560562354932900E-017, -0.7071067811865474600 ) ) ;
#1052 = AXIS2_PLACEMENT_3D ( 'NONE', #686, #1197, #516 ) ;
#1053 = VECTOR ( 'NONE', #763, 1000.000000000000000 ) ;
#1054 = DIRECTION ( 'NONE',  ( 1.000000000000000000, 0.0000000000000000000, 0.0000000000000000000 ) ) ;
#1055 = DIRECTION ( 'NONE',  ( 1.000000000000000000, 0.0000000000000000000, 0.0000000000000000000 ) ) ;
#1056 = EDGE_LOOP ( 'NONE', ( #404, #1061, #1019, #669 ) ) ;
#1057 = CALENDAR_DATE ( 2019, 18, 10 ) ;
#1058 = DIRECTION ( 'NONE',  ( 0.0000000000000000000, 1.000000000000000000, 0.0000000000000000000 ) ) ;
#1059 = EDGE_CURVE ( 'NONE', #201, #1159, #1237, .T. ) ;
#1060 = DATE_AND_TIME ( #320, #832 ) ;
#1061 = ORIENTED_EDGE ( 'NONE', *, *, #422, .T. ) ;
#1062 = DIRECTION ( 'NONE',  ( -0.0000000000000000000, -0.0000000000000000000, 1.000000000000000000 ) ) ;
#1063 = ORIENTED_EDGE ( 'NONE', *, *, #218, .T. ) ;
#1064 = FACE_BOUND ( 'NONE', #1133, .T. ) ;
#1065 = CARTESIAN_POINT ( 'NONE',  ( 11.15000000000000000, -5.500000000000000900, 8.673617379884035500E-016 ) ) ;
#1066 = AXIS2_PLACEMENT_3D ( 'NONE', #1119, #31, #604 ) ;
#1067 = CARTESIAN_POINT ( 'NONE',  ( -13.40000000000000000, -5.500000000000000000, 1.650000000000001700 ) ) ;
#1068 = AXIS2_PLACEMENT_3D ( 'NONE', #440, #835, #1131 ) ;
#1069 = VECTOR ( 'NONE', #338, 1000.000000000000000 ) ;
#1070 = ADVANCED_FACE ( 'NONE', ( #539 ), #432, .T. ) ;
#1071 = PLANE ( 'NONE',  #843 ) ;
#1072 = EDGE_LOOP ( 'NONE', ( #76, #862, #896, #1193 ) ) ;
#1073 = DATE_AND_TIME ( #463, #474 ) ;
#1074 = LINE ( 'NONE', #434, #108 ) ;
#1075 = EDGE_CURVE ( 'NONE', #129, #353, #446, .T. ) ;
#1076 = VECTOR ( 'NONE', #522, 1000.000000000000000 ) ;
#1077 = DIRECTION ( 'NONE',  ( 0.0000000000000000000, 0.0000000000000000000, 1.000000000000000000 ) ) ;
#1078 = ADVANCED_FACE ( 'NONE', ( #1205 ), #197, .F. ) ;
#1079 = ORIENTED_EDGE ( 'NONE', *, *, #705, .F. ) ;
#1080 = ADVANCED_FACE ( 'NONE', ( #510 ), #1248, .T. ) ;
#1081 = EDGE_CURVE ( 'NONE', #1107, #846, #398, .T. ) ;
#1082 = CIRCLE ( 'NONE', #1254, 2.309999999999999600 ) ;
#1083 = VERTEX_POINT ( 'NONE', #1253 ) ;
#1084 = AXIS2_PLACEMENT_3D ( 'NONE', #138, #1016, #330 ) ;
#1085 = VERTEX_POINT ( 'NONE', #960 ) ;
#1086 = DIRECTION ( 'NONE',  ( 1.000000000000000000, 0.0000000000000000000, 0.0000000000000000000 ) ) ;
#1087 = COORDINATED_UNIVERSAL_TIME_OFFSET ( 7, 0, .BEHIND. ) ;
#1088 = LINE ( 'NONE', #535, #322 ) ;
#1089 = ORIENTED_EDGE ( 'NONE', *, *, #991, .F. ) ;
#1090 = EDGE_CURVE ( 'NONE', #979, #984, #57, .T. ) ;
#1091 = CARTESIAN_POINT ( 'NONE',  ( -36.14999999999998400, 4.830000000000000100, 4.099999999999999600 ) ) ;
#1092 = ORIENTED_EDGE ( 'NONE', *, *, #698, .T. ) ;
#1093 = AXIS2_PLACEMENT_3D ( 'NONE', #1006, #47, #1111 ) ;
#1094 = CARTESIAN_POINT ( 'NONE',  ( 29.99000000000000200, 3.314999999999999900, 3.200000000000000200 ) ) ;
#1095 = ADVANCED_FACE ( 'NONE', ( #19 ), #476, .F. ) ;
#1096 = CLOSED_SHELL ( 'NONE', ( #498, #794, #785, #324, #881, #485, #1095, #312, #121, #689, #1070, #790, #781, #1198, #1274, #227, #517, #584, #106, #403, #899, #490, #590, #1176, #1078, #315, #677, #594, #134, #409, #696, #887, #1080, #1186, #215, #507, #703, #974, #305, #1192, #18, #396, #600, #416 ) ) ;
#1097 = CARTESIAN_POINT ( 'NONE',  ( 25.94999999999999900, 16.22999999999999700, 2.899999999999991000 ) ) ;
#1098 = DIRECTION ( 'NONE',  ( 1.000000000000000000, 0.0000000000000000000, 0.0000000000000000000 ) ) ;
#1099 = DIRECTION ( 'NONE',  ( 0.0000000000000000000, 0.0000000000000000000, -1.000000000000000000 ) ) ;
#1100 = EDGE_CURVE ( 'NONE', #647, #979, #171, .T. ) ;
#1101 = CIRCLE ( 'NONE', #770, 11.09999999999999800 ) ;
#1102 = AXIS2_PLACEMENT_3D ( 'NONE', #718, #245, #1211 ) ;
#1103 = DIRECTION ( 'NONE',  ( 1.000000000000000000, 0.0000000000000000000, 0.0000000000000000000 ) ) ;
#1104 = FACE_OUTER_BOUND ( 'NONE', #220, .T. ) ;
#1105 = ORIENTED_EDGE ( 'NONE', *, *, #961, .T. ) ;
#1106 = CARTESIAN_POINT ( 'NONE',  ( -37.34999999999999400, 4.830000000000000100, 2.899999999999991000 ) ) ;
#1107 = VERTEX_POINT ( 'NONE', #773 ) ;
#1108 = VECTOR ( 'NONE', #53, 999.9999999999998900 ) ;
#1109 = DIRECTION ( 'NONE',  ( 0.0000000000000000000, -0.0000000000000000000, 1.000000000000000000 ) ) ;
#1110 = ORIENTED_EDGE ( 'NONE', *, *, #232, .T. ) ;
#1111 = DIRECTION ( 'NONE',  ( -1.000000000000000000, 0.0000000000000000000, 0.0000000000000000000 ) ) ;
#1112 = CARTESIAN_POINT ( 'NONE',  ( -25.94999999999999900, 15.93000000000000000, 0.0000000000000000000 ) ) ;
#1113 = ORIENTED_EDGE ( 'NONE', *, *, #287, .T. ) ;
#1114 = ORIENTED_EDGE ( 'NONE', *, *, #349, .F. ) ;
#1115 = CARTESIAN_POINT ( 'NONE',  ( 13.40000000000000000, -5.500000000000000900, 4.099999999999999600 ) ) ;
#1116 = VERTEX_POINT ( 'NONE', #1261 ) ;
#1117 = AXIS2_PLACEMENT_3D ( 'NONE', #830, #550, #63 ) ;
#1118 = CARTESIAN_POINT ( 'NONE',  ( 25.94999999999999900, 16.22999999999999300, 0.2999999999999981600 ) ) ;
#1119 = CARTESIAN_POINT ( 'NONE',  ( -25.94999999999999900, 4.830000000000000100, 4.099999999999999600 ) ) ;
#1120 = FACE_BOUND ( 'NONE', #1032, .T. ) ;
#1121 = DIRECTION ( 'NONE',  ( 0.0000000000000000000, -1.000000000000000000, 0.0000000000000000000 ) ) ;
#1122 = CARTESIAN_POINT ( 'NONE',  ( 34.31000000000000200, 3.315000000000000400, 0.0000000000000000000 ) ) ;
#1123 = DIRECTION ( 'NONE',  ( -0.0000000000000000000, -0.0000000000000000000, -1.000000000000000000 ) ) ;
#1124 = ORIENTED_EDGE ( 'NONE', *, *, #808, .F. ) ;
#1125 = DIRECTION ( 'NONE',  ( 1.000000000000000000, 0.0000000000000000000, 0.0000000000000000000 ) ) ;
#1126 = DATE_AND_TIME ( #569, #35 ) ;
#1127 = CARTESIAN_POINT ( 'NONE',  ( -34.00999999999999800, 3.314999999999999900, 0.2999999999999999300 ) ) ;
#1128 = VERTEX_POINT ( 'NONE', #667 ) ;
#1129 = LINE ( 'NONE', #1268, #1174 ) ;
#1130 = VERTEX_POINT ( 'NONE', #1065 ) ;
#1131 = DIRECTION ( 'NONE',  ( 1.000000000000000000, 0.0000000000000000000, 0.0000000000000000000 ) ) ;
#1132 = EDGE_CURVE ( 'NONE', #846, #479, #1028, .T. ) ;
#1133 = EDGE_LOOP ( 'NONE', ( #1008, #386 ) ) ;
#1134 = ORIENTED_EDGE ( 'NONE', *, *, #1221, .F. ) ;
#1135 = DIRECTION ( 'NONE',  ( 1.000000000000000000, 0.0000000000000000000, 0.0000000000000000000 ) ) ;
#1136 = EDGE_CURVE ( 'NONE', #254, #1172, #861, .T. ) ;
#1137 = CARTESIAN_POINT ( 'NONE',  ( 36.14999999999998400, -3.199999999999998800, 4.099999999999999600 ) ) ;
#1138 = LINE ( 'NONE', #10, #100 ) ;
#1139 = VERTEX_POINT ( 'NONE', #659 ) ;
#1140 = CIRCLE ( 'NONE', #52, 2.009999999999998000 ) ;
#1141 = CARTESIAN_POINT ( 'NONE',  ( -37.34999999999999400, -3.200000000000000200, 0.2999999999999981600 ) ) ;
#1142 = VECTOR ( 'NONE', #1169, 1000.000000000000000 ) ;
#1143 =( GEOMETRIC_REPRESENTATION_CONTEXT ( 3 ) GLOBAL_UNCERTAINTY_ASSIGNED_CONTEXT ( ( #1250 ) ) GLOBAL_UNIT_ASSIGNED_CONTEXT ( ( #355, #533, #1035 ) ) REPRESENTATION_CONTEXT ( 'NONE', 'WORKASPACE' ) );
#1144 = PLANE ( 'NONE',  #954 ) ;
#1145 = LINE ( 'NONE', #449, #1108 ) ;
#1146 = CARTESIAN_POINT ( 'NONE',  ( 37.34999999999999400, -3.200000000000000200, 0.2999999999999981600 ) ) ;
#1147 = ORIENTED_EDGE ( 'NONE', *, *, #796, .F. ) ;
#1148 = VERTEX_POINT ( 'NONE', #576 ) ;
#1149 = DIRECTION ( 'NONE',  ( 0.0000000000000000000, -0.7071067811865476800, -0.7071067811865474600 ) ) ;
#1150 = EDGE_CURVE ( 'NONE', #1273, #1148, #1203, .T. ) ;
#1151 = CARTESIAN_POINT ( 'NONE',  ( 25.94999999999999900, -14.59999999999999600, 0.2999999999999981600 ) ) ;
#1152 = ORIENTED_EDGE ( 'NONE', *, *, #1036, .F. ) ;
#1153 = PLANE ( 'NONE',  #285 ) ;
#1154 = ORIENTED_EDGE ( 'NONE', *, *, #422, .F. ) ;
#1155 = CIRCLE ( 'NONE', #988, 2.009999999999998000 ) ;
#1156 = EDGE_CURVE ( 'NONE', #1130, #277, #1129, .T. ) ;
#1157 = DIRECTION ( 'NONE',  ( 1.000000000000000000, 0.0000000000000000000, 0.0000000000000000000 ) ) ;
#1158 = APPROVAL_PERSON_ORGANIZATION ( #157, #1002, #451 ) ;
#1159 = VERTEX_POINT ( 'NONE', #393 ) ;
#1160 = SHAPE_DEFINITION_REPRESENTATION ( #458, #253 ) ;
#1161 = ORIENTED_EDGE ( 'NONE', *, *, #352, .F. ) ;
#1162 = AXIS2_PLACEMENT_3D ( 'NONE', #1258, #662, #465 ) ;
#1163 = DIRECTION ( 'NONE',  ( -1.000000000000000000, 0.0000000000000000000, 0.0000000000000000000 ) ) ;
#1164 = DIRECTION ( 'NONE',  ( 0.0000000000000000000, 0.7071067811865474600, 0.7071067811865474600 ) ) ;
#1165 = ORIENTED_EDGE ( 'NONE', *, *, #515, .T. ) ;
#1166 = DIRECTION ( 'NONE',  ( -0.0000000000000000000, -0.0000000000000000000, -1.000000000000000000 ) ) ;
#1167 = EDGE_CURVE ( 'NONE', #24, #949, #190, .T. ) ;
#1168 = CARTESIAN_POINT ( 'NONE',  ( -13.40000000000000000, -5.500000000000000000, 8.673617379884035500E-016 ) ) ;
#1169 = DIRECTION ( 'NONE',  ( -0.0000000000000000000, -0.0000000000000000000, -1.000000000000000000 ) ) ;
#1170 = CYLINDRICAL_SURFACE ( 'NONE', #1066, 11.39999999999999300 ) ;
#1171 = PLANE ( 'NONE',  #923 ) ;
#1172 = VERTEX_POINT ( 'NONE', #1118 ) ;
#1173 = EDGE_CURVE ( 'NONE', #1011, #1128, #228, .T. ) ;
#1174 = VECTOR ( 'NONE', #302, 1000.000000000000000 ) ;
#1175 = CARTESIAN_POINT ( 'NONE',  ( -25.94999999999999900, 4.830000000000000100, 4.099999999999999600 ) ) ;
#1176 = ADVANCED_FACE ( 'NONE', ( #570 ), #213, .F. ) ;
#1177 = ORIENTED_EDGE ( 'NONE', *, *, #443, .T. ) ;
#1178 = FACE_OUTER_BOUND ( 'NONE', #128, .T. ) ;
#1179 = AXIS2_PLACEMENT_3D ( 'NONE', #619, #136, #1012 ) ;
#1180 = EDGE_LOOP ( 'NONE', ( #1154, #1216, #472, #712 ) ) ;
#1181 = CARTESIAN_POINT ( 'NONE',  ( -34.31000000000000200, 3.314999999999999900, 0.0000000000000000000 ) ) ;
#1182 = AXIS2_PLACEMENT_3D ( 'NONE', #759, #186, #562 ) ;
#1183 = FACE_OUTER_BOUND ( 'NONE', #816, .T. ) ;
#1184 = VECTOR ( 'NONE', #1123, 1000.000000000000000 ) ;
#1185 = CARTESIAN_POINT ( 'NONE',  ( -25.95000000000000300, -14.59999999999999400, 0.2999999999999981600 ) ) ;
#1186 = ADVANCED_FACE ( 'NONE', ( #660 ), #907, .T. ) ;
#1187 = ORIENTED_EDGE ( 'NONE', *, *, #944, .T. ) ;
#1188 = DIRECTION ( 'NONE',  ( 0.0000000000000000000, -0.7071067811865470200, 0.7071067811865480200 ) ) ;
#1189 = ORIENTED_EDGE ( 'NONE', *, *, #483, .T. ) ;
#1190 = AXIS2_PLACEMENT_3D ( 'NONE', #756, #560, #682 ) ;
#1191 = DIRECTION ( 'NONE',  ( 1.000000000000000000, 0.0000000000000000000, 0.0000000000000000000 ) ) ;
#1192 = ADVANCED_FACE ( 'NONE', ( #140 ), #464, .T. ) ;
#1193 = ORIENTED_EDGE ( 'NONE', *, *, #1100, .F. ) ;
#1194 = LINE ( 'NONE', #95, #1040 ) ;
#1195 = EDGE_CURVE ( 'NONE', #647, #821, #350, .T. ) ;
#1196 = LINE ( 'NONE', #812, #2 ) ;
#1197 = DIRECTION ( 'NONE',  ( 0.0000000000000000000, 0.0000000000000000000, -1.000000000000000000 ) ) ;
#1198 = ADVANCED_FACE ( 'NONE', ( #670 ), #230, .F. ) ;
#1199 = CONICAL_SURFACE ( 'NONE', #283, 2.009999999999998000, 0.7853981633974482800 ) ;
#1200 = EDGE_LOOP ( 'NONE', ( #650, #1124, #90, #1207 ) ) ;
#1201 = VECTOR ( 'NONE', #1188, 1000.000000000000000 ) ;
#1202 = DIRECTION ( 'NONE',  ( 0.0000000000000000000, 0.0000000000000000000, -1.000000000000000000 ) ) ;
#1203 = CIRCLE ( 'NONE', #826, 11.09999999999999800 ) ;
#1204 = ORIENTED_EDGE ( 'NONE', *, *, #969, .F. ) ;
#1205 = FACE_OUTER_BOUND ( 'NONE', #706, .T. ) ;
#1206 = ORIENTED_EDGE ( 'NONE', *, *, #1075, .F. ) ;
#1207 = ORIENTED_EDGE ( 'NONE', *, *, #232, .F. ) ;
#1208 = CARTESIAN_POINT ( 'NONE',  ( 25.94999999999999900, 16.22999999999999700, 2.899999999999991000 ) ) ;
#1209 = DIRECTION ( 'NONE',  ( -1.000000000000000000, 0.0000000000000000000, 0.0000000000000000000 ) ) ;
#1210 = CARTESIAN_POINT ( 'NONE',  ( -18.10000000000000100, -5.499999999999999100, 4.099999999999999600 ) ) ;
#1211 = DIRECTION ( 'NONE',  ( -1.000000000000000000, 0.0000000000000000000, 0.0000000000000000000 ) ) ;
#1212 = CARTESIAN_POINT ( 'NONE',  ( 0.0000000000000000000, 0.0000000000000000000, 0.0000000000000000000 ) ) ;
#1213 = PLANE ( 'NONE',  #567 ) ;
#1214 = CIRCLE ( 'NONE', #700, 11.39999999999999500 ) ;
#1215 = EDGE_CURVE ( 'NONE', #979, #526, #983, .T. ) ;
#1216 = ORIENTED_EDGE ( 'NONE', *, *, #680, .F. ) ;
#1217 = DIRECTION ( 'NONE',  ( 0.0000000000000000000, -0.7071067811865471300, 0.7071067811865479100 ) ) ;
#1218 = CIRCLE ( 'NONE', #1084, 2.250000000000000400 ) ;
#1219 = CARTESIAN_POINT ( 'NONE',  ( -18.10000000000000100, -5.499999999999999100, 4.099999999999999600 ) ) ;
#1220 = CARTESIAN_POINT ( 'NONE',  ( -37.04999999999999700, -3.200000000000000200, 0.0000000000000000000 ) ) ;
#1221 = EDGE_CURVE ( 'NONE', #538, #277, #1218, .T. ) ;
#1222 = DATE_TIME_ROLE ( 'creation_date' ) ;
#1223 = CARTESIAN_POINT ( 'NONE',  ( -25.94999999999999900, 15.02999999999998700, 4.099999999999999600 ) ) ;
#1224 = ORIENTED_EDGE ( 'NONE', *, *, #936, .T. ) ;
#1225 = FACE_BOUND ( 'NONE', #804, .T. ) ;
#1226 = CARTESIAN_POINT ( 'NONE',  ( 34.00999999999999800, 3.315000000000000400, 3.200000000000000200 ) ) ;
#1227 = VECTOR ( 'NONE', #150, 1000.000000000000100 ) ;
#1228 = CONICAL_SURFACE ( 'NONE', #502, 10.19999999999998700, 0.7853981633974482800 ) ;
#1229 = CARTESIAN_POINT ( 'NONE',  ( 11.15000000000000000, -5.500000000000000900, 1.650000000000001700 ) ) ;
#1230 = EDGE_CURVE ( 'NONE', #928, #259, #88, .T. ) ;
#1231 = FACE_OUTER_BOUND ( 'NONE', #1180, .T. ) ;
#1232 = ORIENTED_EDGE ( 'NONE', *, *, #663, .F. ) ;
#1233 = VERTEX_POINT ( 'NONE', #908 ) ;
#1234 = PERSON_AND_ORGANIZATION_ROLE ( 'design_supplier' ) ;
#1235 = LINE ( 'NONE', #236, #774 ) ;
#1236 = VERTEX_POINT ( 'NONE', #613 ) ;
#1237 = LINE ( 'NONE', #558, #707 ) ;
#1238 = VERTEX_POINT ( 'NONE', #30 ) ;
#1239 = VECTOR ( 'NONE', #45, 999.9999999999998900 ) ;
#1240 = VERTEX_POINT ( 'NONE', #1122 ) ;
#1241 = PERSON_AND_ORGANIZATION_ROLE ( 'design_owner' ) ;
#1242 = EDGE_CURVE ( 'NONE', #1238, #259, #1235, .T. ) ;
#1243 = DIRECTION ( 'NONE',  ( -0.0000000000000000000, -0.0000000000000000000, 1.000000000000000000 ) ) ;
#1244 = CARTESIAN_POINT ( 'NONE',  ( 25.94999999999999900, 4.830000000000000100, 0.2999999999999981600 ) ) ;
#1245 = VERTEX_POINT ( 'NONE', #1220 ) ;
#1246 = APPROVAL_PERSON_ORGANIZATION ( #242, #336, #542 ) ;
#1247 = AXIS2_PLACEMENT_3D ( 'NONE', #240, #428, #1022 ) ;
#1248 = PLANE ( 'NONE',  #274 ) ;
#1249 = ORIENTED_EDGE ( 'NONE', *, *, #377, .F. ) ;
#1250 = UNCERTAINTY_MEASURE_WITH_UNIT (LENGTH_MEASURE( 1.000000000000000100E-005 ), #355, 'distance_accuracy_value', 'NONE');
#1251 = EDGE_LOOP ( 'NONE', ( #940, #326, #831, #766 ) ) ;
#1252 = ORIENTED_EDGE ( 'NONE', *, *, #1276, .F. ) ;
#1253 = CARTESIAN_POINT ( 'NONE',  ( 25.94999999999999900, -14.59999999999999600, 0.2999999999999981600 ) ) ;
#1254 = AXIS2_PLACEMENT_3D ( 'NONE', #727, #1031, #1023 ) ;
#1255 = PLANE ( 'NONE',  #381 ) ;
#1256 = ORIENTED_EDGE ( 'NONE', *, *, #195, .F. ) ;
#1257 = AXIS2_PLACEMENT_3D ( 'NONE', #408, #16, #328 ) ;
#1258 = CARTESIAN_POINT ( 'NONE',  ( 25.94999999999999900, 4.830000000000000100, 4.099999999999999600 ) ) ;
#1259 = DIRECTION ( 'NONE',  ( 0.0000000000000000000, 0.0000000000000000000, -1.000000000000000000 ) ) ;
#1260 = LINE ( 'NONE', #202, #623 ) ;
#1261 = CARTESIAN_POINT ( 'NONE',  ( -37.04999999999999700, 4.830000000000000100, 0.0000000000000000000 ) ) ;
#1262 = DIRECTION ( 'NONE',  ( 1.000000000000000000, 0.0000000000000000000, 0.0000000000000000000 ) ) ;
#1263 = ORIENTED_EDGE ( 'NONE', *, *, #577, .F. ) ;
#1264 = PERSON_AND_ORGANIZATION ( #511, #894 ) ;
#1265 = EDGE_LOOP ( 'NONE', ( #1252, #209, #860, #1114 ) ) ;
#1266 = VECTOR ( 'NONE', #1209, 1000.000000000000000 ) ;
#1267 = ORIENTED_EDGE ( 'NONE', *, *, #4, .T. ) ;
#1268 = CARTESIAN_POINT ( 'NONE',  ( 11.15000000000000000, -5.500000000000000900, 4.099999999999999600 ) ) ;
#1269 = FACE_OUTER_BOUND ( 'NONE', #937, .T. ) ;
#1270 = ORIENTED_EDGE ( 'NONE', *, *, #1010, .T. ) ;
#1271 = CIRCLE ( 'NONE', #505, 10.19999999999998700 ) ;
#1272 = EDGE_CURVE ( 'NONE', #491, #989, #598, .T. ) ;
#1273 = VERTEX_POINT ( 'NONE', #337 ) ;
#1274 = ADVANCED_FACE ( 'NONE', ( #723 ), #691, .T. ) ;
#1275 = ORIENTED_EDGE ( 'NONE', *, *, #390, .F. ) ;
#1276 = EDGE_CURVE ( 'NONE', #846, #442, #264, .T. ) ;
#1277 = AXIS2_PLACEMENT_3D ( 'NONE', #296, #964, #457 ) ;
ENDSEC;
END-ISO-10303-21;
