ISO-10303-21;
HEADER;
FILE_DESCRIPTION (( 'STEP AP203' ),
    '1' );
FILE_NAME ('MN01.STEP',
    '2019-11-07T18:15:02',
    ( '' ),
    ( '' ),
    'SwSTEP 2.0',
    'SolidWorks 2017',
    '' );
FILE_SCHEMA (( 'CONFIG_CONTROL_DESIGN' ));
ENDSEC;

DATA;
#1 = DIRECTION ( 'NONE',  ( 0.0000000000000000000, 0.0000000000000000000, 1.000000000000000000 ) ) ;
#2 = ADVANCED_FACE ( 'NONE', ( #396 ), #14, .T. ) ;
#3 = CARTESIAN_POINT ( 'NONE',  ( -22.80000000000000100, 0.5500000000000000400, 0.0000000000000000000 ) ) ;
#4 = SECURITY_CLASSIFICATION_LEVEL ( 'unclassified' ) ;
#5 = VECTOR ( 'NONE', #394, 1000.000000000000000 ) ;
#6 = ORIENTED_EDGE ( 'NONE', *, *, #381, .T. ) ;
#7 = APPROVAL_ROLE ( '' ) ;
#8 = ORIENTED_EDGE ( 'NONE', *, *, #475, .F. ) ;
#9 = DIRECTION ( 'NONE',  ( 0.0000000000000000000, -1.000000000000000000, 0.0000000000000000000 ) ) ;
#10 = PERSON_AND_ORGANIZATION ( #356, #141 ) ;
#11 = VECTOR ( 'NONE', #297, 1000.000000000000000 ) ;
#12 = ORIENTED_EDGE ( 'NONE', *, *, #78, .F. ) ;
#13 = ORIENTED_EDGE ( 'NONE', *, *, #443, .F. ) ;
#14 = PLANE ( 'NONE',  #266 ) ;
#15 = DIRECTION ( 'NONE',  ( 0.0000000000000000000, 0.0000000000000000000, -1.000000000000000000 ) ) ;
#16 = DIRECTION ( 'NONE',  ( -0.0000000000000000000, -1.000000000000000000, -0.0000000000000000000 ) ) ;
#17 = ORIENTED_EDGE ( 'NONE', *, *, #71, .F. ) ;
#18 = ORIENTED_EDGE ( 'NONE', *, *, #223, .F. ) ;
#19 = DIRECTION ( 'NONE',  ( 0.0000000000000000000, 1.000000000000000000, 0.0000000000000000000 ) ) ;
#20 = DIRECTION ( 'NONE',  ( -1.000000000000000000, 0.0000000000000000000, -0.0000000000000000000 ) ) ;
#21 = DATE_AND_TIME ( #130, #245 ) ;
#22 = CARTESIAN_POINT ( 'NONE',  ( -14.49999999999999500, 0.0000000000000000000, -52.50000000000001400 ) ) ;
#23 = LINE ( 'NONE', #382, #48 ) ;
#24 = CARTESIAN_POINT ( 'NONE',  ( -15.00000000000000200, 0.5500000000000000400, -88.50000000000000000 ) ) ;
#25 = ORIENTED_EDGE ( 'NONE', *, *, #30, .T. ) ;
#26 =( GEOMETRIC_REPRESENTATION_CONTEXT ( 3 ) GLOBAL_UNCERTAINTY_ASSIGNED_CONTEXT ( ( #128 ) ) GLOBAL_UNIT_ASSIGNED_CONTEXT ( ( #162, #87, #444 ) ) REPRESENTATION_CONTEXT ( 'NONE', 'WORKASPACE' ) );
#27 = PERSON_AND_ORGANIZATION ( #356, #141 ) ;
#28 = ORIENTED_EDGE ( 'NONE', *, *, #71, .T. ) ;
#29 = CARTESIAN_POINT ( 'NONE',  ( -14.50000000000000000, 0.5500000000000000400, -89.00000000000001400 ) ) ;
#30 = EDGE_CURVE ( 'NONE', #265, #500, #62, .T. ) ;
#31 = DIRECTION ( 'NONE',  ( 0.0000000000000000000, -1.000000000000000000, 0.0000000000000000000 ) ) ;
#32 = VECTOR ( 'NONE', #314, 1000.000000000000000 ) ;
#33 = LINE ( 'NONE', #35, #194 ) ;
#34 = ORIENTED_EDGE ( 'NONE', *, *, #425, .F. ) ;
#35 = CARTESIAN_POINT ( 'NONE',  ( 22.80000000000000100, 0.5500000000000000400, 0.0000000000000000000 ) ) ;
#36 = EDGE_LOOP ( 'NONE', ( #249, #196, #433, #296 ) ) ;
#37 = ADVANCED_FACE ( 'NONE', ( #417 ), #391, .F. ) ;
#38 = APPROVAL_PERSON_ORGANIZATION ( #252, #332, #7 ) ;
#39 = DIRECTION ( 'NONE',  ( -0.0000000000000000000, -1.000000000000000000, -0.0000000000000000000 ) ) ;
#40 = PERSON_AND_ORGANIZATION_ROLE ( 'classification_officer' ) ;
#41 = EDGE_LOOP ( 'NONE', ( #305, #134, #412, #285 ) ) ;
#42 = CARTESIAN_POINT ( 'NONE',  ( 14.99999999999999600, 0.5500000000000000400, -52.50000000000001400 ) ) ;
#43 = PRODUCT_DEFINITION ( 'UNKNOWN', '', #442, #491 ) ;
#44 = PRODUCT_DEFINITION_SHAPE ( 'NONE', 'NONE',  #43 ) ;
#45 = APPROVAL_ROLE ( '' ) ;
#46 = DIRECTION ( 'NONE',  ( 1.445602896647339900E-016, 0.0000000000000000000, 1.000000000000000000 ) ) ;
#47 = COORDINATED_UNIVERSAL_TIME_OFFSET ( 7, 0, .BEHIND. ) ;
#48 = VECTOR ( 'NONE', #469, 1000.000000000000000 ) ;
#49 = APPLICATION_CONTEXT ( 'configuration controlled 3d designs of mechanical parts and assemblies' ) ;
#50 = VERTEX_POINT ( 'NONE', #482 ) ;
#51 = EDGE_CURVE ( 'NONE', #466, #254, #286, .T. ) ;
#52 = CC_DESIGN_PERSON_AND_ORGANIZATION_ASSIGNMENT ( #428, #324, ( #442 ) ) ;
#53 = DIRECTION ( 'NONE',  ( 0.0000000000000000000, 0.0000000000000000000, -1.000000000000000000 ) ) ;
#54 = CARTESIAN_POINT ( 'NONE',  ( -14.49999999999999500, 0.5500000000000000400, -52.50000000000001400 ) ) ;
#55 = CYLINDRICAL_SURFACE ( 'NONE', #183, 0.5000000000000004400 ) ;
#56 = CARTESIAN_POINT ( 'NONE',  ( 14.99999999999999600, 0.0000000000000000000, -52.50000000000001400 ) ) ;
#57 = ORIENTED_EDGE ( 'NONE', *, *, #449, .T. ) ;
#58 = ORIENTED_EDGE ( 'NONE', *, *, #374, .F. ) ;
#59 = DIRECTION ( 'NONE',  ( 0.0000000000000000000, 1.000000000000000000, 0.0000000000000000000 ) ) ;
#60 = DIRECTION ( 'NONE',  ( -1.000000000000000000, -0.0000000000000000000, -0.0000000000000000000 ) ) ;
#61 = VECTOR ( 'NONE', #434, 1000.000000000000000 ) ;
#62 = CIRCLE ( 'NONE', #136, 0.5000000000000143200 ) ;
#63 = EDGE_CURVE ( 'NONE', #151, #379, #186, .T. ) ;
#64 = VECTOR ( 'NONE', #322, 1000.000000000000000 ) ;
#65 = CIRCLE ( 'NONE', #77, 0.5000000000000004400 ) ;
#66 = CARTESIAN_POINT ( 'NONE',  ( -22.80000000000000100, 0.0000000000000000000, -101.8000000000000000 ) ) ;
#67 = VERTEX_POINT ( 'NONE', #404 ) ;
#68 = VECTOR ( 'NONE', #46, 1000.000000000000000 ) ;
#69 = CARTESIAN_POINT ( 'NONE',  ( 22.80000000000000100, 0.5500000000000000400, 0.0000000000000000000 ) ) ;
#70 = DIRECTION ( 'NONE',  ( -1.445602896647339900E-016, -0.0000000000000000000, -1.000000000000000000 ) ) ;
#71 = EDGE_CURVE ( 'NONE', #505, #117, #307, .T. ) ;
#72 = CARTESIAN_POINT ( 'NONE',  ( 0.0000000000000000000, 0.0000000000000000000, 0.0000000000000000000 ) ) ;
#73 = LINE ( 'NONE', #24, #288 ) ;
#74 = ORIENTED_EDGE ( 'NONE', *, *, #105, .F. ) ;
#75 = DIRECTION ( 'NONE',  ( 0.0000000000000000000, 1.000000000000000000, 0.0000000000000000000 ) ) ;
#76 = VERTEX_POINT ( 'NONE', #251 ) ;
#77 = AXIS2_PLACEMENT_3D ( 'NONE', #267, #59, #510 ) ;
#78 = EDGE_CURVE ( 'NONE', #379, #76, #343, .T. ) ;
#79 = ADVANCED_FACE ( 'NONE', ( #262 ), #55, .F. ) ;
#80 = CARTESIAN_POINT ( 'NONE',  ( -14.50000000000000000, 0.0000000000000000000, -88.50000000000000000 ) ) ;
#81 = DIRECTION ( 'NONE',  ( 0.0000000000000000000, 0.0000000000000000000, 1.000000000000000000 ) ) ;
#82 = CYLINDRICAL_SURFACE ( 'NONE', #215, 0.5000000000000143200 ) ;
#83 = DIRECTION ( 'NONE',  ( 0.0000000000000000000, 0.0000000000000000000, 1.000000000000000000 ) ) ;
#84 = APPROVAL_STATUS ( 'not_yet_approved' ) ;
#85 = VERTEX_POINT ( 'NONE', #56 ) ;
#86 = EDGE_CURVE ( 'NONE', #352, #172, #132, .T. ) ;
#87 =( NAMED_UNIT ( * ) PLANE_ANGLE_UNIT ( ) SI_UNIT ( $, .RADIAN. ) );
#88 = ADVANCED_FACE ( 'NONE', ( #208 ), #378, .T. ) ;
#89 = CARTESIAN_POINT ( 'NONE',  ( -14.50000000000000000, 0.5500000000000000400, -89.00000000000002800 ) ) ;
#90 = VECTOR ( 'NONE', #115, 1000.000000000000000 ) ;
#91 = ORIENTED_EDGE ( 'NONE', *, *, #86, .T. ) ;
#92 = CARTESIAN_POINT ( 'NONE',  ( -14.50000000000000000, 0.5500000000000000400, -88.50000000000000000 ) ) ;
#93 = ORIENTED_EDGE ( 'NONE', *, *, #425, .T. ) ;
#94 = CC_DESIGN_PERSON_AND_ORGANIZATION_ASSIGNMENT ( #27, #403, ( #43 ) ) ;
#95 = CARTESIAN_POINT ( 'NONE',  ( 22.80000000000000100, 0.0000000000000000000, -101.8000000000000000 ) ) ;
#96 = AXIS2_PLACEMENT_3D ( 'NONE', #137, #413, #447 ) ;
#97 = VECTOR ( 'NONE', #263, 1000.000000000000000 ) ;
#98 = VERTEX_POINT ( 'NONE', #95 ) ;
#99 = DIRECTION ( 'NONE',  ( -1.000000000000000000, 0.0000000000000000000, -0.0000000000000000000 ) ) ;
#100 = ORIENTED_EDGE ( 'NONE', *, *, #430, .T. ) ;
#101 = DIRECTION ( 'NONE',  ( 0.0000000000000000000, 0.0000000000000000000, -1.000000000000000000 ) ) ;
#102 = COORDINATED_UNIVERSAL_TIME_OFFSET ( 7, 0, .BEHIND. ) ;
#103 = VECTOR ( 'NONE', #156, 1000.000000000000000 ) ;
#104 = CARTESIAN_POINT ( 'NONE',  ( -22.80000000000000100, 0.0000000000000000000, -101.8000000000000000 ) ) ;
#105 = EDGE_CURVE ( 'NONE', #513, #239, #350, .T. ) ;
#106 = ORIENTED_EDGE ( 'NONE', *, *, #232, .T. ) ;
#107 = EDGE_LOOP ( 'NONE', ( #227, #195, #91, #488 ) ) ;
#108 = AXIS2_PLACEMENT_3D ( 'NONE', #3, #275, #479 ) ;
#109 = LINE ( 'NONE', #165, #462 ) ;
#110 = ORIENTED_EDGE ( 'NONE', *, *, #282, .T. ) ;
#111 = ORIENTED_EDGE ( 'NONE', *, *, #389, .F. ) ;
#112 = CARTESIAN_POINT ( 'NONE',  ( 14.49999999999998800, 0.5500000000000000400, -88.50000000000000000 ) ) ;
#113 = CALENDAR_DATE ( 2019, 7, 11 ) ;
#114 = FACE_OUTER_BOUND ( 'NONE', #501, .T. ) ;
#115 = DIRECTION ( 'NONE',  ( -0.0000000000000000000, -1.000000000000000000, -0.0000000000000000000 ) ) ;
#116 = ORIENTED_EDGE ( 'NONE', *, *, #478, .F. ) ;
#117 = VERTEX_POINT ( 'NONE', #256 ) ;
#118 = CARTESIAN_POINT ( 'NONE',  ( -22.80000000000000100, 0.0000000000000000000, 0.0000000000000000000 ) ) ;
#119 = PERSON_AND_ORGANIZATION_ROLE ( 'design_supplier' ) ;
#120 = CARTESIAN_POINT ( 'NONE',  ( 0.0000000000000000000, 0.5500000000000000400, 0.0000000000000000000 ) ) ;
#121 = ADVANCED_FACE ( 'NONE', ( #330 ), #144, .F. ) ;
#122 = DIRECTION ( 'NONE',  ( 0.0000000000000000000, 0.0000000000000000000, -1.000000000000000000 ) ) ;
#123 = APPROVAL_DATE_TIME ( #229, #332 ) ;
#124 = DIRECTION ( 'NONE',  ( 0.0000000000000000000, 0.0000000000000000000, -1.000000000000000000 ) ) ;
#125 = EDGE_LOOP ( 'NONE', ( #347, #323, #250, #420, #421, #331, #504, #457 ) ) ;
#126 = AXIS2_PLACEMENT_3D ( 'NONE', #496, #255, #15 ) ;
#127 = CARTESIAN_POINT ( 'NONE',  ( -22.80000000000000100, 0.5500000000000000400, -101.8000000000000000 ) ) ;
#128 = UNCERTAINTY_MEASURE_WITH_UNIT (LENGTH_MEASURE( 1.000000000000000100E-005 ), #162, 'distance_accuracy_value', 'NONE');
#129 = APPROVAL_STATUS ( 'not_yet_approved' ) ;
#130 = CALENDAR_DATE ( 2019, 7, 11 ) ;
#131 = CARTESIAN_POINT ( 'NONE',  ( -22.80000000000000100, 0.0000000000000000000, 0.0000000000000000000 ) ) ;
#132 = CIRCLE ( 'NONE', #126, 0.5000000000000143200 ) ;
#133 = DIRECTION ( 'NONE',  ( 0.0000000000000000000, 0.0000000000000000000, 1.000000000000000000 ) ) ;
#134 = ORIENTED_EDGE ( 'NONE', *, *, #430, .F. ) ;
#135 = ORIENTED_EDGE ( 'NONE', *, *, #478, .T. ) ;
#136 = AXIS2_PLACEMENT_3D ( 'NONE', #92, #177, #83 ) ;
#137 = CARTESIAN_POINT ( 'NONE',  ( 14.49999999999999500, 0.5500000000000000400, -52.50000000000001400 ) ) ;
#138 = AXIS2_PLACEMENT_3D ( 'NONE', #360, #75, #81 ) ;
#139 = DIRECTION ( 'NONE',  ( -0.0000000000000000000, -1.000000000000000000, -0.0000000000000000000 ) ) ;
#140 = EDGE_CURVE ( 'NONE', #230, #67, #269, .T. ) ;
#141 = ORGANIZATION ( 'UNSPECIFIED', 'UNSPECIFIED', '' ) ;
#142 = CARTESIAN_POINT ( 'NONE',  ( 14.49999999999998800, 0.0000000000000000000, -88.50000000000000000 ) ) ;
#143 = CARTESIAN_POINT ( 'NONE',  ( 14.49999999999998800, 0.5500000000000000400, -89.00000000000002800 ) ) ;
#144 = PLANE ( 'NONE',  #257 ) ;
#145 = AXIS2_PLACEMENT_3D ( 'NONE', #473, #242, #240 ) ;
#146 = LINE ( 'NONE', #317, #64 ) ;
#147 = CARTESIAN_POINT ( 'NONE',  ( -14.49999999999999500, 0.5500000000000000400, -52.00000000000001400 ) ) ;
#148 = EDGE_CURVE ( 'NONE', #117, #513, #247, .T. ) ;
#149 = VECTOR ( 'NONE', #373, 1000.000000000000000 ) ;
#150 = ORIENTED_EDGE ( 'NONE', *, *, #452, .F. ) ;
#151 = VERTEX_POINT ( 'NONE', #375 ) ;
#152 = DIRECTION ( 'NONE',  ( 0.0000000000000000000, 0.0000000000000000000, 1.000000000000000000 ) ) ;
#153 = APPROVAL_PERSON_ORGANIZATION ( #224, #291, #511 ) ;
#154 = EDGE_LOOP ( 'NONE', ( #135, #290, #385, #460 ) ) ;
#155 = AXIS2_PLACEMENT_3D ( 'NONE', #414, #182, #258 ) ;
#156 = DIRECTION ( 'NONE',  ( 1.000000000000000000, 0.0000000000000000000, 0.0000000000000000000 ) ) ;
#157 = DATE_AND_TIME ( #113, #169 ) ;
#158 = VECTOR ( 'NONE', #60, 1000.000000000000000 ) ;
#159 = ORIENTED_EDGE ( 'NONE', *, *, #449, .F. ) ;
#160 = CARTESIAN_POINT ( 'NONE',  ( 22.80000000000000100, 0.5500000000000000400, -101.8000000000000000 ) ) ;
#161 = PRODUCT ( 'MN01', 'MN01', '', ( #366 ) ) ;
#162 =( LENGTH_UNIT ( ) NAMED_UNIT ( * ) SI_UNIT ( .MILLI., .METRE. ) );
#163 = ADVANCED_FACE ( 'NONE', ( #178 ), #455, .T. ) ;
#164 = FACE_OUTER_BOUND ( 'NONE', #411, .T. ) ;
#165 = CARTESIAN_POINT ( 'NONE',  ( 22.80000000000000100, 0.0000000000000000000, 0.0000000000000000000 ) ) ;
#166 = CC_DESIGN_PERSON_AND_ORGANIZATION_ASSIGNMENT ( #319, #246, ( #161 ) ) ;
#167 = CARTESIAN_POINT ( 'NONE',  ( -14.50000000000000000, 0.0000000000000000000, -89.00000000000002800 ) ) ;
#168 = DIRECTION ( 'NONE',  ( -0.0000000000000000000, -1.000000000000000000, -0.0000000000000000000 ) ) ;
#169 = LOCAL_TIME ( 11, 15, 2.000000000000000000, #268 ) ;
#170 = LINE ( 'NONE', #299, #90 ) ;
#171 = DIRECTION ( 'NONE',  ( 0.0000000000000000000, 0.0000000000000000000, 1.000000000000000000 ) ) ;
#172 = VERTEX_POINT ( 'NONE', #143 ) ;
#173 = CC_DESIGN_APPROVAL ( #318, ( #43 ) ) ;
#174 = EDGE_LOOP ( 'NONE', ( #438, #190, #210, #57 ) ) ;
#175 = EDGE_CURVE ( 'NONE', #76, #239, #370, .T. ) ;
#176 = APPLICATION_PROTOCOL_DEFINITION ( 'international standard', 'config_control_design', 1994, #405 ) ;
#177 = DIRECTION ( 'NONE',  ( 0.0000000000000000000, 1.000000000000000000, 0.0000000000000000000 ) ) ;
#178 = FACE_OUTER_BOUND ( 'NONE', #36, .T. ) ;
#179 = EDGE_LOOP ( 'NONE', ( #484, #426, #116, #58 ) ) ;
#180 = DIRECTION ( 'NONE',  ( 0.0000000000000000000, 0.0000000000000000000, 1.000000000000000000 ) ) ;
#181 = CC_DESIGN_DATE_AND_TIME_ASSIGNMENT ( #359, #470, ( #300 ) ) ;
#182 = DIRECTION ( 'NONE',  ( 1.000000000000000000, 0.0000000000000000000, -1.445602896647339900E-016 ) ) ;
#183 = AXIS2_PLACEMENT_3D ( 'NONE', #54, #16, #53 ) ;
#184 = LINE ( 'NONE', #205, #485 ) ;
#185 = CARTESIAN_POINT ( 'NONE',  ( 14.49999999999998800, 0.5500000000000000400, -89.00000000000002800 ) ) ;
#186 = LINE ( 'NONE', #363, #68 ) ;
#187 = CARTESIAN_POINT ( 'NONE',  ( -22.80000000000000100, 0.5500000000000000400, 0.0000000000000000000 ) ) ;
#188 = AXIS2_PLACEMENT_3D ( 'NONE', #22, #19, #489 ) ;
#189 = LINE ( 'NONE', #351, #419 ) ;
#190 = ORIENTED_EDGE ( 'NONE', *, *, #338, .F. ) ;
#191 = ORIENTED_EDGE ( 'NONE', *, *, #86, .F. ) ;
#192 = AXIS2_PLACEMENT_3D ( 'NONE', #112, #427, #507 ) ;
#193 = PERSON_AND_ORGANIZATION ( #356, #141 ) ;
#194 = VECTOR ( 'NONE', #237, 1000.000000000000000 ) ;
#195 = ORIENTED_EDGE ( 'NONE', *, *, #422, .F. ) ;
#196 = ORIENTED_EDGE ( 'NONE', *, *, #216, .F. ) ;
#197 = EDGE_CURVE ( 'NONE', #172, #67, #493, .T. ) ;
#198 = CARTESIAN_POINT ( 'NONE',  ( 14.99999999999999600, 0.5500000000000000400, -52.50000000000001400 ) ) ;
#199 = FACE_OUTER_BOUND ( 'NONE', #107, .T. ) ;
#200 = ORIENTED_EDGE ( 'NONE', *, *, #148, .F. ) ;
#201 = DIRECTION ( 'NONE',  ( -0.0000000000000000000, -1.000000000000000000, -0.0000000000000000000 ) ) ;
#202 = ORIENTED_EDGE ( 'NONE', *, *, #463, .F. ) ;
#203 = ADVANCED_FACE ( 'NONE', ( #312 ), #261, .F. ) ;
#204 = PLANE ( 'NONE',  #108 ) ;
#205 = CARTESIAN_POINT ( 'NONE',  ( 15.00000000000000400, 0.5500000000000000400, -88.50000000000000000 ) ) ;
#206 = VECTOR ( 'NONE', #279, 1000.000000000000000 ) ;
#207 = DIRECTION ( 'NONE',  ( 0.0000000000000000000, 1.000000000000000000, 0.0000000000000000000 ) ) ;
#208 = FACE_OUTER_BOUND ( 'NONE', #220, .T. ) ;
#209 = AXIS2_PLACEMENT_3D ( 'NONE', #142, #339, #101 ) ;
#210 = ORIENTED_EDGE ( 'NONE', *, *, #381, .F. ) ;
#211 = VECTOR ( 'NONE', #326, 1000.000000000000000 ) ;
#212 = LINE ( 'NONE', #355, #464 ) ;
#213 = EDGE_LOOP ( 'NONE', ( #497, #13, #260, #353 ) ) ;
#214 = ORIENTED_EDGE ( 'NONE', *, *, #298, .F. ) ;
#215 = AXIS2_PLACEMENT_3D ( 'NONE', #280, #168, #122 ) ;
#216 = EDGE_CURVE ( 'NONE', #117, #76, #23, .T. ) ;
#217 = LINE ( 'NONE', #167, #32 ) ;
#218 = CARTESIAN_POINT ( 'NONE',  ( -14.49999999999999500, 0.5500000000000000400, -52.00000000000001400 ) ) ;
#219 = DIRECTION ( 'NONE',  ( 0.0000000000000000000, 1.000000000000000000, 0.0000000000000000000 ) ) ;
#220 = EDGE_LOOP ( 'NONE', ( #270, #214, #110, #93 ) ) ;
#221 = AXIS2_PLACEMENT_3D ( 'NONE', #120, #9, #361 ) ;
#222 = DIRECTION ( 'NONE',  ( 0.0000000000000000000, 0.0000000000000000000, -1.000000000000000000 ) ) ;
#223 = EDGE_CURVE ( 'NONE', #315, #50, #499, .T. ) ;
#224 = PERSON_AND_ORGANIZATION ( #356, #141 ) ;
#225 = LINE ( 'NONE', #234, #274 ) ;
#226 = PLANE ( 'NONE',  #273 ) ;
#227 = ORIENTED_EDGE ( 'NONE', *, *, #140, .F. ) ;
#228 = ORIENTED_EDGE ( 'NONE', *, *, #298, .T. ) ;
#229 = DATE_AND_TIME ( #334, #345 ) ;
#230 = VERTEX_POINT ( 'NONE', #468 ) ;
#231 = CC_DESIGN_APPROVAL ( #332, ( #300 ) ) ;
#232 = EDGE_CURVE ( 'NONE', #172, #265, #225, .T. ) ;
#233 = DIRECTION ( 'NONE',  ( -0.0000000000000000000, -1.000000000000000000, -0.0000000000000000000 ) ) ;
#234 = CARTESIAN_POINT ( 'NONE',  ( -14.50000000000000000, 0.5500000000000000400, -89.00000000000002800 ) ) ;
#235 = APPROVAL_DATE_TIME ( #376, #318 ) ;
#236 = LINE ( 'NONE', #187, #61 ) ;
#237 = DIRECTION ( 'NONE',  ( 0.0000000000000000000, 0.0000000000000000000, -1.000000000000000000 ) ) ;
#238 = ORIENTED_EDGE ( 'NONE', *, *, #232, .F. ) ;
#239 = VERTEX_POINT ( 'NONE', #380 ) ;
#240 = DIRECTION ( 'NONE',  ( 1.445602896647339900E-016, 0.0000000000000000000, 1.000000000000000000 ) ) ;
#241 = ADVANCED_FACE ( 'NONE', ( #114 ), #226, .F. ) ;
#242 = DIRECTION ( 'NONE',  ( -1.000000000000000000, 0.0000000000000000000, 1.445602896647339900E-016 ) ) ;
#243 = ORIENTED_EDGE ( 'NONE', *, *, #365, .T. ) ;
#244 = CARTESIAN_POINT ( 'NONE',  ( -14.50000000000000000, 0.0000000000000000000, -89.00000000000001400 ) ) ;
#245 = LOCAL_TIME ( 11, 15, 2.000000000000000000, #47 ) ;
#246 = PERSON_AND_ORGANIZATION_ROLE ( 'design_owner' ) ;
#247 = LINE ( 'NONE', #147, #11 ) ;
#248 = EDGE_CURVE ( 'NONE', #254, #315, #33, .T. ) ;
#249 = ORIENTED_EDGE ( 'NONE', *, *, #175, .F. ) ;
#250 = ORIENTED_EDGE ( 'NONE', *, *, #329, .T. ) ;
#251 = CARTESIAN_POINT ( 'NONE',  ( -14.49999999999999500, 0.0000000000000000000, -52.00000000000001400 ) ) ;
#252 = PERSON_AND_ORGANIZATION ( #356, #141 ) ;
#253 = CARTESIAN_POINT ( 'NONE',  ( -14.49999999999999500, 0.0000000000000000000, -52.00000000000001400 ) ) ;
#254 = VERTEX_POINT ( 'NONE', #69 ) ;
#255 = DIRECTION ( 'NONE',  ( 0.0000000000000000000, 1.000000000000000000, -0.0000000000000000000 ) ) ;
#256 = CARTESIAN_POINT ( 'NONE',  ( -14.49999999999999500, 0.5500000000000000400, -52.00000000000001400 ) ) ;
#257 = AXIS2_PLACEMENT_3D ( 'NONE', #418, #292, #99 ) ;
#258 = DIRECTION ( 'NONE',  ( -1.445602896647339900E-016, 0.0000000000000000000, -1.000000000000000000 ) ) ;
#259 = LINE ( 'NONE', #390, #103 ) ;
#260 = ORIENTED_EDGE ( 'NONE', *, *, #51, .F. ) ;
#261 = PLANE ( 'NONE',  #372 ) ;
#262 = FACE_OUTER_BOUND ( 'NONE', #395, .T. ) ;
#263 = DIRECTION ( 'NONE',  ( -1.000000000000000000, -0.0000000000000000000, -0.0000000000000000000 ) ) ;
#264 = VECTOR ( 'NONE', #440, 1000.000000000000000 ) ;
#265 = VERTEX_POINT ( 'NONE', #29 ) ;
#266 = AXIS2_PLACEMENT_3D ( 'NONE', #89, #133, #407 ) ;
#267 = CARTESIAN_POINT ( 'NONE',  ( 14.49999999999999500, 0.0000000000000000000, -52.50000000000001400 ) ) ;
#268 = COORDINATED_UNIVERSAL_TIME_OFFSET ( 7, 0, .BEHIND. ) ;
#269 = CIRCLE ( 'NONE', #209, 0.5000000000000143200 ) ;
#270 = ORIENTED_EDGE ( 'NONE', *, *, #63, .F. ) ;
#271 = DIRECTION ( 'NONE',  ( -0.0000000000000000000, -1.000000000000000000, -0.0000000000000000000 ) ) ;
#272 = CARTESIAN_POINT ( 'NONE',  ( 15.00000000000000400, 0.5500000000000000400, -88.50000000000000000 ) ) ;
#273 = AXIS2_PLACEMENT_3D ( 'NONE', #498, #152, #432 ) ;
#274 = VECTOR ( 'NONE', #342, 1000.000000000000000 ) ;
#275 = DIRECTION ( 'NONE',  ( 1.000000000000000000, -0.0000000000000000000, 0.0000000000000000000 ) ) ;
#276 = ORIENTED_EDGE ( 'NONE', *, *, #354, .T. ) ;
#277 = ORIENTED_EDGE ( 'NONE', *, *, #346, .F. ) ;
#278 = ADVANCED_FACE ( 'NONE', ( #445, #454 ), #465, .T. ) ;
#279 = DIRECTION ( 'NONE',  ( -0.0000000000000000000, -1.000000000000000000, -0.0000000000000000000 ) ) ;
#280 = CARTESIAN_POINT ( 'NONE',  ( -14.50000000000000000, 0.5500000000000000400, -88.50000000000000000 ) ) ;
#281 = CALENDAR_DATE ( 2019, 7, 11 ) ;
#282 = EDGE_CURVE ( 'NONE', #500, #505, #189, .T. ) ;
#283 = LINE ( 'NONE', #461, #341 ) ;
#284 = CARTESIAN_POINT ( 'NONE',  ( -15.00000000000000200, 0.5500000000000000400, -88.50000000000000000 ) ) ;
#285 = ORIENTED_EDGE ( 'NONE', *, *, #422, .T. ) ;
#286 = LINE ( 'NONE', #441, #211 ) ;
#287 = DIRECTION ( 'NONE',  ( 1.000000000000000000, 0.0000000000000000000, 0.0000000000000000000 ) ) ;
#288 = VECTOR ( 'NONE', #271, 1000.000000000000000 ) ;
#289 = VERTEX_POINT ( 'NONE', #198 ) ;
#290 = ORIENTED_EDGE ( 'NONE', *, *, #354, .F. ) ;
#291 = APPROVAL ( #84, 'UNSPECIFIED' ) ;
#292 = DIRECTION ( 'NONE',  ( 0.0000000000000000000, 0.0000000000000000000, -1.000000000000000000 ) ) ;
#293 = FACE_OUTER_BOUND ( 'NONE', #494, .T. ) ;
#294 = VECTOR ( 'NONE', #139, 1000.000000000000000 ) ;
#295 = DIRECTION ( 'NONE',  ( 0.0000000000000000000, 0.0000000000000000000, 1.000000000000000000 ) ) ;
#296 = ORIENTED_EDGE ( 'NONE', *, *, #105, .T. ) ;
#297 = DIRECTION ( 'NONE',  ( 1.000000000000000000, 0.0000000000000000000, 0.0000000000000000000 ) ) ;
#298 = EDGE_CURVE ( 'NONE', #500, #151, #73, .T. ) ;
#299 = CARTESIAN_POINT ( 'NONE',  ( -14.50000000000000000, 0.5500000000000000400, -89.00000000000001400 ) ) ;
#300 = SECURITY_CLASSIFICATION ( '', '', #4 ) ;
#301 = ORIENTED_EDGE ( 'NONE', *, *, #216, .T. ) ;
#302 = EDGE_LOOP ( 'NONE', ( #202, #200, #17, #402, #474, #238, #191, #150 ) ) ;
#303 = CIRCLE ( 'NONE', #138, 0.5000000000000004400 ) ;
#304 = LINE ( 'NONE', #127, #206 ) ;
#305 = ORIENTED_EDGE ( 'NONE', *, *, #329, .F. ) ;
#306 = AXIS2_PLACEMENT_3D ( 'NONE', #72, #171, #287 ) ;
#307 = CIRCLE ( 'NONE', #408, 0.5000000000000004400 ) ;
#308 = EDGE_CURVE ( 'NONE', #98, #321, #367, .T. ) ;
#309 = DIRECTION ( 'NONE',  ( 0.0000000000000000000, -0.0000000000000000000, -1.000000000000000000 ) ) ;
#310 = CARTESIAN_POINT ( 'NONE',  ( 14.99999999999999100, 0.0000000000000000000, -88.50000000000000000 ) ) ;
#311 = PERSON_AND_ORGANIZATION ( #356, #141 ) ;
#312 = FACE_OUTER_BOUND ( 'NONE', #154, .T. ) ;
#313 = ORIENTED_EDGE ( 'NONE', *, *, #223, .T. ) ;
#314 = DIRECTION ( 'NONE',  ( -1.000000000000000000, -0.0000000000000000000, -0.0000000000000000000 ) ) ;
#315 = VERTEX_POINT ( 'NONE', #160 ) ;
#316 = ADVANCED_FACE ( 'NONE', ( #199 ), #503, .F. ) ;
#317 = CARTESIAN_POINT ( 'NONE',  ( 14.99999999999999100, 0.5500000000000000400, -88.50000000000000000 ) ) ;
#318 = APPROVAL ( #129, 'UNSPECIFIED' ) ;
#319 = PERSON_AND_ORGANIZATION ( #356, #141 ) ;
#320 = CARTESIAN_POINT ( 'NONE',  ( -22.80000000000000100, 0.5500000000000000400, 0.0000000000000000000 ) ) ;
#321 = VERTEX_POINT ( 'NONE', #104 ) ;
#322 = DIRECTION ( 'NONE',  ( -1.445602896647339900E-016, -0.0000000000000000000, -1.000000000000000000 ) ) ;
#323 = ORIENTED_EDGE ( 'NONE', *, *, #346, .T. ) ;
#324 = PERSON_AND_ORGANIZATION_ROLE ( 'creator' ) ;
#325 = DATE_TIME_ROLE ( 'creation_date' ) ;
#326 = DIRECTION ( 'NONE',  ( 1.000000000000000000, 0.0000000000000000000, 0.0000000000000000000 ) ) ;
#327 = ADVANCED_BREP_SHAPE_REPRESENTATION ( 'MN01', ( #410, #306 ), #26 ) ;
#328 = COORDINATED_UNIVERSAL_TIME_OFFSET ( 7, 0, .BEHIND. ) ;
#329 = EDGE_CURVE ( 'NONE', #85, #230, #429, .T. ) ;
#330 = FACE_OUTER_BOUND ( 'NONE', #213, .T. ) ;
#331 = ORIENTED_EDGE ( 'NONE', *, *, #389, .T. ) ;
#332 = APPROVAL ( #477, 'UNSPECIFIED' ) ;
#333 = CARTESIAN_POINT ( 'NONE',  ( 22.80000000000000100, 0.5500000000000000400, 0.0000000000000000000 ) ) ;
#334 = CALENDAR_DATE ( 2019, 7, 11 ) ;
#335 = ORIENTED_EDGE ( 'NONE', *, *, #463, .T. ) ;
#336 = CC_DESIGN_APPROVAL ( #291, ( #442 ) ) ;
#337 = CARTESIAN_POINT ( 'NONE',  ( 14.49999999999999500, 0.5500000000000000400, -52.00000000000001400 ) ) ;
#338 = EDGE_CURVE ( 'NONE', #466, #512, #212, .T. ) ;
#339 = DIRECTION ( 'NONE',  ( 0.0000000000000000000, 1.000000000000000000, -0.0000000000000000000 ) ) ;
#340 = APPROVAL_PERSON_ORGANIZATION ( #193, #318, #45 ) ;
#341 = VECTOR ( 'NONE', #233, 1000.000000000000000 ) ;
#342 = DIRECTION ( 'NONE',  ( -1.000000000000000000, -0.0000000000000000000, -0.0000000000000000000 ) ) ;
#343 = CIRCLE ( 'NONE', #188, 0.5000000000000004400 ) ;
#344 = CARTESIAN_POINT ( 'NONE',  ( -14.99999999999999600, 0.0000000000000000000, -52.50000000000001400 ) ) ;
#345 = LOCAL_TIME ( 11, 15, 2.000000000000000000, #448 ) ;
#346 = EDGE_CURVE ( 'NONE', #239, #85, #65, .T. ) ;
#347 = ORIENTED_EDGE ( 'NONE', *, *, #175, .T. ) ;
#348 = DIRECTION ( 'NONE',  ( -0.0000000000000000000, -1.000000000000000000, -0.0000000000000000000 ) ) ;
#349 = SHAPE_DEFINITION_REPRESENTATION ( #44, #327 ) ;
#350 = LINE ( 'NONE', #337, #509 ) ;
#351 = CARTESIAN_POINT ( 'NONE',  ( -15.00000000000000200, 0.5500000000000000400, -88.50000000000000000 ) ) ;
#352 = VERTEX_POINT ( 'NONE', #272 ) ;
#353 = ORIENTED_EDGE ( 'NONE', *, *, #338, .T. ) ;
#354 = EDGE_CURVE ( 'NONE', #315, #98, #283, .T. ) ;
#355 = CARTESIAN_POINT ( 'NONE',  ( -22.80000000000000100, 0.5500000000000000400, 0.0000000000000000000 ) ) ;
#356 = PERSON ( 'UNSPECIFIED', 'UNSPECIFIED', 'UNSPECIFIED', ('UNSPECIFIED'), ('UNSPECIFIED'), ('UNSPECIFIED') ) ;
#357 = PRODUCT_RELATED_PRODUCT_CATEGORY ( 'detail', '', ( #161 ) ) ;
#358 = PLANE ( 'NONE',  #221 ) ;
#359 = DATE_AND_TIME ( #409, #508 ) ;
#360 = CARTESIAN_POINT ( 'NONE',  ( 14.49999999999999500, 0.5500000000000000400, -52.50000000000001400 ) ) ;
#361 = DIRECTION ( 'NONE',  ( 0.0000000000000000000, -0.0000000000000000000, -1.000000000000000000 ) ) ;
#362 = DIRECTION ( 'NONE',  ( -0.0000000000000000000, -1.000000000000000000, -0.0000000000000000000 ) ) ;
#363 = CARTESIAN_POINT ( 'NONE',  ( -15.00000000000000200, 0.0000000000000000000, -88.50000000000000000 ) ) ;
#364 = CC_DESIGN_DATE_AND_TIME_ASSIGNMENT ( #157, #325, ( #43 ) ) ;
#365 = EDGE_CURVE ( 'NONE', #265, #450, #170, .T. ) ;
#366 = MECHANICAL_CONTEXT ( 'NONE', #49, 'mechanical' ) ;
#367 = LINE ( 'NONE', #66, #97 ) ;
#368 = APPLICATION_PROTOCOL_DEFINITION ( 'international standard', 'config_control_design', 1994, #49 ) ;
#369 = EDGE_LOOP ( 'NONE', ( #277, #74, #335, #100 ) ) ;
#370 = LINE ( 'NONE', #253, #149 ) ;
#371 = DIRECTION ( 'NONE',  ( -1.000000000000000000, 0.0000000000000000000, 0.0000000000000000000 ) ) ;
#372 = AXIS2_PLACEMENT_3D ( 'NONE', #333, #371, #180 ) ;
#373 = DIRECTION ( 'NONE',  ( 1.000000000000000000, 0.0000000000000000000, 0.0000000000000000000 ) ) ;
#374 = EDGE_CURVE ( 'NONE', #512, #467, #259, .T. ) ;
#375 = CARTESIAN_POINT ( 'NONE',  ( -15.00000000000000200, 0.0000000000000000000, -88.50000000000000000 ) ) ;
#376 = DATE_AND_TIME ( #281, #387 ) ;
#377 = LINE ( 'NONE', #42, #264 ) ;
#378 = PLANE ( 'NONE',  #155 ) ;
#379 = VERTEX_POINT ( 'NONE', #344 ) ;
#380 = CARTESIAN_POINT ( 'NONE',  ( 14.49999999999999500, 0.0000000000000000000, -52.00000000000001400 ) ) ;
#381 = EDGE_CURVE ( 'NONE', #50, #466, #236, .T. ) ;
#382 = CARTESIAN_POINT ( 'NONE',  ( -14.49999999999999500, 0.5500000000000000400, -52.00000000000001400 ) ) ;
#383 = AXIS2_PLACEMENT_3D ( 'NONE', #218, #222, #20 ) ;
#384 = FACE_OUTER_BOUND ( 'NONE', #174, .T. ) ;
#385 = ORIENTED_EDGE ( 'NONE', *, *, #248, .F. ) ;
#386 = ORIENTED_EDGE ( 'NONE', *, *, #308, .T. ) ;
#387 = LOCAL_TIME ( 11, 15, 2.000000000000000000, #328 ) ;
#388 = LINE ( 'NONE', #476, #471 ) ;
#389 = EDGE_CURVE ( 'NONE', #450, #151, #393, .T. ) ;
#390 = CARTESIAN_POINT ( 'NONE',  ( -22.80000000000000100, 0.0000000000000000000, 0.0000000000000000000 ) ) ;
#391 = CYLINDRICAL_SURFACE ( 'NONE', #96, 0.5000000000000004400 ) ;
#392 = DIRECTION ( 'NONE',  ( 1.445602896647339900E-016, 0.0000000000000000000, 1.000000000000000000 ) ) ;
#393 = CIRCLE ( 'NONE', #495, 0.5000000000000143200 ) ;
#394 = DIRECTION ( 'NONE',  ( -0.0000000000000000000, -0.0000000000000000000, 1.000000000000000000 ) ) ;
#395 = EDGE_LOOP ( 'NONE', ( #12, #34, #28, #301 ) ) ;
#396 = FACE_OUTER_BOUND ( 'NONE', #401, .T. ) ;
#397 = ADVANCED_FACE ( 'NONE', ( #384 ), #204, .F. ) ;
#398 = CARTESIAN_POINT ( 'NONE',  ( 22.80000000000000100, 0.0000000000000000000, 0.0000000000000000000 ) ) ;
#399 = AXIS2_PLACEMENT_3D ( 'NONE', #506, #31, #309 ) ;
#400 = VECTOR ( 'NONE', #70, 1000.000000000000000 ) ;
#401 = EDGE_LOOP ( 'NONE', ( #8, #456, #106, #243 ) ) ;
#402 = ORIENTED_EDGE ( 'NONE', *, *, #282, .F. ) ;
#403 = PERSON_AND_ORGANIZATION_ROLE ( 'creator' ) ;
#404 = CARTESIAN_POINT ( 'NONE',  ( 14.49999999999998800, 0.0000000000000000000, -89.00000000000002800 ) ) ;
#405 = APPLICATION_CONTEXT ( 'configuration controlled 3d designs of mechanical parts and assemblies' ) ;
#406 = ADVANCED_FACE ( 'NONE', ( #164 ), #82, .F. ) ;
#407 = DIRECTION ( 'NONE',  ( 1.000000000000000000, 0.0000000000000000000, -0.0000000000000000000 ) ) ;
#408 = AXIS2_PLACEMENT_3D ( 'NONE', #490, #219, #295 ) ;
#409 = CALENDAR_DATE ( 2019, 7, 11 ) ;
#410 = MANIFOLD_SOLID_BREP ( '304 SS 28GA', #416 ) ;
#411 = EDGE_LOOP ( 'NONE', ( #111, #487, #25, #228 ) ) ;
#412 = ORIENTED_EDGE ( 'NONE', *, *, #452, .T. ) ;
#413 = DIRECTION ( 'NONE',  ( -0.0000000000000000000, -1.000000000000000000, -0.0000000000000000000 ) ) ;
#414 = CARTESIAN_POINT ( 'NONE',  ( -15.00000000000000200, 0.5500000000000000400, -88.50000000000000000 ) ) ;
#415 = VECTOR ( 'NONE', #362, 1000.000000000000000 ) ;
#416 = CLOSED_SHELL ( 'NONE', ( #472, #278, #397, #121, #203, #241, #37, #435, #316, #2, #406, #88, #79, #163 ) ) ;
#417 = FACE_OUTER_BOUND ( 'NONE', #369, .T. ) ;
#418 = CARTESIAN_POINT ( 'NONE',  ( -22.80000000000000100, 0.5500000000000000400, 0.0000000000000000000 ) ) ;
#419 = VECTOR ( 'NONE', #392, 1000.000000000000000 ) ;
#420 = ORIENTED_EDGE ( 'NONE', *, *, #140, .T. ) ;
#421 = ORIENTED_EDGE ( 'NONE', *, *, #475, .T. ) ;
#422 = EDGE_CURVE ( 'NONE', #352, #230, #184, .T. ) ;
#423 = CC_DESIGN_PERSON_AND_ORGANIZATION_ASSIGNMENT ( #10, #119, ( #442 ) ) ;
#424 = FACE_BOUND ( 'NONE', #302, .T. ) ;
#425 = EDGE_CURVE ( 'NONE', #505, #379, #388, .T. ) ;
#426 = ORIENTED_EDGE ( 'NONE', *, *, #308, .F. ) ;
#427 = DIRECTION ( 'NONE',  ( -0.0000000000000000000, -1.000000000000000000, -0.0000000000000000000 ) ) ;
#428 = PERSON_AND_ORGANIZATION ( #356, #141 ) ;
#429 = LINE ( 'NONE', #310, #400 ) ;
#430 = EDGE_CURVE ( 'NONE', #289, #85, #377, .T. ) ;
#431 = ORIENTED_EDGE ( 'NONE', *, *, #248, .T. ) ;
#432 = DIRECTION ( 'NONE',  ( 1.000000000000000000, 0.0000000000000000000, -0.0000000000000000000 ) ) ;
#433 = ORIENTED_EDGE ( 'NONE', *, *, #148, .T. ) ;
#434 = DIRECTION ( 'NONE',  ( -0.0000000000000000000, -0.0000000000000000000, 1.000000000000000000 ) ) ;
#435 = ADVANCED_FACE ( 'NONE', ( #481 ), #480, .T. ) ;
#436 = APPROVAL_DATE_TIME ( #21, #291 ) ;
#437 = CARTESIAN_POINT ( 'NONE',  ( 22.80000000000000100, 0.5500000000000000400, 0.0000000000000000000 ) ) ;
#438 = ORIENTED_EDGE ( 'NONE', *, *, #502, .T. ) ;
#439 = CARTESIAN_POINT ( 'NONE',  ( -14.99999999999999600, 0.5500000000000000400, -52.50000000000001400 ) ) ;
#440 = DIRECTION ( 'NONE',  ( -0.0000000000000000000, -1.000000000000000000, -0.0000000000000000000 ) ) ;
#441 = CARTESIAN_POINT ( 'NONE',  ( -22.80000000000000100, 0.5500000000000000400, 0.0000000000000000000 ) ) ;
#442 = PRODUCT_DEFINITION_FORMATION_WITH_SPECIFIED_SOURCE ( 'ANY', '', #161, .NOT_KNOWN. ) ;
#443 = EDGE_CURVE ( 'NONE', #254, #467, #459, .T. ) ;
#444 =( NAMED_UNIT ( * ) SI_UNIT ( $, .STERADIAN. ) SOLID_ANGLE_UNIT ( ) );
#445 = FACE_OUTER_BOUND ( 'NONE', #179, .T. ) ;
#446 = ORIENTED_EDGE ( 'NONE', *, *, #51, .T. ) ;
#447 = DIRECTION ( 'NONE',  ( 0.0000000000000000000, 0.0000000000000000000, -1.000000000000000000 ) ) ;
#448 = COORDINATED_UNIVERSAL_TIME_OFFSET ( 7, 0, .BEHIND. ) ;
#449 = EDGE_CURVE ( 'NONE', #50, #321, #304, .T. ) ;
#450 = VERTEX_POINT ( 'NONE', #244 ) ;
#451 = CC_DESIGN_PERSON_AND_ORGANIZATION_ASSIGNMENT ( #311, #40, ( #300 ) ) ;
#452 = EDGE_CURVE ( 'NONE', #289, #352, #146, .T. ) ;
#453 = LINE ( 'NONE', #118, #5 ) ;
#454 = FACE_BOUND ( 'NONE', #125, .T. ) ;
#455 = PLANE ( 'NONE',  #383 ) ;
#456 = ORIENTED_EDGE ( 'NONE', *, *, #197, .F. ) ;
#457 = ORIENTED_EDGE ( 'NONE', *, *, #78, .T. ) ;
#458 = CARTESIAN_POINT ( 'NONE',  ( -22.80000000000000100, 0.5500000000000000400, -101.8000000000000000 ) ) ;
#459 = LINE ( 'NONE', #437, #415 ) ;
#460 = ORIENTED_EDGE ( 'NONE', *, *, #443, .T. ) ;
#461 = CARTESIAN_POINT ( 'NONE',  ( 22.80000000000000100, 0.5500000000000000400, -101.8000000000000000 ) ) ;
#462 = VECTOR ( 'NONE', #124, 1000.000000000000000 ) ;
#463 = EDGE_CURVE ( 'NONE', #513, #289, #303, .T. ) ;
#464 = VECTOR ( 'NONE', #348, 1000.000000000000000 ) ;
#465 = PLANE ( 'NONE',  #399 ) ;
#466 = VERTEX_POINT ( 'NONE', #320 ) ;
#467 = VERTEX_POINT ( 'NONE', #398 ) ;
#468 = CARTESIAN_POINT ( 'NONE',  ( 15.00000000000000400, 0.0000000000000000000, -88.50000000000000000 ) ) ;
#469 = DIRECTION ( 'NONE',  ( -0.0000000000000000000, -1.000000000000000000, -0.0000000000000000000 ) ) ;
#470 = DATE_TIME_ROLE ( 'classification_date' ) ;
#471 = VECTOR ( 'NONE', #201, 1000.000000000000000 ) ;
#472 = ADVANCED_FACE ( 'NONE', ( #293, #424 ), #358, .F. ) ;
#473 = CARTESIAN_POINT ( 'NONE',  ( 14.99999999999999100, 0.5500000000000000400, -88.50000000000000000 ) ) ;
#474 = ORIENTED_EDGE ( 'NONE', *, *, #30, .F. ) ;
#475 = EDGE_CURVE ( 'NONE', #67, #450, #217, .T. ) ;
#476 = CARTESIAN_POINT ( 'NONE',  ( -14.99999999999999600, 0.5500000000000000400, -52.50000000000001400 ) ) ;
#477 = APPROVAL_STATUS ( 'not_yet_approved' ) ;
#478 = EDGE_CURVE ( 'NONE', #467, #98, #109, .T. ) ;
#479 = DIRECTION ( 'NONE',  ( 0.0000000000000000000, 0.0000000000000000000, -1.000000000000000000 ) ) ;
#480 = PLANE ( 'NONE',  #145 ) ;
#481 = FACE_OUTER_BOUND ( 'NONE', #41, .T. ) ;
#482 = CARTESIAN_POINT ( 'NONE',  ( -22.80000000000000100, 0.5500000000000000400, -101.8000000000000000 ) ) ;
#483 = CARTESIAN_POINT ( 'NONE',  ( 14.49999999999999500, 0.5500000000000000400, -52.00000000000001400 ) ) ;
#484 = ORIENTED_EDGE ( 'NONE', *, *, #502, .F. ) ;
#485 = VECTOR ( 'NONE', #39, 1000.000000000000000 ) ;
#486 = CC_DESIGN_SECURITY_CLASSIFICATION ( #300, ( #442 ) ) ;
#487 = ORIENTED_EDGE ( 'NONE', *, *, #365, .F. ) ;
#488 = ORIENTED_EDGE ( 'NONE', *, *, #197, .T. ) ;
#489 = DIRECTION ( 'NONE',  ( 0.0000000000000000000, 0.0000000000000000000, 1.000000000000000000 ) ) ;
#490 = CARTESIAN_POINT ( 'NONE',  ( -14.49999999999999500, 0.5500000000000000400, -52.50000000000001400 ) ) ;
#491 = DESIGN_CONTEXT ( 'detailed design', #405, 'design' ) ;
#492 = DIRECTION ( 'NONE',  ( -0.0000000000000000000, -1.000000000000000000, -0.0000000000000000000 ) ) ;
#493 = LINE ( 'NONE', #185, #294 ) ;
#494 = EDGE_LOOP ( 'NONE', ( #6, #446, #431, #313 ) ) ;
#495 = AXIS2_PLACEMENT_3D ( 'NONE', #80, #207, #1 ) ;
#496 = CARTESIAN_POINT ( 'NONE',  ( 14.49999999999998800, 0.5500000000000000400, -88.50000000000000000 ) ) ;
#497 = ORIENTED_EDGE ( 'NONE', *, *, #374, .T. ) ;
#498 = CARTESIAN_POINT ( 'NONE',  ( -22.80000000000000100, 0.5500000000000000400, -101.8000000000000000 ) ) ;
#499 = LINE ( 'NONE', #458, #158 ) ;
#500 = VERTEX_POINT ( 'NONE', #284 ) ;
#501 = EDGE_LOOP ( 'NONE', ( #386, #159, #18, #276 ) ) ;
#502 = EDGE_CURVE ( 'NONE', #321, #512, #453, .T. ) ;
#503 = CYLINDRICAL_SURFACE ( 'NONE', #192, 0.5000000000000143200 ) ;
#504 = ORIENTED_EDGE ( 'NONE', *, *, #63, .T. ) ;
#505 = VERTEX_POINT ( 'NONE', #439 ) ;
#506 = CARTESIAN_POINT ( 'NONE',  ( 0.0000000000000000000, 0.0000000000000000000, 0.0000000000000000000 ) ) ;
#507 = DIRECTION ( 'NONE',  ( 0.0000000000000000000, 0.0000000000000000000, -1.000000000000000000 ) ) ;
#508 = LOCAL_TIME ( 11, 15, 2.000000000000000000, #102 ) ;
#509 = VECTOR ( 'NONE', #492, 1000.000000000000000 ) ;
#510 = DIRECTION ( 'NONE',  ( 0.0000000000000000000, 0.0000000000000000000, 1.000000000000000000 ) ) ;
#511 = APPROVAL_ROLE ( '' ) ;
#512 = VERTEX_POINT ( 'NONE', #131 ) ;
#513 = VERTEX_POINT ( 'NONE', #483 ) ;
ENDSEC;
END-ISO-10303-21;
