ISO-10303-21;
HEADER;
FILE_DESCRIPTION (( 'STEP AP203' ),
    '1' );
FILE_NAME ('MX07.STEP',
    '2019-10-19T15:12:38',
    ( '' ),
    ( '' ),
    'SwSTEP 2.0',
    'SolidWorks 2017',
    '' );
FILE_SCHEMA (( 'CONFIG_CONTROL_DESIGN' ));
ENDSEC;

DATA;
#1 = VERTEX_POINT ( 'NONE', #852 ) ;
#2 = CYLINDRICAL_SURFACE ( 'NONE', #159, 1.043567748168735800 ) ;
#3 = PERSON_AND_ORGANIZATION ( #74, #759 ) ;
#4 = CARTESIAN_POINT ( 'NONE',  ( -36.00000000000000000, -1.125176065070119500, 6.399999999999999500 ) ) ;
#5 = ORIENTED_EDGE ( 'NONE', *, *, #520, .F. ) ;
#6 = DIRECTION ( 'NONE',  ( -0.0000000000000000000, -0.0000000000000000000, -1.000000000000000000 ) ) ;
#7 = ORIENTED_EDGE ( 'NONE', *, *, #32, .T. ) ;
#8 = EDGE_CURVE ( 'NONE', #691, #728, #738, .T. ) ;
#9 = VECTOR ( 'NONE', #6, 1000.000000000000000 ) ;
#10 = CIRCLE ( 'NONE', #498, 1.500000000000001300 ) ;
#11 = ADVANCED_FACE ( 'NONE', ( #62 ), #466, .T. ) ;
#12 = VERTEX_POINT ( 'NONE', #702 ) ;
#13 = AXIS2_PLACEMENT_3D ( 'NONE', #146, #350, #612 ) ;
#14 = ORIENTED_EDGE ( 'NONE', *, *, #729, .F. ) ;
#15 = VECTOR ( 'NONE', #593, 1000.000000000000000 ) ;
#16 = DIRECTION ( 'NONE',  ( -1.000000000000000000, 0.0000000000000000000, 0.0000000000000000000 ) ) ;
#17 = CIRCLE ( 'NONE', #342, 0.8000000000000020400 ) ;
#18 = APPROVAL_DATE_TIME ( #168, #391 ) ;
#19 = CARTESIAN_POINT ( 'NONE',  ( 15.26346153846153300, -2.725176065070117100, 0.0000000000000000000 ) ) ;
#20 = ORIENTED_EDGE ( 'NONE', *, *, #325, .T. ) ;
#21 = ORIENTED_EDGE ( 'NONE', *, *, #696, .F. ) ;
#22 = DIRECTION ( 'NONE',  ( -1.426852590173899500E-016, 1.000000000000000000, 0.0000000000000000000 ) ) ;
#23 = DIRECTION ( 'NONE',  ( 1.000000000000000000, -1.426852590173899500E-016, 0.0000000000000000000 ) ) ;
#24 = LINE ( 'NONE', #534, #221 ) ;
#25 = CARTESIAN_POINT ( 'NONE',  ( -33.50000000000000000, -1.125176065070119500, 15.00000000000000000 ) ) ;
#26 = ORIENTED_EDGE ( 'NONE', *, *, #858, .F. ) ;
#27 = LINE ( 'NONE', #4, #708 ) ;
#28 = AXIS2_PLACEMENT_3D ( 'NONE', #660, #320, #253 ) ;
#29 = PLANE ( 'NONE',  #303 ) ;
#30 = DIRECTION ( 'NONE',  ( 0.0000000000000000000, 0.0000000000000000000, 1.000000000000000000 ) ) ;
#31 = ORIENTED_EDGE ( 'NONE', *, *, #195, .T. ) ;
#32 = EDGE_CURVE ( 'NONE', #351, #142, #37, .T. ) ;
#33 = VERTEX_POINT ( 'NONE', #774 ) ;
#34 = AXIS2_PLACEMENT_3D ( 'NONE', #390, #382, #234 ) ;
#35 = CARTESIAN_POINT ( 'NONE',  ( 15.26346153846153300, -3.768743813238851500, 15.00000000000000000 ) ) ;
#36 = EDGE_LOOP ( 'NONE', ( #261, #216, #583, #599 ) ) ;
#37 = LINE ( 'NONE', #378, #720 ) ;
#38 = DIRECTION ( 'NONE',  ( -0.0000000000000000000, -0.0000000000000000000, -1.000000000000000000 ) ) ;
#39 = VERTEX_POINT ( 'NONE', #578 ) ;
#40 = DIRECTION ( 'NONE',  ( -0.0000000000000000000, -0.0000000000000000000, -1.000000000000000000 ) ) ;
#41 = DIRECTION ( 'NONE',  ( -0.0000000000000000000, -0.0000000000000000000, -1.000000000000000000 ) ) ;
#42 = ORIENTED_EDGE ( 'NONE', *, *, #614, .F. ) ;
#43 = DIRECTION ( 'NONE',  ( -1.000000000000000000, 0.0000000000000000000, 0.0000000000000000000 ) ) ;
#44 = VERTEX_POINT ( 'NONE', #447 ) ;
#45 = ORIENTED_EDGE ( 'NONE', *, *, #107, .F. ) ;
#46 = LINE ( 'NONE', #747, #511 ) ;
#47 = CARTESIAN_POINT ( 'NONE',  ( -11.53653846153846100, -3.768743813238855100, 15.00000000000000000 ) ) ;
#48 = ORIENTED_EDGE ( 'NONE', *, *, #241, .F. ) ;
#49 = EDGE_CURVE ( 'NONE', #39, #499, #267, .T. ) ;
#50 = DIRECTION ( 'NONE',  ( 1.000000000000000000, 0.0000000000000000000, 0.0000000000000000000 ) ) ;
#51 = CARTESIAN_POINT ( 'NONE',  ( 11.90000000000000600, -5.499999999999998200, 0.0000000000000000000 ) ) ;
#52 = ORIENTED_EDGE ( 'NONE', *, *, #191, .T. ) ;
#53 = CIRCLE ( 'NONE', #305, 1.500000000000001300 ) ;
#54 = AXIS2_PLACEMENT_3D ( 'NONE', #485, #211, #813 ) ;
#55 = DIRECTION ( 'NONE',  ( -0.0000000000000000000, -0.0000000000000000000, -1.000000000000000000 ) ) ;
#56 = VERTEX_POINT ( 'NONE', #51 ) ;
#57 = CYLINDRICAL_SURFACE ( 'NONE', #524, 1.043567748168734000 ) ;
#58 = CIRCLE ( 'NONE', #675, 2.000000000000000900 ) ;
#59 = CARTESIAN_POINT ( 'NONE',  ( 13.40000000000000700, -5.499999999999998200, 0.0000000000000000000 ) ) ;
#60 = DIRECTION ( 'NONE',  ( -0.0000000000000000000, -0.0000000000000000000, -1.000000000000000000 ) ) ;
#61 = APPROVAL_PERSON_ORGANIZATION ( #412, #649, #157 ) ;
#62 = FACE_OUTER_BOUND ( 'NONE', #312, .T. ) ;
#63 = EDGE_CURVE ( 'NONE', #427, #496, #145, .T. ) ;
#64 = CARTESIAN_POINT ( 'NONE',  ( -14.49892583348909300, -4.479038682177277400, 0.0000000000000000000 ) ) ;
#65 = LINE ( 'NONE', #859, #9 ) ;
#66 = ADVANCED_FACE ( 'NONE', ( #202 ), #98, .F. ) ;
#67 = DIRECTION ( 'NONE',  ( 0.0000000000000000000, -1.000000000000000000, 0.0000000000000000000 ) ) ;
#68 = ORIENTED_EDGE ( 'NONE', *, *, #838, .F. ) ;
#69 = CIRCLE ( 'NONE', #196, 1.500000000000001300 ) ;
#70 = DESIGN_CONTEXT ( 'detailed design', #574, 'design' ) ;
#71 = ORIENTED_EDGE ( 'NONE', *, *, #682, .T. ) ;
#72 = CALENDAR_DATE ( 2019, 19, 10 ) ;
#73 = ORIENTED_EDGE ( 'NONE', *, *, #313, .T. ) ;
#74 = PERSON ( 'UNSPECIFIED', 'UNSPECIFIED', 'UNSPECIFIED', ('UNSPECIFIED'), ('UNSPECIFIED'), ('UNSPECIFIED') ) ;
#75 = EDGE_LOOP ( 'NONE', ( #127, #270, #863, #699, #666, #789, #542, #143, #400, #543, #469, #822, #20, #328, #488, #664, #687, #778 ) ) ;
#76 = EDGE_CURVE ( 'NONE', #806, #379, #642, .T. ) ;
#77 = ADVANCED_FACE ( 'NONE', ( #802 ), #740, .T. ) ;
#78 = VECTOR ( 'NONE', #456, 1000.000000000000000 ) ;
#79 = CC_DESIGN_APPROVAL ( #649, ( #553 ) ) ;
#80 = ADVANCED_FACE ( 'NONE', ( #316 ), #259, .F. ) ;
#81 = EDGE_CURVE ( 'NONE', #634, #545, #246, .T. ) ;
#82 = ORIENTED_EDGE ( 'NONE', *, *, #232, .T. ) ;
#83 = DIRECTION ( 'NONE',  ( -1.000000000000000000, 0.0000000000000000000, 0.0000000000000000000 ) ) ;
#84 = ORIENTED_EDGE ( 'NONE', *, *, #195, .F. ) ;
#85 = EDGE_CURVE ( 'NONE', #206, #691, #175, .T. ) ;
#86 = PLANE ( 'NONE',  #13 ) ;
#87 = ORIENTED_EDGE ( 'NONE', *, *, #49, .T. ) ;
#88 = LINE ( 'NONE', #300, #178 ) ;
#89 = DIRECTION ( 'NONE',  ( 0.0000000000000000000, 0.0000000000000000000, -1.000000000000000000 ) ) ;
#90 = CARTESIAN_POINT ( 'NONE',  ( 33.50000000000000000, -1.125176065070119500, 0.0000000000000000000 ) ) ;
#91 = LOCAL_TIME ( 8, 12, 38.00000000000000000, #348 ) ;
#92 = CARTESIAN_POINT ( 'NONE',  ( -15.50000000000000000, -6.999999999999999100, 28.00000000000000000 ) ) ;
#93 = CC_DESIGN_PERSON_AND_ORGANIZATION_ASSIGNMENT ( #816, #298, ( #553 ) ) ;
#94 = CARTESIAN_POINT ( 'NONE',  ( 13.40000000000000700, -5.499999999999998200, 15.00000000000000000 ) ) ;
#95 = DIRECTION ( 'NONE',  ( -1.000000000000000000, 0.0000000000000000000, 0.0000000000000000000 ) ) ;
#96 = CARTESIAN_POINT ( 'NONE',  ( -15.26346153846153300, -3.768743813238851500, 0.0000000000000000000 ) ) ;
#97 = CARTESIAN_POINT ( 'NONE',  ( 14.90000000000000900, -5.499999999999998200, 15.00000000000000000 ) ) ;
#98 = CYLINDRICAL_SURFACE ( 'NONE', #271, 1.043567748168734000 ) ;
#99 = VECTOR ( 'NONE', #361, 1000.000000000000000 ) ;
#100 = CARTESIAN_POINT ( 'NONE',  ( -15.50000000000000000, -1.125176065070119500, 28.00000000000000000 ) ) ;
#101 = DIRECTION ( 'NONE',  ( -0.0000000000000000000, -0.0000000000000000000, -1.000000000000000000 ) ) ;
#102 = CIRCLE ( 'NONE', #715, 0.8000000000000020400 ) ;
#103 = DIRECTION ( 'NONE',  ( 1.000000000000000000, 0.0000000000000000000, 0.0000000000000000000 ) ) ;
#104 = APPLICATION_PROTOCOL_DEFINITION ( 'international standard', 'config_control_design', 1994, #108 ) ;
#105 = CARTESIAN_POINT ( 'NONE',  ( 15.26346153846153300, -2.725176065070117100, 15.00000000000000000 ) ) ;
#106 = CARTESIAN_POINT ( 'NONE',  ( -14.90000000000000200, -5.499999999999998200, 15.00000000000000000 ) ) ;
#107 = EDGE_CURVE ( 'NONE', #539, #826, #24, .T. ) ;
#108 = APPLICATION_CONTEXT ( 'configuration controlled 3d designs of mechanical parts and assemblies' ) ;
#109 = DIRECTION ( 'NONE',  ( -0.0000000000000000000, -0.0000000000000000000, -1.000000000000000000 ) ) ;
#110 = ORIENTED_EDGE ( 'NONE', *, *, #147, .F. ) ;
#111 = VERTEX_POINT ( 'NONE', #595 ) ;
#112 = LINE ( 'NONE', #25, #548 ) ;
#113 = DIRECTION ( 'NONE',  ( 1.000000000000000000, 0.0000000000000000000, 0.0000000000000000000 ) ) ;
#114 = DATE_AND_TIME ( #646, #840 ) ;
#115 = CARTESIAN_POINT ( 'NONE',  ( 33.50000000000000000, -2.725176065070119800, 15.00000000000000000 ) ) ;
#116 = CARTESIAN_POINT ( 'NONE',  ( 15.26346153846153300, -2.725176065070117100, 15.00000000000000000 ) ) ;
#117 = AXIS2_PLACEMENT_3D ( 'NONE', #505, #777, #575 ) ;
#118 = VERTEX_POINT ( 'NONE', #788 ) ;
#119 = CARTESIAN_POINT ( 'NONE',  ( 15.26346153846153300, -3.768743813238851500, 15.00000000000000000 ) ) ;
#120 = CYLINDRICAL_SURFACE ( 'NONE', #393, 0.8000000000000020400 ) ;
#121 = LINE ( 'NONE', #556, #633 ) ;
#122 = EDGE_CURVE ( 'NONE', #379, #634, #577, .T. ) ;
#123 = ORIENTED_EDGE ( 'NONE', *, *, #554, .F. ) ;
#124 = AXIS2_PLACEMENT_3D ( 'NONE', #821, #561, #283 ) ;
#125 = DIRECTION ( 'NONE',  ( -0.0000000000000000000, -0.0000000000000000000, -1.000000000000000000 ) ) ;
#126 = APPROVAL_DATE_TIME ( #734, #649 ) ;
#127 = ORIENTED_EDGE ( 'NONE', *, *, #32, .F. ) ;
#128 = CARTESIAN_POINT ( 'NONE',  ( 11.53653846153846100, -2.725176065070118000, 15.00000000000000000 ) ) ;
#129 = EDGE_CURVE ( 'NONE', #379, #496, #201, .T. ) ;
#130 = ORIENTED_EDGE ( 'NONE', *, *, #343, .F. ) ;
#131 = DIRECTION ( 'NONE',  ( -0.0000000000000000000, -0.0000000000000000000, -1.000000000000000000 ) ) ;
#132 = CARTESIAN_POINT ( 'NONE',  ( -13.40000000000000000, -5.499999999999998200, 15.00000000000000000 ) ) ;
#133 = VERTEX_POINT ( 'NONE', #795 ) ;
#134 = DIRECTION ( 'NONE',  ( 1.000000000000000000, -1.426852590173899500E-016, 0.0000000000000000000 ) ) ;
#135 = DATE_AND_TIME ( #725, #204 ) ;
#136 = ORIENTED_EDGE ( 'NONE', *, *, #509, .F. ) ;
#137 = CARTESIAN_POINT ( 'NONE',  ( -15.50000000000000000, -1.125176065070119500, 15.00000000000000000 ) ) ;
#138 = ORIENTED_EDGE ( 'NONE', *, *, #81, .F. ) ;
#139 = ORIENTED_EDGE ( 'NONE', *, *, #199, .F. ) ;
#140 = FACE_OUTER_BOUND ( 'NONE', #416, .T. ) ;
#141 = ADVANCED_FACE ( 'NONE', ( #315 ), #394, .F. ) ;
#142 = VERTEX_POINT ( 'NONE', #137 ) ;
#143 = ORIENTED_EDGE ( 'NONE', *, *, #790, .T. ) ;
#144 = EDGE_LOOP ( 'NONE', ( #210, #397, #244, #425 ) ) ;
#145 = CIRCLE ( 'NONE', #363, 1.043567748168734000 ) ;
#146 = CARTESIAN_POINT ( 'NONE',  ( -11.53653846153846100, -2.725176065070117100, 15.00000000000000000 ) ) ;
#147 = EDGE_CURVE ( 'NONE', #545, #118, #388, .T. ) ;
#148 = DIRECTION ( 'NONE',  ( 0.0000000000000000000, 1.000000000000000000, -0.0000000000000000000 ) ) ;
#149 = CARTESIAN_POINT ( 'NONE',  ( -13.40000000000000000, -5.499999999999998200, 15.00000000000000000 ) ) ;
#150 = CARTESIAN_POINT ( 'NONE',  ( -15.26346153846153300, -3.768743813238851500, 0.0000000000000000000 ) ) ;
#151 = EDGE_LOOP ( 'NONE', ( #825, #417, #713, #810 ) ) ;
#152 = AXIS2_PLACEMENT_3D ( 'NONE', #862, #535, #718 ) ;
#153 = EDGE_LOOP ( 'NONE', ( #165, #767, #460, #297 ) ) ;
#154 = CARTESIAN_POINT ( 'NONE',  ( -11.53653846153846100, -2.725176065070117100, 0.0000000000000000000 ) ) ;
#155 = CIRCLE ( 'NONE', #336, 1.500000000000001300 ) ;
#156 = ORIENTED_EDGE ( 'NONE', *, *, #851, .T. ) ;
#157 = APPROVAL_ROLE ( '' ) ;
#158 = VERTEX_POINT ( 'NONE', #326 ) ;
#159 = AXIS2_PLACEMENT_3D ( 'NONE', #238, #512, #319 ) ;
#160 = DIRECTION ( 'NONE',  ( -0.0000000000000000000, -0.0000000000000000000, -1.000000000000000000 ) ) ;
#161 = EDGE_CURVE ( 'NONE', #118, #318, #65, .T. ) ;
#162 = APPROVAL_STATUS ( 'not_yet_approved' ) ;
#163 = ADVANCED_FACE ( 'NONE', ( #407 ), #250, .T. ) ;
#164 = DIRECTION ( 'NONE',  ( -0.0000000000000000000, -0.0000000000000000000, -1.000000000000000000 ) ) ;
#165 = ORIENTED_EDGE ( 'NONE', *, *, #801, .T. ) ;
#166 = ORIENTED_EDGE ( 'NONE', *, *, #682, .F. ) ;
#167 = VECTOR ( 'NONE', #101, 1000.000000000000000 ) ;
#168 = DATE_AND_TIME ( #72, #91 ) ;
#169 = DIRECTION ( 'NONE',  ( -1.000000000000000000, 0.0000000000000000000, 0.0000000000000000000 ) ) ;
#170 = LINE ( 'NONE', #814, #698 ) ;
#171 = AXIS2_PLACEMENT_3D ( 'NONE', #588, #182, #766 ) ;
#172 = CARTESIAN_POINT ( 'NONE',  ( -33.50000000000000000, -1.125176065070119500, 0.0000000000000000000 ) ) ;
#173 = CARTESIAN_POINT ( 'NONE',  ( -15.26346153846153300, -2.725176065070117100, 6.399999999999999500 ) ) ;
#174 = DIRECTION ( 'NONE',  ( 0.0000000000000000000, 0.0000000000000000000, 1.000000000000000000 ) ) ;
#175 = CIRCLE ( 'NONE', #28, 1.043567748168737500 ) ;
#176 = EDGE_CURVE ( 'NONE', #286, #44, #53, .T. ) ;
#177 = ORIENTED_EDGE ( 'NONE', *, *, #520, .T. ) ;
#178 = VECTOR ( 'NONE', #566, 1000.000000000000000 ) ;
#179 = AXIS2_PLACEMENT_3D ( 'NONE', #581, #131, #528 ) ;
#180 = CARTESIAN_POINT ( 'NONE',  ( 33.50000000000000000, -2.725176065070119800, 15.00000000000000000 ) ) ;
#181 = CARTESIAN_POINT ( 'NONE',  ( -33.50000000000000000, -2.725176065070119800, 6.399999999999999500 ) ) ;
#182 = DIRECTION ( 'NONE',  ( -0.0000000000000000000, -0.0000000000000000000, -1.000000000000000000 ) ) ;
#183 = EDGE_CURVE ( 'NONE', #12, #56, #590, .T. ) ;
#184 = DIRECTION ( 'NONE',  ( -1.000000000000000000, 0.0000000000000000000, 0.0000000000000000000 ) ) ;
#185 = LINE ( 'NONE', #128, #15 ) ;
#186 = DIRECTION ( 'NONE',  ( -1.000000000000000000, 0.0000000000000000000, -0.0000000000000000000 ) ) ;
#187 = VECTOR ( 'NONE', #842, 1000.000000000000000 ) ;
#188 = PERSON_AND_ORGANIZATION ( #74, #759 ) ;
#189 = AXIS2_PLACEMENT_3D ( 'NONE', #523, #576, #444 ) ;
#190 = CARTESIAN_POINT ( 'NONE',  ( 15.26346153846153300, -3.768743813238851500, 15.00000000000000000 ) ) ;
#191 = EDGE_CURVE ( 'NONE', #1, #228, #364, .T. ) ;
#192 = DIRECTION ( 'NONE',  ( -1.000000000000000000, 0.0000000000000000000, 0.0000000000000000000 ) ) ;
#193 = AXIS2_PLACEMENT_3D ( 'NONE', #225, #231, #43 ) ;
#194 = CIRCLE ( 'NONE', #380, 1.500000000000001300 ) ;
#195 = EDGE_CURVE ( 'NONE', #351, #230, #408, .T. ) ;
#196 = AXIS2_PLACEMENT_3D ( 'NONE', #331, #657, #184 ) ;
#197 = LINE ( 'NONE', #285, #711 ) ;
#198 = ADVANCED_FACE ( 'NONE', ( #224 ), #404, .F. ) ;
#199 = EDGE_CURVE ( 'NONE', #746, #56, #69, .T. ) ;
#200 = ORIENTED_EDGE ( 'NONE', *, *, #712, .T. ) ;
#201 = LINE ( 'NONE', #402, #555 ) ;
#202 = FACE_OUTER_BOUND ( 'NONE', #658, .T. ) ;
#203 = CYLINDRICAL_SURFACE ( 'NONE', #179, 0.8000000000000020400 ) ;
#204 = LOCAL_TIME ( 8, 12, 38.00000000000000000, #450 ) ;
#205 = CARTESIAN_POINT ( 'NONE',  ( -11.53653846153846100, -2.725176065070117100, 15.00000000000000000 ) ) ;
#206 = VERTEX_POINT ( 'NONE', #726 ) ;
#207 = CARTESIAN_POINT ( 'NONE',  ( 13.40000000000000700, -5.499999999999998200, 15.00000000000000000 ) ) ;
#208 = CARTESIAN_POINT ( 'NONE',  ( -33.50000000000000000, -1.925176065070119700, 0.0000000000000000000 ) ) ;
#209 = FACE_OUTER_BOUND ( 'NONE', #151, .T. ) ;
#210 = ORIENTED_EDGE ( 'NONE', *, *, #790, .F. ) ;
#211 = DIRECTION ( 'NONE',  ( -0.0000000000000000000, 1.000000000000000000, -0.0000000000000000000 ) ) ;
#212 = DIRECTION ( 'NONE',  ( 1.000000000000000000, 0.0000000000000000000, -0.0000000000000000000 ) ) ;
#213 = CC_DESIGN_PERSON_AND_ORGANIZATION_ASSIGNMENT ( #188, #233, ( #340 ) ) ;
#214 = EDGE_CURVE ( 'NONE', #33, #12, #155, .T. ) ;
#215 = DIRECTION ( 'NONE',  ( -1.426852590173899500E-016, 1.000000000000000000, 0.0000000000000000000 ) ) ;
#216 = ORIENTED_EDGE ( 'NONE', *, *, #129, .T. ) ;
#217 = DIRECTION ( 'NONE',  ( -0.0000000000000000000, 1.000000000000000000, -0.0000000000000000000 ) ) ;
#218 = CARTESIAN_POINT ( 'NONE',  ( 14.21989379029279900, -3.768743813238851500, 15.00000000000000000 ) ) ;
#219 = DIRECTION ( 'NONE',  ( 1.426852590173899500E-016, 1.000000000000000000, -0.0000000000000000000 ) ) ;
#220 = ORIENTED_EDGE ( 'NONE', *, *, #600, .F. ) ;
#221 = VECTOR ( 'NONE', #463, 1000.000000000000000 ) ;
#222 = AXIS2_PLACEMENT_3D ( 'NONE', #651, #239, #314 ) ;
#223 =( NAMED_UNIT ( * ) SI_UNIT ( $, .STERADIAN. ) SOLID_ANGLE_UNIT ( ) );
#224 = FACE_OUTER_BOUND ( 'NONE', #356, .T. ) ;
#225 = CARTESIAN_POINT ( 'NONE',  ( 11.53653846153846100, -3.768743813238855100, 15.00000000000000000 ) ) ;
#226 = DIRECTION ( 'NONE',  ( -1.000000000000000000, 0.0000000000000000000, 0.0000000000000000000 ) ) ;
#227 = COORDINATED_UNIVERSAL_TIME_OFFSET ( 7, 0, .BEHIND. ) ;
#228 = VERTEX_POINT ( 'NONE', #64 ) ;
#229 = AXIS2_PLACEMENT_3D ( 'NONE', #584, #174, #710 ) ;
#230 = VERTEX_POINT ( 'NONE', #399 ) ;
#231 = DIRECTION ( 'NONE',  ( -0.0000000000000000000, -0.0000000000000000000, -1.000000000000000000 ) ) ;
#232 = EDGE_CURVE ( 'NONE', #597, #632, #27, .T. ) ;
#233 = PERSON_AND_ORGANIZATION_ROLE ( 'creator' ) ;
#234 = DIRECTION ( 'NONE',  ( 1.000000000000000000, 0.0000000000000000000, 0.0000000000000000000 ) ) ;
#235 = ORIENTED_EDGE ( 'NONE', *, *, #359, .F. ) ;
#236 = DIRECTION ( 'NONE',  ( -1.000000000000000000, 0.0000000000000000000, 0.0000000000000000000 ) ) ;
#237 = EDGE_LOOP ( 'NONE', ( #776, #786, #850, #812, #716, #803, #177 ) ) ;
#238 = CARTESIAN_POINT ( 'NONE',  ( -15.26346153846153300, -3.768743813238851500, 15.00000000000000000 ) ) ;
#239 = DIRECTION ( 'NONE',  ( -0.0000000000000000000, -0.0000000000000000000, -1.000000000000000000 ) ) ;
#240 = ORIENTED_EDGE ( 'NONE', *, *, #191, .F. ) ;
#241 = EDGE_CURVE ( 'NONE', #539, #632, #513, .T. ) ;
#242 = CARTESIAN_POINT ( 'NONE',  ( -13.40000000000000000, -5.499999999999998200, 15.00000000000000000 ) ) ;
#243 = DIRECTION ( 'NONE',  ( -0.0000000000000000000, -0.0000000000000000000, -1.000000000000000000 ) ) ;
#244 = ORIENTED_EDGE ( 'NONE', *, *, #8, .T. ) ;
#245 = CARTESIAN_POINT ( 'NONE',  ( -15.26346153846153300, -2.725176065070117100, 15.00000000000000000 ) ) ;
#246 = LINE ( 'NONE', #116, #717 ) ;
#247 = ORIENTED_EDGE ( 'NONE', *, *, #257, .T. ) ;
#248 = CIRCLE ( 'NONE', #474, 0.8000000000000020400 ) ;
#249 = FACE_OUTER_BOUND ( 'NONE', #580, .T. ) ;
#250 = CYLINDRICAL_SURFACE ( 'NONE', #152, 1.500000000000001300 ) ;
#251 = DIRECTION ( 'NONE',  ( -1.000000000000000000, -0.0000000000000000000, -0.0000000000000000000 ) ) ;
#252 = CYLINDRICAL_SURFACE ( 'NONE', #694, 1.043567748168737500 ) ;
#253 = DIRECTION ( 'NONE',  ( 1.000000000000000000, 0.0000000000000000000, 0.0000000000000000000 ) ) ;
#254 = LINE ( 'NONE', #697, #187 ) ;
#255 = ORIENTED_EDGE ( 'NONE', *, *, #325, .F. ) ;
#256 = CARTESIAN_POINT ( 'NONE',  ( -33.50000000000000000, -1.125176065070119500, 6.399999999999999500 ) ) ;
#257 = EDGE_CURVE ( 'NONE', #56, #530, #10, .T. ) ;
#258 = CARTESIAN_POINT ( 'NONE',  ( -36.00000000000000000, -6.999999999999999100, 6.399999999999999500 ) ) ;
#259 = CYLINDRICAL_SURFACE ( 'NONE', #451, 1.043567748168737500 ) ;
#260 = LINE ( 'NONE', #739, #392 ) ;
#261 = ORIENTED_EDGE ( 'NONE', *, *, #122, .F. ) ;
#262 = ADVANCED_FACE ( 'NONE', ( #771 ), #546, .F. ) ;
#263 = FACE_OUTER_BOUND ( 'NONE', #663, .T. ) ;
#264 = CYLINDRICAL_SURFACE ( 'NONE', #477, 1.500000000000001300 ) ;
#265 = EDGE_CURVE ( 'NONE', #807, #597, #58, .T. ) ;
#266 = DIRECTION ( 'NONE',  ( 0.0000000000000000000, 0.0000000000000000000, 1.000000000000000000 ) ) ;
#267 = LINE ( 'NONE', #173, #676 ) ;
#268 = LINE ( 'NONE', #644, #537 ) ;
#269 = ADVANCED_FACE ( 'NONE', ( #140 ), #805, .T. ) ;
#270 = ORIENTED_EDGE ( 'NONE', *, *, #509, .T. ) ;
#271 = AXIS2_PLACEMENT_3D ( 'NONE', #119, #41, #236 ) ;
#272 = CIRCLE ( 'NONE', #398, 0.8000000000000020400 ) ;
#273 = APPROVAL_PERSON_ORGANIZATION ( #295, #418, #436 ) ;
#274 = CARTESIAN_POINT ( 'NONE',  ( -33.50000000000000000, -1.925176065070119700, 6.399999999999999500 ) ) ;
#275 = EDGE_CURVE ( 'NONE', #133, #360, #565, .T. ) ;
#276 = ORIENTED_EDGE ( 'NONE', *, *, #554, .T. ) ;
#277 = DIRECTION ( 'NONE',  ( 1.000000000000000000, 0.0000000000000000000, 0.0000000000000000000 ) ) ;
#278 = DIRECTION ( 'NONE',  ( 0.0000000000000000000, 0.0000000000000000000, 1.000000000000000000 ) ) ;
#279 = EDGE_CURVE ( 'NONE', #632, #158, #544, .T. ) ;
#280 = EDGE_LOOP ( 'NONE', ( #665, #87, #73, #515, #166, #136, #31 ) ) ;
#281 = DIRECTION ( 'NONE',  ( -0.0000000000000000000, -0.0000000000000000000, -1.000000000000000000 ) ) ;
#282 = CIRCLE ( 'NONE', #626, 1.043567748168737500 ) ;
#283 = DIRECTION ( 'NONE',  ( 1.000000000000000000, 0.0000000000000000000, 0.0000000000000000000 ) ) ;
#284 = FACE_OUTER_BOUND ( 'NONE', #681, .T. ) ;
#285 = CARTESIAN_POINT ( 'NONE',  ( 15.26346153846153300, -2.725176065070117100, 15.00000000000000000 ) ) ;
#286 = VERTEX_POINT ( 'NONE', #552 ) ;
#287 = EDGE_CURVE ( 'NONE', #230, #39, #669, .T. ) ;
#288 = DIRECTION ( 'NONE',  ( -0.0000000000000000000, -0.0000000000000000000, -1.000000000000000000 ) ) ;
#289 = DIRECTION ( 'NONE',  ( -0.0000000000000000000, -0.0000000000000000000, -1.000000000000000000 ) ) ;
#290 = LINE ( 'NONE', #100, #730 ) ;
#291 = CARTESIAN_POINT ( 'NONE',  ( -33.50000000000000000, -1.925176065070119700, 15.00000000000000000 ) ) ;
#292 = EDGE_LOOP ( 'NONE', ( #582, #532, #156, #441 ) ) ;
#293 = DIRECTION ( 'NONE',  ( 0.0000000000000000000, 0.0000000000000000000, 1.000000000000000000 ) ) ;
#294 = ORIENTED_EDGE ( 'NONE', *, *, #85, .F. ) ;
#295 = PERSON_AND_ORGANIZATION ( #74, #759 ) ;
#296 = DIRECTION ( 'NONE',  ( -0.0000000000000000000, -0.0000000000000000000, -1.000000000000000000 ) ) ;
#297 = ORIENTED_EDGE ( 'NONE', *, *, #313, .F. ) ;
#298 = PERSON_AND_ORGANIZATION_ROLE ( 'design_supplier' ) ;
#299 = ORIENTED_EDGE ( 'NONE', *, *, #705, .F. ) ;
#300 = CARTESIAN_POINT ( 'NONE',  ( -15.26346153846153300, -2.725176065070117100, 0.0000000000000000000 ) ) ;
#301 = EDGE_LOOP ( 'NONE', ( #506, #240, #345, #71 ) ) ;
#302 = EDGE_CURVE ( 'NONE', #44, #206, #121, .T. ) ;
#303 = AXIS2_PLACEMENT_3D ( 'NONE', #92, #483, #89 ) ;
#304 = CARTESIAN_POINT ( 'NONE',  ( 14.49892583348909300, -4.479038682177278300, 0.0000000000000000000 ) ) ;
#305 = AXIS2_PLACEMENT_3D ( 'NONE', #132, #602, #453 ) ;
#306 = DIRECTION ( 'NONE',  ( 0.0000000000000000000, 0.0000000000000000000, 1.000000000000000000 ) ) ;
#307 = DIRECTION ( 'NONE',  ( 0.0000000000000000000, 0.0000000000000000000, -1.000000000000000000 ) ) ;
#308 = CIRCLE ( 'NONE', #229, 1.500000000000001300 ) ;
#309 = DIRECTION ( 'NONE',  ( 0.0000000000000000000, 1.000000000000000000, 0.0000000000000000000 ) ) ;
#310 = DIRECTION ( 'NONE',  ( 1.000000000000000000, 1.426852590173899500E-016, -0.0000000000000000000 ) ) ;
#311 = CARTESIAN_POINT ( 'NONE',  ( 15.26346153846153300, -3.768743813238851500, 0.0000000000000000000 ) ) ;
#312 = EDGE_LOOP ( 'NONE', ( #68, #323, #52, #793 ) ) ;
#313 = EDGE_CURVE ( 'NONE', #499, #854, #260, .T. ) ;
#314 = DIRECTION ( 'NONE',  ( -1.000000000000000000, 0.0000000000000000000, 0.0000000000000000000 ) ) ;
#315 = FACE_OUTER_BOUND ( 'NONE', #237, .T. ) ;
#316 = FACE_OUTER_BOUND ( 'NONE', #423, .T. ) ;
#317 = ORIENTED_EDGE ( 'NONE', *, *, #302, .F. ) ;
#318 = VERTEX_POINT ( 'NONE', #90 ) ;
#319 = DIRECTION ( 'NONE',  ( -1.000000000000000000, 0.0000000000000000000, 0.0000000000000000000 ) ) ;
#320 = DIRECTION ( 'NONE',  ( -0.0000000000000000000, -0.0000000000000000000, -1.000000000000000000 ) ) ;
#321 = AXIS2_PLACEMENT_3D ( 'NONE', #274, #811, #411 ) ;
#322 = CARTESIAN_POINT ( 'NONE',  ( 11.53653846153846100, -2.725176065070118000, 0.0000000000000000000 ) ) ;
#323 = ORIENTED_EDGE ( 'NONE', *, *, #434, .F. ) ;
#324 = CC_DESIGN_DATE_AND_TIME_ASSIGNMENT ( #470, #429, ( #733 ) ) ;
#325 = EDGE_CURVE ( 'NONE', #820, #806, #721, .T. ) ;
#326 = CARTESIAN_POINT ( 'NONE',  ( -33.50000000000000000, -1.125176065070119700, 0.0000000000000000000 ) ) ;
#327 = CIRCLE ( 'NONE', #703, 1.500000000000001300 ) ;
#328 = ORIENTED_EDGE ( 'NONE', *, *, #76, .T. ) ;
#329 = CARTESIAN_POINT ( 'NONE',  ( 11.53653846153846100, -3.768743813238855100, 15.00000000000000000 ) ) ;
#330 = PERSON_AND_ORGANIZATION ( #74, #759 ) ;
#331 = CARTESIAN_POINT ( 'NONE',  ( 13.40000000000000700, -5.499999999999998200, 0.0000000000000000000 ) ) ;
#332 = ORIENTED_EDGE ( 'NONE', *, *, #49, .F. ) ;
#333 = ADVANCED_FACE ( 'NONE', ( #653 ), #741, .F. ) ;
#334 = FACE_OUTER_BOUND ( 'NONE', #36, .T. ) ;
#335 = EDGE_CURVE ( 'NONE', #12, #820, #327, .T. ) ;
#336 = AXIS2_PLACEMENT_3D ( 'NONE', #731, #266, #83 ) ;
#337 = ORIENTED_EDGE ( 'NONE', *, *, #471, .T. ) ;
#338 = FACE_OUTER_BOUND ( 'NONE', #381, .T. ) ;
#339 = ADVANCED_FACE ( 'NONE', ( #249 ), #86, .F. ) ;
#340 = PRODUCT_DEFINITION ( 'UNKNOWN', '', #553, #70 ) ;
#341 = ADVANCED_FACE ( 'NONE', ( #209 ), #643, .F. ) ;
#342 = AXIS2_PLACEMENT_3D ( 'NONE', #832, #690, #226 ) ;
#343 = EDGE_CURVE ( 'NONE', #457, #228, #458, .T. ) ;
#344 = DIRECTION ( 'NONE',  ( -1.000000000000000000, -2.168404344971006900E-016, 0.0000000000000000000 ) ) ;
#345 = ORIENTED_EDGE ( 'NONE', *, *, #476, .F. ) ;
#346 = LINE ( 'NONE', #661, #516 ) ;
#347 = AXIS2_PLACEMENT_3D ( 'NONE', #751, #627, #16 ) ;
#348 = COORDINATED_UNIVERSAL_TIME_OFFSET ( 7, 0, .BEHIND. ) ;
#349 = ORIENTED_EDGE ( 'NONE', *, *, #8, .F. ) ;
#350 = DIRECTION ( 'NONE',  ( 0.0000000000000000000, 1.000000000000000000, 0.0000000000000000000 ) ) ;
#351 = VERTEX_POINT ( 'NONE', #683 ) ;
#352 = CARTESIAN_POINT ( 'NONE',  ( -11.53653846153846100, -3.768743813238855100, 15.00000000000000000 ) ) ;
#353 = CARTESIAN_POINT ( 'NONE',  ( 13.40000000000000700, -5.499999999999998200, 0.0000000000000000000 ) ) ;
#354 = EDGE_CURVE ( 'NONE', #806, #427, #46, .T. ) ;
#355 = CARTESIAN_POINT ( 'NONE',  ( -12.58010620970719800, -3.768743813238855100, 0.0000000000000000000 ) ) ;
#356 = EDGE_LOOP ( 'NONE', ( #844, #745, #405, #386 ) ) ;
#357 = DIRECTION ( 'NONE',  ( -0.0000000000000000000, -0.0000000000000000000, -1.000000000000000000 ) ) ;
#358 = ORIENTED_EDGE ( 'NONE', *, *, #600, .T. ) ;
#359 = EDGE_CURVE ( 'NONE', #854, #457, #88, .T. ) ;
#360 = VERTEX_POINT ( 'NONE', #819 ) ;
#361 = DIRECTION ( 'NONE',  ( 1.000000000000000000, 0.0000000000000000000, 0.0000000000000000000 ) ) ;
#362 =( LENGTH_UNIT ( ) NAMED_UNIT ( * ) SI_UNIT ( .MILLI., .METRE. ) );
#363 = AXIS2_PLACEMENT_3D ( 'NONE', #311, #780, #514 ) ;
#364 = LINE ( 'NONE', #714, #755 ) ;
#365 = PERSON_AND_ORGANIZATION_ROLE ( 'creator' ) ;
#366 = AXIS2_PLACEMENT_3D ( 'NONE', #96, #164, #103 ) ;
#367 = VECTOR ( 'NONE', #618, 1000.000000000000000 ) ;
#368 = CARTESIAN_POINT ( 'NONE',  ( 11.53653846153846100, -3.768743813238855100, 0.0000000000000000000 ) ) ;
#369 = FACE_OUTER_BOUND ( 'NONE', #301, .T. ) ;
#370 = VECTOR ( 'NONE', #217, 1000.000000000000000 ) ;
#371 = CALENDAR_DATE ( 2019, 19, 10 ) ;
#372 = DIRECTION ( 'NONE',  ( -0.0000000000000000000, -0.0000000000000000000, -1.000000000000000000 ) ) ;
#373 = ORIENTED_EDGE ( 'NONE', *, *, #490, .F. ) ;
#374 = APPROVAL_ROLE ( '' ) ;
#375 = VERTEX_POINT ( 'NONE', #760 ) ;
#376 = EDGE_CURVE ( 'NONE', #728, #522, #769, .T. ) ;
#377 = CARTESIAN_POINT ( 'NONE',  ( -14.90000000000000200, -5.499999999999998200, 0.0000000000000000000 ) ) ;
#378 = CARTESIAN_POINT ( 'NONE',  ( -15.50000000000000000, -3.768743813238851500, 15.00000000000000000 ) ) ;
#379 = VERTEX_POINT ( 'NONE', #218 ) ;
#380 = AXIS2_PLACEMENT_3D ( 'NONE', #635, #764, #695 ) ;
#381 = EDGE_LOOP ( 'NONE', ( #332, #673, #82, #48, #601 ) ) ;
#382 = DIRECTION ( 'NONE',  ( -0.0000000000000000000, -0.0000000000000000000, -1.000000000000000000 ) ) ;
#383 = VECTOR ( 'NONE', #23, 1000.000000000000000 ) ;
#384 = ORIENTED_EDGE ( 'NONE', *, *, #183, .T. ) ;
#385 = CARTESIAN_POINT ( 'NONE',  ( -11.53653846153846100, -3.768743813238855100, 0.0000000000000000000 ) ) ;
#386 = ORIENTED_EDGE ( 'NONE', *, *, #630, .T. ) ;
#387 = DIRECTION ( 'NONE',  ( -1.000000000000000000, -0.0000000000000000000, -0.0000000000000000000 ) ) ;
#388 = CIRCLE ( 'NONE', #410, 0.8000000000000020400 ) ;
#389 = VECTOR ( 'NONE', #251, 1000.000000000000000 ) ;
#390 = CARTESIAN_POINT ( 'NONE',  ( -15.26346153846153300, -3.768743813238851500, 15.00000000000000000 ) ) ;
#391 = APPROVAL ( #765, 'UNSPECIFIED' ) ;
#392 = VECTOR ( 'NONE', #281, 1000.000000000000000 ) ;
#393 = AXIS2_PLACEMENT_3D ( 'NONE', #291, #430, #433 ) ;
#394 = PLANE ( 'NONE',  #592 ) ;
#395 = EDGE_CURVE ( 'NONE', #44, #482, #527, .T. ) ;
#396 = COORDINATED_UNIVERSAL_TIME_OFFSET ( 7, 0, .BEHIND. ) ;
#397 = ORIENTED_EDGE ( 'NONE', *, *, #614, .T. ) ;
#398 = AXIS2_PLACEMENT_3D ( 'NONE', #208, #426, #619 ) ;
#399 = CARTESIAN_POINT ( 'NONE',  ( -15.50000000000000000, -2.725176065070117100, 8.400000000000012800 ) ) ;
#400 = ORIENTED_EDGE ( 'NONE', *, *, #275, .T. ) ;
#401 = ADVANCED_FACE ( 'NONE', ( #834 ), #677, .T. ) ;
#402 = CARTESIAN_POINT ( 'NONE',  ( 14.21989379029279900, -3.768743813238851500, 15.00000000000000000 ) ) ;
#403 = EDGE_CURVE ( 'NONE', #522, #746, #557, .T. ) ;
#404 = CYLINDRICAL_SURFACE ( 'NONE', #486, 1.043567748168737500 ) ;
#405 = ORIENTED_EDGE ( 'NONE', *, *, #421, .F. ) ;
#406 = FACE_OUTER_BOUND ( 'NONE', #439, .T. ) ;
#407 = FACE_OUTER_BOUND ( 'NONE', #292, .T. ) ;
#408 = LINE ( 'NONE', #855, #468 ) ;
#409 = ADVANCED_FACE ( 'NONE', ( #480 ), #620, .T. ) ;
#410 = AXIS2_PLACEMENT_3D ( 'NONE', #724, #727, #459 ) ;
#411 = DIRECTION ( 'NONE',  ( -1.000000000000000000, 0.0000000000000000000, 0.0000000000000000000 ) ) ;
#412 = PERSON_AND_ORGANIZATION ( #74, #759 ) ;
#413 = ORIENTED_EDGE ( 'NONE', *, *, #257, .F. ) ;
#414 = DIRECTION ( 'NONE',  ( -1.000000000000000000, -1.426852590173899500E-016, 0.0000000000000000000 ) ) ;
#415 = CARTESIAN_POINT ( 'NONE',  ( -34.30000000000000400, -1.925176065070119700, 0.0000000000000000000 ) ) ;
#416 = EDGE_LOOP ( 'NONE', ( #579, #373, #794, #276 ) ) ;
#417 = ORIENTED_EDGE ( 'NONE', *, *, #265, .T. ) ;
#418 = APPROVAL ( #162, 'UNSPECIFIED' ) ;
#419 = DIRECTION ( 'NONE',  ( -1.000000000000000000, 0.0000000000000000000, 0.0000000000000000000 ) ) ;
#420 = DIRECTION ( 'NONE',  ( -0.0000000000000000000, 1.000000000000000000, -0.0000000000000000000 ) ) ;
#421 = EDGE_CURVE ( 'NONE', #360, #33, #742, .T. ) ;
#422 = CARTESIAN_POINT ( 'NONE',  ( -17.50000000000000000, -1.125176065070119500, 8.400000000000000400 ) ) ;
#423 = EDGE_LOOP ( 'NONE', ( #42, #603, #507, #680 ) ) ;
#424 = DIRECTION ( 'NONE',  ( 0.0000000000000000000, 0.0000000000000000000, 1.000000000000000000 ) ) ;
#425 = ORIENTED_EDGE ( 'NONE', *, *, #461, .F. ) ;
#426 = DIRECTION ( 'NONE',  ( 0.0000000000000000000, 0.0000000000000000000, 1.000000000000000000 ) ) ;
#427 = VERTEX_POINT ( 'NONE', #304 ) ;
#428 = LINE ( 'NONE', #172, #389 ) ;
#429 = DATE_TIME_ROLE ( 'classification_date' ) ;
#430 = DIRECTION ( 'NONE',  ( -0.0000000000000000000, -0.0000000000000000000, -1.000000000000000000 ) ) ;
#431 = SECURITY_CLASSIFICATION_LEVEL ( 'unclassified' ) ;
#432 = AXIS2_PLACEMENT_3D ( 'NONE', #105, #219, #645 ) ;
#433 = DIRECTION ( 'NONE',  ( -1.000000000000000000, 0.0000000000000000000, 0.0000000000000000000 ) ) ;
#434 = EDGE_CURVE ( 'NONE', #1, #445, #194, .T. ) ;
#435 = UNCERTAINTY_MEASURE_WITH_UNIT (LENGTH_MEASURE( 1.000000000000000100E-005 ), #362, 'distance_accuracy_value', 'NONE');
#436 = APPROVAL_ROLE ( '' ) ;
#437 = DIRECTION ( 'NONE',  ( -1.000000000000000000, -1.426852590173899500E-016, 0.0000000000000000000 ) ) ;
#438 = DIRECTION ( 'NONE',  ( -0.0000000000000000000, -0.0000000000000000000, -1.000000000000000000 ) ) ;
#439 = EDGE_LOOP ( 'NONE', ( #587, #337, #617, #317 ) ) ;
#440 = DIRECTION ( 'NONE',  ( 1.000000000000000000, 0.0000000000000000000, 0.0000000000000000000 ) ) ;
#441 = ORIENTED_EDGE ( 'NONE', *, *, #199, .T. ) ;
#442 = AXIS2_PLACEMENT_3D ( 'NONE', #190, #598, #192 ) ;
#443 = CALENDAR_DATE ( 2019, 19, 10 ) ;
#444 = DIRECTION ( 'NONE',  ( 1.000000000000000000, 0.0000000000000000000, 0.0000000000000000000 ) ) ;
#445 = VERTEX_POINT ( 'NONE', #106 ) ;
#446 = ORIENTED_EDGE ( 'NONE', *, *, #461, .T. ) ;
#447 = CARTESIAN_POINT ( 'NONE',  ( -12.30107416651090400, -4.479038682177281000, 15.00000000000000000 ) ) ;
#448 = DIRECTION ( 'NONE',  ( 0.0000000000000000000, 0.0000000000000000000, -1.000000000000000000 ) ) ;
#449 = VECTOR ( 'NONE', #420, 1000.000000000000000 ) ;
#450 = COORDINATED_UNIVERSAL_TIME_OFFSET ( 7, 0, .BEHIND. ) ;
#451 = AXIS2_PLACEMENT_3D ( 'NONE', #843, #243, #517 ) ;
#452 = DIRECTION ( 'NONE',  ( -1.000000000000000000, 0.0000000000000000000, 0.0000000000000000000 ) ) ;
#453 = DIRECTION ( 'NONE',  ( 1.000000000000000000, 0.0000000000000000000, 0.0000000000000000000 ) ) ;
#454 = PLANE ( 'NONE',  #671 ) ;
#455 = EDGE_CURVE ( 'NONE', #142, #807, #290, .T. ) ;
#456 = DIRECTION ( 'NONE',  ( -0.0000000000000000000, -0.0000000000000000000, -1.000000000000000000 ) ) ;
#457 = VERTEX_POINT ( 'NONE', #700 ) ;
#458 = CIRCLE ( 'NONE', #366, 1.043567748168734000 ) ;
#459 = DIRECTION ( 'NONE',  ( 1.000000000000000000, 0.0000000000000000000, 0.0000000000000000000 ) ) ;
#460 = ORIENTED_EDGE ( 'NONE', *, *, #529, .T. ) ;
#461 = EDGE_CURVE ( 'NONE', #133, #728, #268, .T. ) ;
#462 = LOCAL_TIME ( 8, 12, 38.00000000000000000, #227 ) ;
#463 = DIRECTION ( 'NONE',  ( -0.0000000000000000000, -0.0000000000000000000, -1.000000000000000000 ) ) ;
#464 = AXIS2_PLACEMENT_3D ( 'NONE', #693, #497, #503 ) ;
#465 = ORIENTED_EDGE ( 'NONE', *, *, #585, .F. ) ;
#466 = CYLINDRICAL_SURFACE ( 'NONE', #222, 1.500000000000001300 ) ;
#467 = ADVANCED_FACE ( 'NONE', ( #823 ), #120, .T. ) ;
#468 = VECTOR ( 'NONE', #448, 1000.000000000000000 ) ;
#469 = ORIENTED_EDGE ( 'NONE', *, *, #214, .T. ) ;
#470 = DATE_AND_TIME ( #443, #549 ) ;
#471 = EDGE_CURVE ( 'NONE', #286, #375, #804, .T. ) ;
#472 = EDGE_LOOP ( 'NONE', ( #495, #610, #110, #533 ) ) ;
#473 = PRODUCT ( 'MX07', 'MX07', '', ( #763 ) ) ;
#474 = AXIS2_PLACEMENT_3D ( 'NONE', #845, #647, #707 ) ;
#475 = EDGE_LOOP ( 'NONE', ( #45, #817, #567, #809 ) ) ;
#476 = EDGE_CURVE ( 'NONE', #111, #1, #861, .T. ) ;
#477 = AXIS2_PLACEMENT_3D ( 'NONE', #149, #815, #95 ) ;
#478 = DIRECTION ( 'NONE',  ( 0.0000000000000000000, 0.0000000000000000000, 1.000000000000000000 ) ) ;
#479 = ORIENTED_EDGE ( 'NONE', *, *, #403, .F. ) ;
#480 = FACE_OUTER_BOUND ( 'NONE', #785, .T. ) ;
#481 = CARTESIAN_POINT ( 'NONE',  ( 14.90000000000000900, -5.499999999999998200, 15.00000000000000000 ) ) ;
#482 = VERTEX_POINT ( 'NONE', #835 ) ;
#483 = DIRECTION ( 'NONE',  ( 1.000000000000000000, 0.0000000000000000000, 0.0000000000000000000 ) ) ;
#484 = ORIENTED_EDGE ( 'NONE', *, *, #654, .F. ) ;
#485 = CARTESIAN_POINT ( 'NONE',  ( -17.50000000000000000, -6.999999999999999100, 8.400000000000000400 ) ) ;
#486 = AXIS2_PLACEMENT_3D ( 'NONE', #329, #525, #791 ) ;
#487 = ADVANCED_FACE ( 'NONE', ( #334 ), #57, .F. ) ;
#488 = ORIENTED_EDGE ( 'NONE', *, *, #122, .T. ) ;
#489 = DIRECTION ( 'NONE',  ( -0.0000000000000000000, -0.0000000000000000000, -1.000000000000000000 ) ) ;
#490 = EDGE_CURVE ( 'NONE', #445, #286, #668, .T. ) ;
#491 = EDGE_LOOP ( 'NONE', ( #130, #235, #798, #629, #5, #26, #573, #484, #831, #220, #413, #139, #479, #641, #349, #294, #21, #123, #465 ) ) ;
#492 = DIRECTION ( 'NONE',  ( -1.000000000000000000, 0.0000000000000000000, 0.0000000000000000000 ) ) ;
#493 = CIRCLE ( 'NONE', #853, 1.043567748168734000 ) ;
#494 = PERSON_AND_ORGANIZATION ( #74, #759 ) ;
#495 = ORIENTED_EDGE ( 'NONE', *, *, #858, .T. ) ;
#496 = VERTEX_POINT ( 'NONE', #768 ) ;
#497 = DIRECTION ( 'NONE',  ( -0.0000000000000000000, -0.0000000000000000000, -1.000000000000000000 ) ) ;
#498 = AXIS2_PLACEMENT_3D ( 'NONE', #353, #478, #686 ) ;
#499 = VERTEX_POINT ( 'NONE', #181 ) ;
#500 = CARTESIAN_POINT ( 'NONE',  ( -33.50000000000000000, -2.725176065070119800, 0.0000000000000000000 ) ) ;
#501 = CARTESIAN_POINT ( 'NONE',  ( 13.40000000000000700, -5.499999999999998200, 15.00000000000000000 ) ) ;
#502 = ORIENTED_EDGE ( 'NONE', *, *, #63, .T. ) ;
#503 = DIRECTION ( 'NONE',  ( 1.000000000000000000, 0.0000000000000000000, 0.0000000000000000000 ) ) ;
#504 = CARTESIAN_POINT ( 'NONE',  ( 12.30107416651090800, -4.479038682177284500, 15.00000000000000000 ) ) ;
#505 = CARTESIAN_POINT ( 'NONE',  ( 13.40000000000000700, -5.499999999999998200, 15.00000000000000000 ) ) ;
#506 = ORIENTED_EDGE ( 'NONE', *, *, #343, .T. ) ;
#507 = ORIENTED_EDGE ( 'NONE', *, *, #302, .T. ) ;
#508 = CARTESIAN_POINT ( 'NONE',  ( -33.50000000000000000, -1.925176065070119700, 15.00000000000000000 ) ) ;
#509 = EDGE_CURVE ( 'NONE', #351, #111, #589, .T. ) ;
#510 = AXIS2_PLACEMENT_3D ( 'NONE', #501, #830, #827 ) ;
#511 = VECTOR ( 'NONE', #160, 1000.000000000000000 ) ;
#512 = DIRECTION ( 'NONE',  ( -0.0000000000000000000, -0.0000000000000000000, -1.000000000000000000 ) ) ;
#513 = CIRCLE ( 'NONE', #321, 0.8000000000000020400 ) ;
#514 = DIRECTION ( 'NONE',  ( -1.000000000000000000, 0.0000000000000000000, 0.0000000000000000000 ) ) ;
#515 = ORIENTED_EDGE ( 'NONE', *, *, #359, .T. ) ;
#516 = VECTOR ( 'NONE', #860, 1000.000000000000000 ) ;
#517 = DIRECTION ( 'NONE',  ( -1.000000000000000000, 0.0000000000000000000, 0.0000000000000000000 ) ) ;
#518 = CC_DESIGN_PERSON_AND_ORGANIZATION_ASSIGNMENT ( #330, #701, ( #733 ) ) ;
#519 = CARTESIAN_POINT ( 'NONE',  ( 33.50000000000000000, -2.725176065070119800, 0.0000000000000000000 ) ) ;
#520 = EDGE_CURVE ( 'NONE', #318, #158, #428, .T. ) ;
#521 = CARTESIAN_POINT ( 'NONE',  ( -33.50000000000000000, -1.125176065070119500, 15.00000000000000000 ) ) ;
#522 = VERTEX_POINT ( 'NONE', #322 ) ;
#523 = CARTESIAN_POINT ( 'NONE',  ( -13.40000000000000000, -5.499999999999998200, 0.0000000000000000000 ) ) ;
#524 = AXIS2_PLACEMENT_3D ( 'NONE', #35, #38, #586 ) ;
#525 = DIRECTION ( 'NONE',  ( -0.0000000000000000000, -0.0000000000000000000, -1.000000000000000000 ) ) ;
#526 = ORIENTED_EDGE ( 'NONE', *, *, #354, .T. ) ;
#527 = CIRCLE ( 'NONE', #464, 1.043567748168737500 ) ;
#528 = DIRECTION ( 'NONE',  ( -1.000000000000000000, 0.0000000000000000000, 0.0000000000000000000 ) ) ;
#529 = EDGE_CURVE ( 'NONE', #826, #854, #248, .T. ) ;
#530 = VERTEX_POINT ( 'NONE', #857 ) ;
#531 = DIRECTION ( 'NONE',  ( 0.0000000000000000000, -0.0000000000000000000, -1.000000000000000000 ) ) ;
#532 = ORIENTED_EDGE ( 'NONE', *, *, #214, .F. ) ;
#533 = ORIENTED_EDGE ( 'NONE', *, *, #571, .T. ) ;
#534 = CARTESIAN_POINT ( 'NONE',  ( -34.30000000000000400, -1.925176065070119700, 15.00000000000000000 ) ) ;
#535 = DIRECTION ( 'NONE',  ( -0.0000000000000000000, -0.0000000000000000000, -1.000000000000000000 ) ) ;
#536 = AXIS2_PLACEMENT_3D ( 'NONE', #207, #30, #419 ) ;
#537 = VECTOR ( 'NONE', #438, 1000.000000000000000 ) ;
#538 = VERTEX_POINT ( 'NONE', #377 ) ;
#539 = VERTEX_POINT ( 'NONE', #779 ) ;
#540 = CC_DESIGN_DATE_AND_TIME_ASSIGNMENT ( #135, #692, ( #340 ) ) ;
#541 = ADVANCED_FACE ( 'NONE', ( #792 ), #252, .F. ) ;
#542 = ORIENTED_EDGE ( 'NONE', *, *, #395, .T. ) ;
#543 = ORIENTED_EDGE ( 'NONE', *, *, #421, .T. ) ;
#544 = LINE ( 'NONE', #560, #367 ) ;
#545 = VERTEX_POINT ( 'NONE', #180 ) ;
#546 = PLANE ( 'NONE',  #639 ) ;
#547 = DIRECTION ( 'NONE',  ( -1.000000000000000000, -0.0000000000000000000, -0.0000000000000000000 ) ) ;
#548 = VECTOR ( 'NONE', #547, 1000.000000000000000 ) ;
#549 = LOCAL_TIME ( 8, 12, 38.00000000000000000, #638 ) ;
#550 = DIRECTION ( 'NONE',  ( 0.0000000000000000000, 0.0000000000000000000, -1.000000000000000000 ) ) ;
#551 = ORIENTED_EDGE ( 'NONE', *, *, #76, .F. ) ;
#552 = CARTESIAN_POINT ( 'NONE',  ( -11.89999999999999900, -5.499999999999998200, 15.00000000000000000 ) ) ;
#553 = PRODUCT_DEFINITION_FORMATION_WITH_SPECIFIED_SOURCE ( 'ANY', '', #473, .NOT_KNOWN. ) ;
#554 = EDGE_CURVE ( 'NONE', #538, #375, #758, .T. ) ;
#555 = VECTOR ( 'NONE', #55, 1000.000000000000000 ) ;
#556 = CARTESIAN_POINT ( 'NONE',  ( -12.30107416651090400, -4.479038682177281000, 15.00000000000000000 ) ) ;
#557 = CIRCLE ( 'NONE', #723, 1.043567748168737500 ) ;
#558 = CARTESIAN_POINT ( 'NONE',  ( -15.26346153846153300, -3.768743813238851500, 15.00000000000000000 ) ) ;
#559 = CC_DESIGN_PERSON_AND_ORGANIZATION_ASSIGNMENT ( #796, #365, ( #553 ) ) ;
#560 = CARTESIAN_POINT ( 'NONE',  ( -33.50000000000000000, -1.125176065070119700, 15.00000000000000000 ) ) ;
#561 = DIRECTION ( 'NONE',  ( 0.0000000000000000000, 0.0000000000000000000, 1.000000000000000000 ) ) ;
#562 = CARTESIAN_POINT ( 'NONE',  ( -17.50000000000000000, -2.725176065070117100, 8.400000000000000400 ) ) ;
#563 = DIRECTION ( 'NONE',  ( 1.000000000000000000, 0.0000000000000000000, 0.0000000000000000000 ) ) ;
#564 = CC_DESIGN_APPROVAL ( #418, ( #733 ) ) ;
#565 = LINE ( 'NONE', #205, #99 ) ;
#566 = DIRECTION ( 'NONE',  ( 1.000000000000000000, 1.426852590173899500E-016, -0.0000000000000000000 ) ) ;
#567 = ORIENTED_EDGE ( 'NONE', *, *, #279, .T. ) ;
#568 = APPLICATION_PROTOCOL_DEFINITION ( 'international standard', 'config_control_design', 1994, #574 ) ;
#569 = VECTOR ( 'NONE', #125, 1000.000000000000000 ) ;
#570 = CARTESIAN_POINT ( 'NONE',  ( -11.89999999999999900, -5.499999999999998200, 15.00000000000000000 ) ) ;
#571 = EDGE_CURVE ( 'NONE', #545, #605, #591, .T. ) ;
#572 =( NAMED_UNIT ( * ) PLANE_ANGLE_UNIT ( ) SI_UNIT ( $, .RADIAN. ) );
#573 = ORIENTED_EDGE ( 'NONE', *, *, #670, .F. ) ;
#574 = APPLICATION_CONTEXT ( 'configuration controlled 3d designs of mechanical parts and assemblies' ) ;
#575 = DIRECTION ( 'NONE',  ( -1.000000000000000000, 0.0000000000000000000, 0.0000000000000000000 ) ) ;
#576 = DIRECTION ( 'NONE',  ( 0.0000000000000000000, 0.0000000000000000000, 1.000000000000000000 ) ) ;
#577 = CIRCLE ( 'NONE', #442, 1.043567748168734000 ) ;
#578 = CARTESIAN_POINT ( 'NONE',  ( -17.50000000000001400, -2.725176065070117100, 6.399999999999998600 ) ) ;
#579 = ORIENTED_EDGE ( 'NONE', *, *, #471, .F. ) ;
#580 = EDGE_LOOP ( 'NONE', ( #829, #784, #847, #446 ) ) ;
#581 = CARTESIAN_POINT ( 'NONE',  ( 33.50000000000000000, -1.925176065070119700, 15.00000000000000000 ) ) ;
#582 = ORIENTED_EDGE ( 'NONE', *, *, #183, .F. ) ;
#583 = ORIENTED_EDGE ( 'NONE', *, *, #654, .T. ) ;
#584 = CARTESIAN_POINT ( 'NONE',  ( -13.40000000000000000, -5.499999999999998200, 0.0000000000000000000 ) ) ;
#585 = EDGE_CURVE ( 'NONE', #228, #538, #308, .T. ) ;
#586 = DIRECTION ( 'NONE',  ( -1.000000000000000000, 0.0000000000000000000, 0.0000000000000000000 ) ) ;
#587 = ORIENTED_EDGE ( 'NONE', *, *, #176, .F. ) ;
#588 = CARTESIAN_POINT ( 'NONE',  ( 15.26346153846153300, -3.768743813238851500, 15.00000000000000000 ) ) ;
#589 = LINE ( 'NONE', #245, #719 ) ;
#590 = LINE ( 'NONE', #783, #78 ) ;
#591 = LINE ( 'NONE', #115, #569 ) ;
#592 = AXIS2_PLACEMENT_3D ( 'NONE', #521, #67, #531 ) ;
#593 = DIRECTION ( 'NONE',  ( -0.0000000000000000000, -0.0000000000000000000, -1.000000000000000000 ) ) ;
#594 = APPROVAL_PERSON_ORGANIZATION ( #3, #391, #374 ) ;
#595 = CARTESIAN_POINT ( 'NONE',  ( -15.26346153846153300, -2.725176065070117100, 15.00000000000000000 ) ) ;
#596 = DIRECTION ( 'NONE',  ( 0.0000000000000000000, 0.0000000000000000000, -1.000000000000000000 ) ) ;
#597 = VERTEX_POINT ( 'NONE', #848 ) ;
#598 = DIRECTION ( 'NONE',  ( -0.0000000000000000000, -0.0000000000000000000, -1.000000000000000000 ) ) ;
#599 = ORIENTED_EDGE ( 'NONE', *, *, #712, .F. ) ;
#600 = EDGE_CURVE ( 'NONE', #530, #427, #689, .T. ) ;
#601 = ORIENTED_EDGE ( 'NONE', *, *, #801, .F. ) ;
#602 = DIRECTION ( 'NONE',  ( 0.0000000000000000000, 0.0000000000000000000, 1.000000000000000000 ) ) ;
#603 = ORIENTED_EDGE ( 'NONE', *, *, #395, .F. ) ;
#604 = ADVANCED_FACE ( 'NONE', ( #369 ), #2, .F. ) ;
#605 = VERTEX_POINT ( 'NONE', #519 ) ;
#606 = ADVANCED_FACE ( 'NONE', ( #338 ), #454, .F. ) ;
#607 = MANIFOLD_SOLID_BREP ( 'Cutout', #770 ) ;
#608 = CC_DESIGN_SECURITY_CLASSIFICATION ( #733, ( #553 ) ) ;
#609 = LINE ( 'NONE', #743, #370 ) ;
#610 = ORIENTED_EDGE ( 'NONE', *, *, #161, .F. ) ;
#611 = CC_DESIGN_APPROVAL ( #391, ( #340 ) ) ;
#612 = DIRECTION ( 'NONE',  ( 0.0000000000000000000, -0.0000000000000000000, 1.000000000000000000 ) ) ;
#613 = DIRECTION ( 'NONE',  ( -1.000000000000000000, 0.0000000000000000000, 0.0000000000000000000 ) ) ;
#614 = EDGE_CURVE ( 'NONE', #482, #691, #346, .T. ) ;
#615 = ORIENTED_EDGE ( 'NONE', *, *, #705, .T. ) ;
#616 = ADVANCED_FACE ( 'NONE', ( #672 ), #203, .T. ) ;
#617 = ORIENTED_EDGE ( 'NONE', *, *, #696, .T. ) ;
#618 = DIRECTION ( 'NONE',  ( -0.0000000000000000000, -0.0000000000000000000, -1.000000000000000000 ) ) ;
#619 = DIRECTION ( 'NONE',  ( -1.000000000000000000, 0.0000000000000000000, 0.0000000000000000000 ) ) ;
#620 = CYLINDRICAL_SURFACE ( 'NONE', #510, 1.500000000000001300 ) ;
#621 = ORIENTED_EDGE ( 'NONE', *, *, #455, .T. ) ;
#622 = FACE_OUTER_BOUND ( 'NONE', #75, .T. ) ;
#623 = APPROVAL_DATE_TIME ( #114, #418 ) ;
#624 = DIRECTION ( 'NONE',  ( 1.000000000000000000, 0.0000000000000000000, -0.0000000000000000000 ) ) ;
#625 = DIRECTION ( 'NONE',  ( -0.0000000000000000000, -0.0000000000000000000, -1.000000000000000000 ) ) ;
#626 = AXIS2_PLACEMENT_3D ( 'NONE', #352, #625, #277 ) ;
#627 = DIRECTION ( 'NONE',  ( -0.0000000000000000000, -0.0000000000000000000, -1.000000000000000000 ) ) ;
#628 = CARTESIAN_POINT ( 'NONE',  ( 12.30107416651090800, -4.479038682177284500, 0.0000000000000000000 ) ) ;
#629 = ORIENTED_EDGE ( 'NONE', *, *, #773, .F. ) ;
#630 = EDGE_CURVE ( 'NONE', #360, #522, #185, .T. ) ;
#631 = DIRECTION ( 'NONE',  ( 1.000000000000000000, 0.0000000000000000000, 0.0000000000000000000 ) ) ;
#632 = VERTEX_POINT ( 'NONE', #256 ) ;
#633 = VECTOR ( 'NONE', #288, 1000.000000000000000 ) ;
#634 = VERTEX_POINT ( 'NONE', #722 ) ;
#635 = CARTESIAN_POINT ( 'NONE',  ( -13.40000000000000000, -5.499999999999998200, 15.00000000000000000 ) ) ;
#636 = PLANE ( 'NONE',  #432 ) ;
#637 = CIRCLE ( 'NONE', #124, 1.500000000000001300 ) ;
#638 = COORDINATED_UNIVERSAL_TIME_OFFSET ( 7, 0, .BEHIND. ) ;
#639 = AXIS2_PLACEMENT_3D ( 'NONE', #667, #215, #414 ) ;
#640 = AXIS2_PLACEMENT_3D ( 'NONE', #508, #40, #169 ) ;
#641 = ORIENTED_EDGE ( 'NONE', *, *, #376, .F. ) ;
#642 = CIRCLE ( 'NONE', #171, 1.043567748168734000 ) ;
#643 = CYLINDRICAL_SURFACE ( 'NONE', #54, 2.000000000000000000 ) ;
#644 = CARTESIAN_POINT ( 'NONE',  ( -11.53653846153846100, -2.725176065070117100, 15.00000000000000000 ) ) ;
#645 = DIRECTION ( 'NONE',  ( -1.000000000000000000, 1.426852590173899500E-016, 0.0000000000000000000 ) ) ;
#646 = CALENDAR_DATE ( 2019, 19, 10 ) ;
#647 = DIRECTION ( 'NONE',  ( 0.0000000000000000000, 0.0000000000000000000, 1.000000000000000000 ) ) ;
#648 = LINE ( 'NONE', #659, #383 ) ;
#649 = APPROVAL ( #753, 'UNSPECIFIED' ) ;
#650 = DIRECTION ( 'NONE',  ( 0.0000000000000000000, 0.0000000000000000000, 1.000000000000000000 ) ) ;
#651 = CARTESIAN_POINT ( 'NONE',  ( -13.40000000000000000, -5.499999999999998200, 15.00000000000000000 ) ) ;
#652 = ORIENTED_EDGE ( 'NONE', *, *, #571, .F. ) ;
#653 = FACE_OUTER_BOUND ( 'NONE', #491, .T. ) ;
#654 = EDGE_CURVE ( 'NONE', #496, #762, #493, .T. ) ;
#655 = ORIENTED_EDGE ( 'NONE', *, *, #335, .F. ) ;
#656 = DIRECTION ( 'NONE',  ( 0.0000000000000000000, 0.0000000000000000000, 1.000000000000000000 ) ) ;
#657 = DIRECTION ( 'NONE',  ( 0.0000000000000000000, 0.0000000000000000000, 1.000000000000000000 ) ) ;
#658 = EDGE_LOOP ( 'NONE', ( #744, #551, #526, #502 ) ) ;
#659 = CARTESIAN_POINT ( 'NONE',  ( 15.26346153846153300, -2.725176065070117100, 0.0000000000000000000 ) ) ;
#660 = CARTESIAN_POINT ( 'NONE',  ( -11.53653846153846100, -3.768743813238855100, 0.0000000000000000000 ) ) ;
#661 = CARTESIAN_POINT ( 'NONE',  ( -12.58010620970719800, -3.768743813238855100, 15.00000000000000000 ) ) ;
#662 = ORIENTED_EDGE ( 'NONE', *, *, #354, .F. ) ;
#663 = EDGE_LOOP ( 'NONE', ( #846, #652, #138, #200 ) ) ;
#664 = ORIENTED_EDGE ( 'NONE', *, *, #81, .T. ) ;
#665 = ORIENTED_EDGE ( 'NONE', *, *, #287, .T. ) ;
#666 = ORIENTED_EDGE ( 'NONE', *, *, #490, .T. ) ;
#667 = CARTESIAN_POINT ( 'NONE',  ( -15.26346153846153300, -2.725176065070117100, 15.00000000000000000 ) ) ;
#668 = CIRCLE ( 'NONE', #833, 1.500000000000001300 ) ;
#669 = CIRCLE ( 'NONE', #761, 2.000000000000001800 ) ;
#670 = EDGE_CURVE ( 'NONE', #762, #605, #648, .T. ) ;
#671 = AXIS2_PLACEMENT_3D ( 'NONE', #258, #596, #186 ) ;
#672 = FACE_OUTER_BOUND ( 'NONE', #472, .T. ) ;
#673 = ORIENTED_EDGE ( 'NONE', *, *, #737, .T. ) ;
#674 = ADVANCED_FACE ( 'NONE', ( #284 ), #29, .F. ) ;
#675 = AXIS2_PLACEMENT_3D ( 'NONE', #422, #148, #550 ) ;
#676 = VECTOR ( 'NONE', #437, 1000.000000000000000 ) ;
#677 = CYLINDRICAL_SURFACE ( 'NONE', #640, 0.8000000000000020400 ) ;
#678 = ADVANCED_FACE ( 'NONE', ( #406 ), #264, .T. ) ;
#679 = PLANE ( 'NONE',  #754 ) ;
#680 = ORIENTED_EDGE ( 'NONE', *, *, #85, .T. ) ;
#681 = EDGE_LOOP ( 'NONE', ( #7, #621, #14, #84 ) ) ;
#682 = EDGE_CURVE ( 'NONE', #111, #457, #170, .T. ) ;
#683 = CARTESIAN_POINT ( 'NONE',  ( -15.50000000000000000, -2.725176065070117100, 15.00000000000000000 ) ) ;
#684 = CARTESIAN_POINT ( 'NONE',  ( -15.50000000000000000, -1.125176065070119500, 8.400000000000012800 ) ) ;
#685 = VECTOR ( 'NONE', #631, 1000.000000000000000 ) ;
#686 = DIRECTION ( 'NONE',  ( -1.000000000000000000, 0.0000000000000000000, 0.0000000000000000000 ) ) ;
#687 = ORIENTED_EDGE ( 'NONE', *, *, #147, .T. ) ;
#688 = CARTESIAN_POINT ( 'NONE',  ( 15.26346153846153300, -3.768743813238851500, 0.0000000000000000000 ) ) ;
#689 = CIRCLE ( 'NONE', #787, 1.500000000000001300 ) ;
#690 = DIRECTION ( 'NONE',  ( 0.0000000000000000000, 0.0000000000000000000, -1.000000000000000000 ) ) ;
#691 = VERTEX_POINT ( 'NONE', #355 ) ;
#692 = DATE_TIME_ROLE ( 'creation_date' ) ;
#693 = CARTESIAN_POINT ( 'NONE',  ( -11.53653846153846100, -3.768743813238855100, 15.00000000000000000 ) ) ;
#694 = AXIS2_PLACEMENT_3D ( 'NONE', #47, #772, #452 ) ;
#695 = DIRECTION ( 'NONE',  ( 1.000000000000000000, 0.0000000000000000000, 0.0000000000000000000 ) ) ;
#696 = EDGE_CURVE ( 'NONE', #375, #206, #637, .T. ) ;
#697 = CARTESIAN_POINT ( 'NONE',  ( -14.90000000000000200, -5.499999999999998200, 15.00000000000000000 ) ) ;
#698 = VECTOR ( 'NONE', #289, 1000.000000000000000 ) ;
#699 = ORIENTED_EDGE ( 'NONE', *, *, #434, .T. ) ;
#700 = CARTESIAN_POINT ( 'NONE',  ( -15.26346153846153300, -2.725176065070117100, 0.0000000000000000000 ) ) ;
#701 = PERSON_AND_ORGANIZATION_ROLE ( 'classification_officer' ) ;
#702 = CARTESIAN_POINT ( 'NONE',  ( 11.90000000000000600, -5.499999999999998200, 15.00000000000000000 ) ) ;
#703 = AXIS2_PLACEMENT_3D ( 'NONE', #94, #424, #492 ) ;
#704 = DIRECTION ( 'NONE',  ( -1.000000000000000000, 0.0000000000000000000, 0.0000000000000000000 ) ) ;
#705 = EDGE_CURVE ( 'NONE', #820, #530, #750, .T. ) ;
#706 = AXIS2_PLACEMENT_3D ( 'NONE', #385, #109, #113 ) ;
#707 = DIRECTION ( 'NONE',  ( -1.000000000000000000, 0.0000000000000000000, 0.0000000000000000000 ) ) ;
#708 = VECTOR ( 'NONE', #387, 1000.000000000000000 ) ;
#709 = CC_DESIGN_PERSON_AND_ORGANIZATION_ASSIGNMENT ( #494, #839, ( #473 ) ) ;
#710 = DIRECTION ( 'NONE',  ( 1.000000000000000000, 0.0000000000000000000, 0.0000000000000000000 ) ) ;
#711 = VECTOR ( 'NONE', #824, 1000.000000000000000 ) ;
#712 = EDGE_CURVE ( 'NONE', #634, #762, #197, .T. ) ;
#713 = ORIENTED_EDGE ( 'NONE', *, *, #737, .F. ) ;
#714 = CARTESIAN_POINT ( 'NONE',  ( -14.49892583348909300, -4.479038682177277400, 15.00000000000000000 ) ) ;
#715 = AXIS2_PLACEMENT_3D ( 'NONE', #757, #293, #440 ) ;
#716 = ORIENTED_EDGE ( 'NONE', *, *, #797, .F. ) ;
#717 = VECTOR ( 'NONE', #134, 1000.000000000000000 ) ;
#718 = DIRECTION ( 'NONE',  ( -1.000000000000000000, 0.0000000000000000000, 0.0000000000000000000 ) ) ;
#719 = VECTOR ( 'NONE', #310, 1000.000000000000000 ) ;
#720 = VECTOR ( 'NONE', #309, 1000.000000000000000 ) ;
#721 = CIRCLE ( 'NONE', #536, 1.500000000000001300 ) ;
#722 = CARTESIAN_POINT ( 'NONE',  ( 15.26346153846153300, -2.725176065070117100, 15.00000000000000000 ) ) ;
#723 = AXIS2_PLACEMENT_3D ( 'NONE', #368, #296, #841 ) ;
#724 = CARTESIAN_POINT ( 'NONE',  ( 33.50000000000000000, -1.925176065070119700, 15.00000000000000000 ) ) ;
#725 = CALENDAR_DATE ( 2019, 19, 10 ) ;
#726 = CARTESIAN_POINT ( 'NONE',  ( -12.30107416651090400, -4.479038682177281000, 0.0000000000000000000 ) ) ;
#727 = DIRECTION ( 'NONE',  ( 0.0000000000000000000, 0.0000000000000000000, 1.000000000000000000 ) ) ;
#728 = VERTEX_POINT ( 'NONE', #154 ) ;
#729 = EDGE_CURVE ( 'NONE', #230, #807, #808, .T. ) ;
#730 = VECTOR ( 'NONE', #307, 1000.000000000000000 ) ;
#731 = CARTESIAN_POINT ( 'NONE',  ( 13.40000000000000700, -5.499999999999998200, 15.00000000000000000 ) ) ;
#732 = VECTOR ( 'NONE', #357, 1000.000000000000000 ) ;
#733 = SECURITY_CLASSIFICATION ( '', '', #431 ) ;
#734 = DATE_AND_TIME ( #371, #462 ) ;
#735 = CARTESIAN_POINT ( 'NONE',  ( 14.49892583348909300, -4.479038682177278300, 15.00000000000000000 ) ) ;
#736 =( GEOMETRIC_REPRESENTATION_CONTEXT ( 3 ) GLOBAL_UNCERTAINTY_ASSIGNED_CONTEXT ( ( #435 ) ) GLOBAL_UNIT_ASSIGNED_CONTEXT ( ( #362, #572, #223 ) ) REPRESENTATION_CONTEXT ( 'NONE', 'WORKASPACE' ) );
#737 = EDGE_CURVE ( 'NONE', #39, #597, #609, .T. ) ;
#738 = CIRCLE ( 'NONE', #706, 1.043567748168737500 ) ;
#739 = CARTESIAN_POINT ( 'NONE',  ( -33.50000000000000000, -2.725176065070119800, 15.00000000000000000 ) ) ;
#740 = CYLINDRICAL_SURFACE ( 'NONE', #117, 1.500000000000001300 ) ;
#741 = PLANE ( 'NONE',  #782 ) ;
#742 = CIRCLE ( 'NONE', #193, 1.043567748168737500 ) ;
#743 = CARTESIAN_POINT ( 'NONE',  ( -17.50000000000001400, -6.999999999999999100, 6.399999999999998600 ) ) ;
#744 = ORIENTED_EDGE ( 'NONE', *, *, #129, .F. ) ;
#745 = ORIENTED_EDGE ( 'NONE', *, *, #851, .F. ) ;
#746 = VERTEX_POINT ( 'NONE', #628 ) ;
#747 = CARTESIAN_POINT ( 'NONE',  ( 14.49892583348909300, -4.479038682177278300, 15.00000000000000000 ) ) ;
#748 = LINE ( 'NONE', #504, #167 ) ;
#749 = DIRECTION ( 'NONE',  ( 0.0000000000000000000, 0.0000000000000000000, 1.000000000000000000 ) ) ;
#750 = LINE ( 'NONE', #481, #732 ) ;
#751 = CARTESIAN_POINT ( 'NONE',  ( -13.40000000000000000, -5.499999999999998200, 15.00000000000000000 ) ) ;
#752 = CARTESIAN_POINT ( 'NONE',  ( -11.53653846153846100, -2.725176065070117100, 0.0000000000000000000 ) ) ;
#753 = APPROVAL_STATUS ( 'not_yet_approved' ) ;
#754 = AXIS2_PLACEMENT_3D ( 'NONE', #558, #749, #212 ) ;
#755 = VECTOR ( 'NONE', #60, 1000.000000000000000 ) ;
#756 = PRODUCT_DEFINITION_SHAPE ( 'NONE', 'NONE',  #340 ) ;
#757 = CARTESIAN_POINT ( 'NONE',  ( 33.50000000000000000, -1.925176065070119700, 0.0000000000000000000 ) ) ;
#758 = CIRCLE ( 'NONE', #189, 1.500000000000001300 ) ;
#759 = ORGANIZATION ( 'UNSPECIFIED', 'UNSPECIFIED', '' ) ;
#760 = CARTESIAN_POINT ( 'NONE',  ( -11.89999999999999900, -5.499999999999998200, 0.0000000000000000000 ) ) ;
#761 = AXIS2_PLACEMENT_3D ( 'NONE', #562, #22, #344 ) ;
#762 = VERTEX_POINT ( 'NONE', #19 ) ;
#763 = MECHANICAL_CONTEXT ( 'NONE', #108, 'mechanical' ) ;
#764 = DIRECTION ( 'NONE',  ( 0.0000000000000000000, 0.0000000000000000000, 1.000000000000000000 ) ) ;
#765 = APPROVAL_STATUS ( 'not_yet_approved' ) ;
#766 = DIRECTION ( 'NONE',  ( -1.000000000000000000, 0.0000000000000000000, 0.0000000000000000000 ) ) ;
#767 = ORIENTED_EDGE ( 'NONE', *, *, #107, .T. ) ;
#768 = CARTESIAN_POINT ( 'NONE',  ( 14.21989379029279900, -3.768743813238851500, 0.0000000000000000000 ) ) ;
#769 = LINE ( 'NONE', #752, #685 ) ;
#770 = CLOSED_SHELL ( 'NONE', ( #467, #487, #409, #77, #541, #678, #269, #604, #11, #80, #339, #198, #163, #66, #837, #616, #141, #401, #262, #800, #333, #606, #341, #674 ) ) ;
#771 = FACE_OUTER_BOUND ( 'NONE', #280, .T. ) ;
#772 = DIRECTION ( 'NONE',  ( -0.0000000000000000000, -0.0000000000000000000, -1.000000000000000000 ) ) ;
#773 = EDGE_CURVE ( 'NONE', #158, #826, #272, .T. ) ;
#774 = CARTESIAN_POINT ( 'NONE',  ( 12.30107416651090800, -4.479038682177284500, 15.00000000000000000 ) ) ;
#775 = SHAPE_DEFINITION_REPRESENTATION ( #756, #856 ) ;
#776 = ORIENTED_EDGE ( 'NONE', *, *, #279, .F. ) ;
#777 = DIRECTION ( 'NONE',  ( -0.0000000000000000000, -0.0000000000000000000, -1.000000000000000000 ) ) ;
#778 = ORIENTED_EDGE ( 'NONE', *, *, #797, .T. ) ;
#779 = CARTESIAN_POINT ( 'NONE',  ( -34.30000000000000400, -1.925176065070119700, 6.399999999999999500 ) ) ;
#780 = DIRECTION ( 'NONE',  ( -0.0000000000000000000, -0.0000000000000000000, -1.000000000000000000 ) ) ;
#781 = VECTOR ( 'NONE', #372, 1000.000000000000000 ) ;
#782 = AXIS2_PLACEMENT_3D ( 'NONE', #150, #278, #624 ) ;
#783 = CARTESIAN_POINT ( 'NONE',  ( 11.90000000000000600, -5.499999999999998200, 15.00000000000000000 ) ) ;
#784 = ORIENTED_EDGE ( 'NONE', *, *, #630, .F. ) ;
#785 = EDGE_LOOP ( 'NONE', ( #255, #615, #358, #662 ) ) ;
#786 = ORIENTED_EDGE ( 'NONE', *, *, #232, .F. ) ;
#787 = AXIS2_PLACEMENT_3D ( 'NONE', #59, #650, #704 ) ;
#788 = CARTESIAN_POINT ( 'NONE',  ( 33.50000000000000000, -1.125176065070119500, 15.00000000000000000 ) ) ;
#789 = ORIENTED_EDGE ( 'NONE', *, *, #176, .T. ) ;
#790 = EDGE_CURVE ( 'NONE', #482, #133, #282, .T. ) ;
#791 = DIRECTION ( 'NONE',  ( -1.000000000000000000, 0.0000000000000000000, 0.0000000000000000000 ) ) ;
#792 = FACE_OUTER_BOUND ( 'NONE', #144, .T. ) ;
#793 = ORIENTED_EDGE ( 'NONE', *, *, #585, .T. ) ;
#794 = ORIENTED_EDGE ( 'NONE', *, *, #838, .T. ) ;
#795 = CARTESIAN_POINT ( 'NONE',  ( -11.53653846153846100, -2.725176065070117100, 15.00000000000000000 ) ) ;
#796 = PERSON_AND_ORGANIZATION ( #74, #759 ) ;
#797 = EDGE_CURVE ( 'NONE', #118, #142, #112, .T. ) ;
#798 = ORIENTED_EDGE ( 'NONE', *, *, #529, .F. ) ;
#799 = PRODUCT_RELATED_PRODUCT_CATEGORY ( 'detail', '', ( #473 ) ) ;
#800 = ADVANCED_FACE ( 'NONE', ( #622 ), #679, .T. ) ;
#801 = EDGE_CURVE ( 'NONE', #499, #539, #17, .T. ) ;
#802 = FACE_OUTER_BOUND ( 'NONE', #849, .T. ) ;
#803 = ORIENTED_EDGE ( 'NONE', *, *, #161, .T. ) ;
#804 = LINE ( 'NONE', #570, #781 ) ;
#805 = CYLINDRICAL_SURFACE ( 'NONE', #347, 1.500000000000001300 ) ;
#806 = VERTEX_POINT ( 'NONE', #735 ) ;
#807 = VERTEX_POINT ( 'NONE', #684 ) ;
#808 = LINE ( 'NONE', #818, #449 ) ;
#809 = ORIENTED_EDGE ( 'NONE', *, *, #773, .T. ) ;
#810 = ORIENTED_EDGE ( 'NONE', *, *, #287, .F. ) ;
#811 = DIRECTION ( 'NONE',  ( 0.0000000000000000000, 0.0000000000000000000, -1.000000000000000000 ) ) ;
#812 = ORIENTED_EDGE ( 'NONE', *, *, #455, .F. ) ;
#813 = DIRECTION ( 'NONE',  ( 0.0000000000000000000, 0.0000000000000000000, 1.000000000000000000 ) ) ;
#814 = CARTESIAN_POINT ( 'NONE',  ( -15.26346153846153300, -2.725176065070117100, 15.00000000000000000 ) ) ;
#815 = DIRECTION ( 'NONE',  ( -0.0000000000000000000, -0.0000000000000000000, -1.000000000000000000 ) ) ;
#816 = PERSON_AND_ORGANIZATION ( #74, #759 ) ;
#817 = ORIENTED_EDGE ( 'NONE', *, *, #241, .T. ) ;
#818 = CARTESIAN_POINT ( 'NONE',  ( -15.50000000000000000, -6.999999999999999100, 8.400000000000012800 ) ) ;
#819 = CARTESIAN_POINT ( 'NONE',  ( 11.53653846153846100, -2.725176065070118000, 15.00000000000000000 ) ) ;
#820 = VERTEX_POINT ( 'NONE', #97 ) ;
#821 = CARTESIAN_POINT ( 'NONE',  ( -13.40000000000000000, -5.499999999999998200, 0.0000000000000000000 ) ) ;
#822 = ORIENTED_EDGE ( 'NONE', *, *, #335, .T. ) ;
#823 = FACE_OUTER_BOUND ( 'NONE', #153, .T. ) ;
#824 = DIRECTION ( 'NONE',  ( -0.0000000000000000000, -0.0000000000000000000, -1.000000000000000000 ) ) ;
#825 = ORIENTED_EDGE ( 'NONE', *, *, #729, .T. ) ;
#826 = VERTEX_POINT ( 'NONE', #415 ) ;
#827 = DIRECTION ( 'NONE',  ( -1.000000000000000000, 0.0000000000000000000, 0.0000000000000000000 ) ) ;
#828 = CARTESIAN_POINT ( 'NONE',  ( 0.0000000000000000000, 0.0000000000000000000, 0.0000000000000000000 ) ) ;
#829 = ORIENTED_EDGE ( 'NONE', *, *, #376, .T. ) ;
#830 = DIRECTION ( 'NONE',  ( -0.0000000000000000000, -0.0000000000000000000, -1.000000000000000000 ) ) ;
#831 = ORIENTED_EDGE ( 'NONE', *, *, #63, .F. ) ;
#832 = CARTESIAN_POINT ( 'NONE',  ( -33.50000000000000000, -1.925176065070119700, 6.399999999999999500 ) ) ;
#833 = AXIS2_PLACEMENT_3D ( 'NONE', #242, #656, #50 ) ;
#834 = FACE_OUTER_BOUND ( 'NONE', #475, .T. ) ;
#835 = CARTESIAN_POINT ( 'NONE',  ( -12.58010620970719800, -3.768743813238855100, 15.00000000000000000 ) ) ;
#836 = AXIS2_PLACEMENT_3D ( 'NONE', #828, #306, #563 ) ;
#837 = ADVANCED_FACE ( 'NONE', ( #263 ), #636, .F. ) ;
#838 = EDGE_CURVE ( 'NONE', #445, #538, #254, .T. ) ;
#839 = PERSON_AND_ORGANIZATION_ROLE ( 'design_owner' ) ;
#840 = LOCAL_TIME ( 8, 12, 38.00000000000000000, #396 ) ;
#841 = DIRECTION ( 'NONE',  ( -1.000000000000000000, 0.0000000000000000000, 0.0000000000000000000 ) ) ;
#842 = DIRECTION ( 'NONE',  ( -0.0000000000000000000, -0.0000000000000000000, -1.000000000000000000 ) ) ;
#843 = CARTESIAN_POINT ( 'NONE',  ( -11.53653846153846100, -3.768743813238855100, 15.00000000000000000 ) ) ;
#844 = ORIENTED_EDGE ( 'NONE', *, *, #403, .T. ) ;
#845 = CARTESIAN_POINT ( 'NONE',  ( -33.50000000000000000, -1.925176065070119700, 0.0000000000000000000 ) ) ;
#846 = ORIENTED_EDGE ( 'NONE', *, *, #670, .T. ) ;
#847 = ORIENTED_EDGE ( 'NONE', *, *, #275, .F. ) ;
#848 = CARTESIAN_POINT ( 'NONE',  ( -17.50000000000001400, -1.125176065070119500, 6.399999999999998600 ) ) ;
#849 = EDGE_LOOP ( 'NONE', ( #299, #655, #384, #247 ) ) ;
#850 = ORIENTED_EDGE ( 'NONE', *, *, #265, .F. ) ;
#851 = EDGE_CURVE ( 'NONE', #33, #746, #748, .T. ) ;
#852 = CARTESIAN_POINT ( 'NONE',  ( -14.49892583348909300, -4.479038682177277400, 15.00000000000000000 ) ) ;
#853 = AXIS2_PLACEMENT_3D ( 'NONE', #688, #489, #613 ) ;
#854 = VERTEX_POINT ( 'NONE', #500 ) ;
#855 = CARTESIAN_POINT ( 'NONE',  ( -15.50000000000000000, -2.725176065070117100, 15.00000000000000000 ) ) ;
#856 = ADVANCED_BREP_SHAPE_REPRESENTATION ( 'MX07', ( #607, #836 ), #736 ) ;
#857 = CARTESIAN_POINT ( 'NONE',  ( 14.90000000000000900, -5.499999999999998200, 0.0000000000000000000 ) ) ;
#858 = EDGE_CURVE ( 'NONE', #605, #318, #102, .T. ) ;
#859 = CARTESIAN_POINT ( 'NONE',  ( 33.50000000000000000, -1.125176065070119500, 15.00000000000000000 ) ) ;
#860 = DIRECTION ( 'NONE',  ( -0.0000000000000000000, -0.0000000000000000000, -1.000000000000000000 ) ) ;
#861 = CIRCLE ( 'NONE', #34, 1.043567748168734000 ) ;
#862 = CARTESIAN_POINT ( 'NONE',  ( 13.40000000000000700, -5.499999999999998200, 15.00000000000000000 ) ) ;
#863 = ORIENTED_EDGE ( 'NONE', *, *, #476, .T. ) ;
ENDSEC;
END-ISO-10303-21;
